0:901
1:1025
2:1162
3:1265
4:1363
5:1434
6:2384
7:3580
8:6051
9:5392
10:7180
11:7559
12:8334
13:8590
14:6048
15:7270
16:7472
17:6256
18:5937
19:8353
20:7566
21:8459
22:8820
23:10168
24:7941
25:10546
26:8474
27:4056
28:7794
29:6460
30:9022
31:10171
32:7698
33:6304
34:4880
35:6614
36:7846
37:7098
38:4778
39:7507
40:12683
41:11855
