0:999
1:1048
2:1179
3:1226
4:1785
5:1650
6:2362
7:3541
8:5777
9:5034
10:5348
11:9130
12:8473
13:8601
14:6256
15:10498
16:8793
17:7225
18:6782
19:7560
20:7621
21:10310
22:9188
23:10307
24:8293
25:7989
26:6269
27:4096
28:5119
29:4421
30:8936
31:11248
32:8222
33:6713
34:3438
35:8585
36:10983
37:8832
38:5781
39:3786
40:14173
41:18909
