0:1145
1:1186
2:1124
3:1640
4:1619
5:2341
6:3046
7:5976
8:6688
9:4743
10:8163
11:8083
12:8613
13:4531
14:5520
15:6205
16:5705
17:6389
18:6172
19:9988
20:8291
21:8973
22:7851
23:8737
24:6093
25:4006
26:7840
27:7141
28:9268
29:9059
30:8072
31:12291
32:8310
33:11419
34:8163
35:6205
36:10400
37:6566
38:8792
39:11263
40:5841
41:3480
42:16090
43:20315
44:11031
