0:1811
1:1515
2:1327
3:1429
4:902
5:1363
6:1342
7:1505
8:1554
9:1684
10:1269
11:2788
12:3097
13:6182
14:4639
15:7820
16:3795
17:8261
18:7188
19:7949
20:7603
21:7408
22:13755
23:13142
24:6580
25:8212
26:6896
27:7822
28:6673
29:3298
30:6045
31:4096
32:6607
