0:1700
1:1293
2:1327
3:1359
4:997
5:1381
6:1292
7:1618
8:1251
9:1773
10:1259
11:2368
12:3097
13:6182
14:4645
15:7961
16:3935
17:6473
18:6180
19:6269
20:8406
21:6856
22:10330
23:10588
24:10270
25:9778
26:7237
27:5915
28:3173
29:2886
30:8642
31:7380
32:9955
