0:1330
1:1265
2:1396
3:1594
4:1056
5:1979
6:1418
7:1763
8:1524
9:1841
10:1360
11:2966
12:4040
13:5900
14:6192
15:4817
16:4753
17:5980
18:7420
19:5310
20:7179
21:8661
22:6422
23:7857
24:12014
25:9901
26:9524
27:6849
28:4172
29:3360
30:4952
31:7615
32:5558
33:6599
