0:1811
1:1411
2:1287
3:1324
4:979
5:1393
6:1479
7:1473
8:1732
9:1437
10:3425
11:5123
12:6474
13:5979
14:5766
15:8993
16:6209
17:7615
18:8342
19:8787
20:14427
21:14332
22:10207
23:11828
24:8404
25:6060
26:1932
27:4980
28:7229
29:5106
30:6561
