0:1420
1:1251
2:1324
3:1386
4:1056
5:1659
6:1418
7:1770
8:1524
9:1841
10:1360
11:2966
12:4040
13:5900
14:6192
15:4817
16:4770
17:8566
18:9129
19:7063
20:6845
21:8568
22:8616
23:9386
24:10059
25:10188
26:9431
27:6839
28:4163
29:3689
30:5114
31:7425
32:5529
33:7208
