0:2208
1:1245
2:1251
3:1298
4:1363
5:1094
6:1659
7:1418
8:1752
9:1570
10:1764
11:1471
12:2603
13:3810
14:5678
15:5390
16:6330
17:6701
18:5570
19:8085
20:6774
21:7413
22:7356
23:6632
24:8099
25:10386
26:10275
27:9764
28:6856
29:5300
30:4244
31:5068
32:7413
33:5578
34:7172
