0:1094
1:1320
2:1180
3:1514
4:929
5:1379
6:1326
7:1349
8:1262
9:1764
10:1378
11:2492
12:2928
13:5904
14:4908
15:4083
16:6259
17:6447
18:7882
19:7435
20:8045
21:8708
22:9324
23:10317
24:9911
25:7088
26:8290
27:5393
28:3446
29:8383
30:6527
31:8622
