0:1878
1:1377
2:1316
3:1241
4:1135
5:986
6:1407
7:1118
8:1846
9:1797
10:1356
11:2281
12:4825
13:6314
14:5798
15:8236
16:7624
17:8797
18:7310
19:7368
20:7572
21:7457
22:8587
23:13089
24:9756
25:9645
26:10384
27:6195
28:5377
29:1969
30:7122
31:8421
32:8127
33:9104
