0:1309
1:1270
2:1341
3:1264
4:1049
5:892
6:1418
7:1071
8:1544
9:1969
10:1522
11:3324
12:3224
13:6025
14:6474
15:5150
16:4950
17:5929
18:7283
19:6028
20:4957
21:5638
22:7069
23:9947
24:13068
25:8808
26:8800
27:6384
28:4309
29:3897
30:5229
31:7299
32:5873
33:6818
