0:1285
1:1265
2:1341
3:1367
4:1036
5:1654
6:1418
7:1209
8:1544
9:1841
10:3248
11:3224
12:6025
13:6474
14:5078
15:4871
16:8664
17:9089
18:7172
19:7366
20:8366
21:7518
22:8385
23:12372
24:8438
25:9549
26:7371
27:6165
28:3907
29:2504
30:4775
31:4448
32:6711
