0:1489
1:1269
2:1341
3:1277
4:1051
5:1669
6:1661
7:1138
8:1587
9:1841
10:2588
11:2985
12:5804
13:6314
14:5040
15:6035
16:7482
17:9037
18:6690
19:7365
20:8947
21:7169
22:8472
23:12212
24:10298
25:9365
26:6901
27:4276
28:3467
29:8544
30:8384
31:7925
32:8380
