0:1811
1:1323
2:1387
3:1340
4:1123
5:889
6:1296
7:1097
8:1824
9:1828
10:2910
11:3533
12:4721
13:6237
14:5524
15:7303
16:5959
17:7044
18:5655
19:5896
20:9988
21:7200
22:8430
23:13902
24:9535
25:10349
26:10265
27:7367
28:5555
29:1791
30:6992
31:8325
32:8252
33:9881
