0:1811
1:1471
2:1300
3:1335
4:1000
5:1389
6:1285
7:1473
8:1173
9:1747
10:3125
11:3109
12:6182
13:7266
14:4418
15:7150
16:7383
17:8389
18:8996
19:7708
20:11016
21:6723
22:11562
23:8073
24:5934
25:1814
26:8059
27:8458
28:6834
29:9933
