0:1669
1:1289
2:1425
3:1176
4:1083
5:892
6:1394
7:990
8:1661
9:1786
10:2588
11:3357
12:4590
13:6232
14:5226
15:7586
16:5965
17:6480
18:8579
19:6897
20:8234
21:9879
22:6589
23:10350
24:12761
25:10501
26:9333
27:7010
28:6446
29:5585
30:4059
31:1663
32:5755
33:6580
34:7348
