0:1210
1:1251
2:1324
3:1580
4:1044
5:1979
6:1418
7:1775
8:1559
9:1841
10:1360
11:2592
12:3821
13:5678
14:5997
15:4746
16:4770
17:8532
18:10109
19:7760
20:7517
21:9076
22:8807
23:9341
24:10734
25:9759
26:9483
27:6845
28:5148
29:3907
30:8459
31:8384
32:7608
33:8474
