0:1811
1:1411
2:1287
3:1313
4:953
5:1497
6:1479
7:1473
8:1732
9:1488
10:3169
11:4880
12:6314
13:5793
14:5865
15:7935
16:5947
17:6358
18:8990
19:8150
20:13463
21:13523
22:8102
23:10900
24:7807
25:6137
26:2187
27:5249
28:7430
29:6097
30:7293
