%!PS-Adobe-3.0 EPSF-3.0
%%Title: /home/chris/ssap_ws/real_data_results/Normal_Tests/sim_vs_real.eps
%%Creator: matplotlib version 2.2.5, http://matplotlib.org/
%%CreationDate: Sat Sep 26 16:10:15 2020
%%Orientation: portrait
%%BoundingBox: 75 223 536 568
%%EndComments
%%BeginProlog
/mpldict 8 dict def
mpldict begin
/m { moveto } bind def
/l { lineto } bind def
/r { rlineto } bind def
/c { curveto } bind def
/cl { closepath } bind def
/box {
m
1 index 0 r
0 exch r
neg 0 r
cl
} bind def
/clipbox {
box
clip
newpath
} bind def
%!PS-Adobe-3.0 Resource-Font
%%Title: DejaVu Sans
%%Copyright: Copyright (c) 2003 by Bitstream, Inc. All Rights Reserved. Copyright (c) 2006 by Tavmjong Bah. All Rights Reserved. DejaVu changes are in public domain 
%%Creator: Converted from TrueType to type 3 by PPR
25 dict begin
/_d{bind def}bind def
/_m{moveto}_d
/_l{lineto}_d
/_cl{closepath eofill}_d
/_c{curveto}_d
/_sc{7 -1 roll{setcachedevice}{pop pop pop pop pop pop}ifelse}_d
/_e{exec}_d
/FontName /DejaVuSans def
/PaintType 0 def
/FontMatrix[.001 0 0 .001 0 0]def
/FontBBox[-1021 -463 1793 1232]def
/FontType 3 def
/Encoding [ /space /parenleft /parenright /hyphen /period /zero /one /two /four /six /eight /A /C /D /F /H /M /N /O /P /R /S /W /a /c /d /e /i /l /m /n /o /p /r /s /t /u /z ] def
/FontInfo 10 dict dup begin
/FamilyName (DejaVu Sans) def
/FullName (DejaVu Sans) def
/Notice (Copyright (c) 2003 by Bitstream, Inc. All Rights Reserved. Copyright (c) 2006 by Tavmjong Bah. All Rights Reserved. DejaVu changes are in public domain ) def
/Weight (Book) def
/Version (Version 2.35) def
/ItalicAngle 0.0 def
/isFixedPitch false def
/UnderlinePosition -130 def
/UnderlineThickness 90 def
end readonly def
/CharStrings 39 dict dup begin
/.notdef 0 def
/space{318 0 0 0 0 0 _sc
}_d
/parenleft{390 0 86 -131 310 759 _sc
310 759 _m
266 683 234 609 213 536 _c
191 463 181 389 181 314 _c
181 238 191 164 213 91 _c
234 17 266 -56 310 -131 _c
232 -131 _l
183 -54 146 20 122 94 _c
98 168 86 241 86 314 _c
86 386 98 459 122 533 _c
146 607 182 682 232 759 _c
310 759 _l
_cl}_d
/parenright{390 0 80 -131 304 759 _sc
80 759 _m
158 759 _l
206 682 243 607 267 533 _c
291 459 304 386 304 314 _c
304 241 291 168 267 94 _c
243 20 206 -54 158 -131 _c
80 -131 _l
123 -56 155 17 177 91 _c
198 164 209 238 209 314 _c
209 389 198 463 177 536 _c
155 609 123 683 80 759 _c
_cl}_d
/hyphen{361 0 49 234 312 314 _sc
49 314 _m
312 314 _l
312 234 _l
49 234 _l
49 314 _l
_cl}_d
/period{318 0 107 0 210 124 _sc
107 124 _m
210 124 _l
210 0 _l
107 0 _l
107 124 _l
_cl}_d
/zero{636 0 66 -13 570 742 _sc
318 664 _m
267 664 229 639 203 589 _c
177 539 165 464 165 364 _c
165 264 177 189 203 139 _c
229 89 267 64 318 64 _c
369 64 407 89 433 139 _c
458 189 471 264 471 364 _c
471 464 458 539 433 589 _c
407 639 369 664 318 664 _c
318 742 _m
399 742 461 709 505 645 _c
548 580 570 486 570 364 _c
570 241 548 147 505 83 _c
461 19 399 -13 318 -13 _c
236 -13 173 19 130 83 _c
87 147 66 241 66 364 _c
66 486 87 580 130 645 _c
173 709 236 742 318 742 _c
_cl}_d
/one{636 0 110 0 544 729 _sc
124 83 _m
285 83 _l
285 639 _l
110 604 _l
110 694 _l
284 729 _l
383 729 _l
383 83 _l
544 83 _l
544 0 _l
124 0 _l
124 83 _l
_cl}_d
/two{{636 0 73 0 536 742 _sc
192 83 _m
536 83 _l
536 0 _l
73 0 _l
73 83 _l
110 121 161 173 226 239 _c
290 304 331 346 348 365 _c
380 400 402 430 414 455 _c
426 479 433 504 433 528 _c
433 566 419 598 392 622 _c
365 646 330 659 286 659 _c
255 659 222 653 188 643 _c
154 632 117 616 78 594 _c
78 694 _l
118 710 155 722 189 730 _c
223 738 255 742 284 742 _c
}_e{359 742 419 723 464 685 _c
509 647 532 597 532 534 _c
532 504 526 475 515 449 _c
504 422 484 390 454 354 _c
446 344 420 317 376 272 _c
332 227 271 164 192 83 _c
_cl}_e}_d
/four{636 0 49 0 580 729 _sc
378 643 _m
129 254 _l
378 254 _l
378 643 _l
352 729 _m
476 729 _l
476 254 _l
580 254 _l
580 172 _l
476 172 _l
476 0 _l
378 0 _l
378 172 _l
49 172 _l
49 267 _l
352 729 _l
_cl}_d
/six{{636 0 70 -13 573 742 _sc
330 404 _m
286 404 251 388 225 358 _c
199 328 186 286 186 234 _c
186 181 199 139 225 109 _c
251 79 286 64 330 64 _c
374 64 409 79 435 109 _c
461 139 474 181 474 234 _c
474 286 461 328 435 358 _c
409 388 374 404 330 404 _c
526 713 _m
526 623 _l
501 635 476 644 451 650 _c
425 656 400 659 376 659 _c
310 659 260 637 226 593 _c
}_e{192 549 172 482 168 394 _c
187 422 211 444 240 459 _c
269 474 301 482 336 482 _c
409 482 467 459 509 415 _c
551 371 573 310 573 234 _c
573 159 550 99 506 54 _c
462 9 403 -13 330 -13 _c
246 -13 181 19 137 83 _c
92 147 70 241 70 364 _c
70 479 97 571 152 639 _c
206 707 280 742 372 742 _c
396 742 421 739 447 735 _c
472 730 498 723 526 713 _c
_cl}_e}_d
/eight{{636 0 68 -13 568 742 _sc
318 346 _m
271 346 234 333 207 308 _c
180 283 167 249 167 205 _c
167 161 180 126 207 101 _c
234 76 271 64 318 64 _c
364 64 401 76 428 102 _c
455 127 469 161 469 205 _c
469 249 455 283 429 308 _c
402 333 365 346 318 346 _c
219 388 _m
177 398 144 418 120 447 _c
96 476 85 511 85 553 _c
85 611 105 657 147 691 _c
188 725 245 742 318 742 _c
}_e{390 742 447 725 489 691 _c
530 657 551 611 551 553 _c
551 511 539 476 515 447 _c
491 418 459 398 417 388 _c
464 377 501 355 528 323 _c
554 291 568 251 568 205 _c
568 134 546 80 503 43 _c
459 5 398 -13 318 -13 _c
237 -13 175 5 132 43 _c
89 80 68 134 68 205 _c
68 251 81 291 108 323 _c
134 355 171 377 219 388 _c
183 544 _m
183 506 194 476 218 455 _c
}_e{242 434 275 424 318 424 _c
360 424 393 434 417 455 _c
441 476 453 506 453 544 _c
453 582 441 611 417 632 _c
393 653 360 664 318 664 _c
275 664 242 653 218 632 _c
194 611 183 582 183 544 _c
_cl}_e}_d
/A{684 0 8 0 676 729 _sc
342 632 _m
208 269 _l
476 269 _l
342 632 _l
286 729 _m
398 729 _l
676 0 _l
573 0 _l
507 187 _l
178 187 _l
112 0 _l
8 0 _l
286 729 _l
_cl}_d
/C{{698 0 56 -13 644 742 _sc
644 673 _m
644 569 _l
610 599 575 622 537 638 _c
499 653 460 661 418 661 _c
334 661 270 635 226 584 _c
182 533 160 460 160 364 _c
160 268 182 194 226 143 _c
270 92 334 67 418 67 _c
460 67 499 74 537 90 _c
575 105 610 128 644 159 _c
644 56 _l
609 32 572 15 534 4 _c
496 -7 455 -13 412 -13 _c
302 -13 215 20 151 87 _c
}_e{87 154 56 246 56 364 _c
56 481 87 573 151 641 _c
215 708 302 742 412 742 _c
456 742 497 736 535 725 _c
573 713 610 696 644 673 _c
_cl}_e}_d
/D{770 0 98 0 711 729 _sc
197 648 _m
197 81 _l
316 81 _l
416 81 490 103 537 149 _c
583 195 607 267 607 365 _c
607 463 583 534 537 580 _c
490 625 416 648 316 648 _c
197 648 _l
98 729 _m
301 729 _l
442 729 546 699 612 641 _c
678 582 711 490 711 365 _c
711 239 677 147 611 88 _c
545 29 441 0 301 0 _c
98 0 _l
98 729 _l
_cl}_d
/F{575 0 98 0 517 729 _sc
98 729 _m
517 729 _l
517 646 _l
197 646 _l
197 431 _l
486 431 _l
486 348 _l
197 348 _l
197 0 _l
98 0 _l
98 729 _l
_cl}_d
/H{752 0 98 0 654 729 _sc
98 729 _m
197 729 _l
197 430 _l
555 430 _l
555 729 _l
654 729 _l
654 0 _l
555 0 _l
555 347 _l
197 347 _l
197 0 _l
98 0 _l
98 729 _l
_cl}_d
/M{863 0 98 0 765 729 _sc
98 729 _m
245 729 _l
431 233 _l
618 729 _l
765 729 _l
765 0 _l
669 0 _l
669 640 _l
481 140 _l
382 140 _l
194 640 _l
194 0 _l
98 0 _l
98 729 _l
_cl}_d
/N{748 0 98 0 650 729 _sc
98 729 _m
231 729 _l
554 119 _l
554 729 _l
650 729 _l
650 0 _l
517 0 _l
194 610 _l
194 0 _l
98 0 _l
98 729 _l
_cl}_d
/O{787 0 56 -13 731 742 _sc
394 662 _m
322 662 265 635 223 582 _c
181 528 160 456 160 364 _c
160 272 181 199 223 146 _c
265 92 322 66 394 66 _c
465 66 522 92 564 146 _c
606 199 627 272 627 364 _c
627 456 606 528 564 582 _c
522 635 465 662 394 662 _c
394 742 _m
496 742 577 707 639 639 _c
700 571 731 479 731 364 _c
731 248 700 157 639 89 _c
577 21 496 -13 394 -13 _c
291 -13 209 21 148 89 _c
86 157 56 248 56 364 _c
56 479 86 571 148 639 _c
209 707 291 742 394 742 _c
_cl}_d
/P{603 0 98 0 569 729 _sc
197 648 _m
197 374 _l
321 374 _l
367 374 402 385 427 409 _c
452 433 465 467 465 511 _c
465 555 452 588 427 612 _c
402 636 367 648 321 648 _c
197 648 _l
98 729 _m
321 729 _l
402 729 464 710 506 673 _c
548 636 569 582 569 511 _c
569 439 548 384 506 348 _c
464 311 402 293 321 293 _c
197 293 _l
197 0 _l
98 0 _l
98 729 _l
_cl}_d
/R{{695 0 98 0 666 729 _sc
444 342 _m
465 334 486 319 506 296 _c
526 272 546 240 566 199 _c
666 0 _l
560 0 _l
467 187 _l
443 235 419 268 397 284 _c
374 300 343 308 304 308 _c
197 308 _l
197 0 _l
98 0 _l
98 729 _l
321 729 _l
404 729 466 711 507 677 _c
548 642 569 589 569 519 _c
569 473 558 434 537 404 _c
515 374 484 353 444 342 _c
197 648 _m
197 389 _l
321 389 _l
}_e{368 389 404 400 428 422 _c
452 444 465 476 465 519 _c
465 561 452 593 428 615 _c
404 637 368 648 321 648 _c
197 648 _l
_cl}_e}_d
/S{{635 0 66 -13 579 742 _sc
535 705 _m
535 609 _l
497 627 462 640 429 649 _c
395 657 363 662 333 662 _c
279 662 237 651 208 631 _c
179 610 165 580 165 542 _c
165 510 174 485 194 469 _c
213 452 250 439 304 429 _c
364 417 _l
437 403 491 378 526 343 _c
561 307 579 260 579 201 _c
579 130 555 77 508 41 _c
460 5 391 -13 300 -13 _c
265 -13 228 -9 189 -2 _c
}_e{150 5 110 16 69 32 _c
69 134 _l
109 111 148 94 186 83 _c
224 71 262 66 300 66 _c
356 66 399 77 430 99 _c
460 121 476 152 476 194 _c
476 230 465 258 443 278 _c
421 298 385 313 335 323 _c
275 335 _l
201 349 148 372 115 404 _c
82 435 66 478 66 534 _c
66 598 88 649 134 686 _c
179 723 242 742 322 742 _c
356 742 390 739 426 733 _c
461 727 497 717 535 705 _c
}_e{_cl}_e}_d
/W{989 0 33 0 956 729 _sc
33 729 _m
133 729 _l
286 113 _l
439 729 _l
550 729 _l
703 113 _l
856 729 _l
956 729 _l
773 0 _l
649 0 _l
495 633 _l
340 0 _l
216 0 _l
33 729 _l
_cl}_d
/a{{613 0 60 -13 522 560 _sc
343 275 _m
270 275 220 266 192 250 _c
164 233 150 205 150 165 _c
150 133 160 107 181 89 _c
202 70 231 61 267 61 _c
317 61 357 78 387 114 _c
417 149 432 196 432 255 _c
432 275 _l
343 275 _l
522 312 _m
522 0 _l
432 0 _l
432 83 _l
411 49 385 25 355 10 _c
325 -5 287 -13 243 -13 _c
187 -13 142 2 109 33 _c
76 64 60 106 60 159 _c
}_e{60 220 80 266 122 298 _c
163 329 224 345 306 345 _c
432 345 _l
432 354 _l
432 395 418 427 391 450 _c
364 472 326 484 277 484 _c
245 484 215 480 185 472 _c
155 464 127 453 100 439 _c
100 522 _l
132 534 164 544 195 550 _c
226 556 256 560 286 560 _c
365 560 424 539 463 498 _c
502 457 522 395 522 312 _c
_cl}_e}_d
/c{{550 0 55 -13 488 560 _sc
488 526 _m
488 442 _l
462 456 437 466 411 473 _c
385 480 360 484 334 484 _c
276 484 230 465 198 428 _c
166 391 150 339 150 273 _c
150 206 166 154 198 117 _c
230 80 276 62 334 62 _c
360 62 385 65 411 72 _c
437 79 462 90 488 104 _c
488 21 _l
462 9 436 0 410 -5 _c
383 -10 354 -13 324 -13 _c
242 -13 176 12 128 64 _c
}_e{79 115 55 185 55 273 _c
55 362 79 432 128 483 _c
177 534 244 560 330 560 _c
358 560 385 557 411 551 _c
437 545 463 537 488 526 _c
_cl}_e}_d
/d{{635 0 55 -13 544 760 _sc
454 464 _m
454 760 _l
544 760 _l
544 0 _l
454 0 _l
454 82 _l
435 49 411 25 382 10 _c
353 -5 319 -13 279 -13 _c
213 -13 159 13 117 65 _c
75 117 55 187 55 273 _c
55 359 75 428 117 481 _c
159 533 213 560 279 560 _c
319 560 353 552 382 536 _c
411 520 435 496 454 464 _c
148 273 _m
148 207 161 155 188 117 _c
215 79 253 61 301 61 _c
}_e{348 61 385 79 413 117 _c
440 155 454 207 454 273 _c
454 339 440 390 413 428 _c
385 466 348 485 301 485 _c
253 485 215 466 188 428 _c
161 390 148 339 148 273 _c
_cl}_e}_d
/e{{615 0 55 -13 562 560 _sc
562 296 _m
562 252 _l
149 252 _l
153 190 171 142 205 110 _c
238 78 284 62 344 62 _c
378 62 412 66 444 74 _c
476 82 509 95 541 113 _c
541 28 _l
509 14 476 3 442 -3 _c
408 -9 373 -13 339 -13 _c
251 -13 182 12 131 62 _c
80 112 55 181 55 268 _c
55 357 79 428 127 481 _c
175 533 241 560 323 560 _c
397 560 455 536 498 489 _c
}_e{540 441 562 377 562 296 _c
472 322 _m
471 371 457 410 431 440 _c
404 469 368 484 324 484 _c
274 484 234 469 204 441 _c
174 413 156 373 152 322 _c
472 322 _l
_cl}_e}_d
/i{278 0 94 0 184 760 _sc
94 547 _m
184 547 _l
184 0 _l
94 0 _l
94 547 _l
94 760 _m
184 760 _l
184 646 _l
94 646 _l
94 760 _l
_cl}_d
/l{278 0 94 0 184 760 _sc
94 760 _m
184 760 _l
184 0 _l
94 0 _l
94 760 _l
_cl}_d
/m{{974 0 91 0 889 560 _sc
520 442 _m
542 482 569 511 600 531 _c
631 550 668 560 711 560 _c
767 560 811 540 842 500 _c
873 460 889 403 889 330 _c
889 0 _l
799 0 _l
799 327 _l
799 379 789 418 771 444 _c
752 469 724 482 686 482 _c
639 482 602 466 575 435 _c
548 404 535 362 535 309 _c
535 0 _l
445 0 _l
445 327 _l
445 379 435 418 417 444 _c
398 469 369 482 331 482 _c
}_e{285 482 248 466 221 435 _c
194 404 181 362 181 309 _c
181 0 _l
91 0 _l
91 547 _l
181 547 _l
181 462 _l
201 495 226 520 255 536 _c
283 552 317 560 357 560 _c
397 560 430 550 458 530 _c
486 510 506 480 520 442 _c
_cl}_e}_d
/n{634 0 91 0 549 560 _sc
549 330 _m
549 0 _l
459 0 _l
459 327 _l
459 379 448 417 428 443 _c
408 469 378 482 338 482 _c
289 482 251 466 223 435 _c
195 404 181 362 181 309 _c
181 0 _l
91 0 _l
91 547 _l
181 547 _l
181 462 _l
202 494 227 519 257 535 _c
286 551 320 560 358 560 _c
420 560 468 540 500 501 _c
532 462 549 405 549 330 _c
_cl}_d
/o{612 0 55 -13 557 560 _sc
306 484 _m
258 484 220 465 192 427 _c
164 389 150 338 150 273 _c
150 207 163 156 191 118 _c
219 80 257 62 306 62 _c
354 62 392 80 420 118 _c
448 156 462 207 462 273 _c
462 337 448 389 420 427 _c
392 465 354 484 306 484 _c
306 560 _m
384 560 445 534 490 484 _c
534 433 557 363 557 273 _c
557 183 534 113 490 63 _c
445 12 384 -13 306 -13 _c
227 -13 165 12 121 63 _c
77 113 55 183 55 273 _c
55 363 77 433 121 484 _c
165 534 227 560 306 560 _c
_cl}_d
/p{{635 0 91 -207 580 560 _sc
181 82 _m
181 -207 _l
91 -207 _l
91 547 _l
181 547 _l
181 464 _l
199 496 223 520 252 536 _c
281 552 316 560 356 560 _c
422 560 476 533 518 481 _c
559 428 580 359 580 273 _c
580 187 559 117 518 65 _c
476 13 422 -13 356 -13 _c
316 -13 281 -5 252 10 _c
223 25 199 49 181 82 _c
487 273 _m
487 339 473 390 446 428 _c
418 466 381 485 334 485 _c
}_e{286 485 249 466 222 428 _c
194 390 181 339 181 273 _c
181 207 194 155 222 117 _c
249 79 286 61 334 61 _c
381 61 418 79 446 117 _c
473 155 487 207 487 273 _c
_cl}_e}_d
/r{411 0 91 0 411 560 _sc
411 463 _m
401 469 390 473 378 476 _c
366 478 353 480 339 480 _c
288 480 249 463 222 430 _c
194 397 181 350 181 288 _c
181 0 _l
91 0 _l
91 547 _l
181 547 _l
181 462 _l
199 495 224 520 254 536 _c
284 552 321 560 365 560 _c
371 560 378 559 386 559 _c
393 558 401 557 411 555 _c
411 463 _l
_cl}_d
/s{{521 0 54 -13 472 560 _sc
443 531 _m
443 446 _l
417 458 391 468 364 475 _c
336 481 308 485 279 485 _c
234 485 200 478 178 464 _c
156 450 145 430 145 403 _c
145 382 153 366 169 354 _c
185 342 217 330 265 320 _c
296 313 _l
360 299 405 279 432 255 _c
458 230 472 195 472 151 _c
472 100 452 60 412 31 _c
372 1 316 -13 246 -13 _c
216 -13 186 -10 154 -5 _c
}_e{122 0 89 8 54 20 _c
54 113 _l
87 95 120 82 152 74 _c
184 65 216 61 248 61 _c
290 61 323 68 346 82 _c
368 96 380 117 380 144 _c
380 168 371 187 355 200 _c
339 213 303 226 247 238 _c
216 245 _l
160 257 119 275 95 299 _c
70 323 58 356 58 399 _c
58 450 76 490 112 518 _c
148 546 200 560 268 560 _c
301 560 332 557 362 552 _c
391 547 418 540 443 531 _c
}_e{_cl}_e}_d
/t{392 0 27 0 368 702 _sc
183 702 _m
183 547 _l
368 547 _l
368 477 _l
183 477 _l
183 180 _l
183 135 189 106 201 94 _c
213 81 238 75 276 75 _c
368 75 _l
368 0 _l
276 0 _l
206 0 158 13 132 39 _c
106 65 93 112 93 180 _c
93 477 _l
27 477 _l
27 547 _l
93 547 _l
93 702 _l
183 702 _l
_cl}_d
/u{634 0 85 -13 543 560 _sc
85 216 _m
85 547 _l
175 547 _l
175 219 _l
175 167 185 129 205 103 _c
225 77 255 64 296 64 _c
344 64 383 79 411 110 _c
439 141 453 183 453 237 _c
453 547 _l
543 547 _l
543 0 _l
453 0 _l
453 84 _l
431 50 405 26 377 10 _c
348 -5 315 -13 277 -13 _c
214 -13 166 6 134 45 _c
101 83 85 140 85 216 _c
311 560 _m
311 560 _l
_cl}_d
/z{525 0 43 0 482 547 _sc
55 547 _m
482 547 _l
482 465 _l
144 72 _l
482 72 _l
482 0 _l
43 0 _l
43 82 _l
381 475 _l
55 475 _l
55 547 _l
_cl}_d
end readonly def

/BuildGlyph
 {exch begin
 CharStrings exch
 2 copy known not{pop /.notdef}if
 true 3 1 roll get exec
 end}_d

/BuildChar {
 1 index /Encoding get exch get
 1 index /BuildGlyph get exec
}_d

FontName currentdict end definefont pop
end
%%EndProlog
mpldict begin
75.6 223.2 translate
460.8 345.6 0 0 clipbox
gsave
0 0 m
460.8 0 l
460.8 345.6 l
0 345.6 l
cl
1.000 setgray
fill
grestore
gsave
51.32 27.88 m
441.676627 27.88 l
441.676627 332.28 l
51.32 332.28 l
cl
1.000 setgray
fill
grestore
0.800 setlinewidth
1 setlinejoin
0 setlinecap
[] 0 setdash
0.000 setgray
gsave
/o {
gsave
newpath
translate
0.8 setlinewidth
1 setlinejoin
0 setlinecap
0 0 m
0 -3.5 l

gsave
0.000 setgray
fill
grestore
stroke
grestore
} bind def
53.6715 27.88 o
grestore
/DejaVuSans findfont
10.000 scalefont
setfont
gsave
37.398108 13.286250 translate
0.000000 rotate
0.000000 0.000000 m /O glyphshow
7.871094 0.000000 m /r glyphshow
11.982422 0.000000 m /a glyphshow
18.110352 0.000000 m /c glyphshow
23.608398 0.000000 m /l glyphshow
26.386719 0.000000 m /e glyphshow
grestore
gsave
/o {
gsave
newpath
translate
0.8 setlinewidth
1 setlinejoin
0 setlinecap
0 0 m
0 -3.5 l

gsave
0.000 setgray
fill
grestore
stroke
grestore
} bind def
100.702 27.88 o
grestore
gsave
79.608715 13.286250 translate
0.000000 rotate
0.000000 0.000000 m /O glyphshow
7.871094 0.000000 m /r glyphshow
11.982422 0.000000 m /a glyphshow
18.110352 0.000000 m /c glyphshow
23.608398 0.000000 m /l glyphshow
26.386719 0.000000 m /e glyphshow
32.539062 0.000000 m /hyphen glyphshow
36.147461 0.000000 m /P glyphshow
grestore
gsave
/o {
gsave
newpath
translate
0.8 setlinewidth
1 setlinejoin
0 setlinecap
0 0 m
0 -3.5 l

gsave
0.000 setgray
fill
grestore
stroke
grestore
} bind def
147.733 27.88 o
grestore
gsave
134.952134 13.286250 translate
0.000000 rotate
0.000000 0.000000 m /S glyphshow
6.347656 0.000000 m /S glyphshow
12.695312 0.000000 m /A glyphshow
19.536133 0.000000 m /P glyphshow
grestore
gsave
/o {
gsave
newpath
translate
0.8 setlinewidth
1 setlinejoin
0 setlinecap
0 0 m
0 -3.5 l

gsave
0.000 setgray
fill
grestore
stroke
grestore
} bind def
194.764 27.88 o
grestore
gsave
186.959615 13.286250 translate
0.000000 rotate
0.000000 0.000000 m /C glyphshow
6.982422 0.000000 m /M glyphshow
grestore
gsave
/o {
gsave
newpath
translate
0.8 setlinewidth
1 setlinejoin
0 setlinecap
0 0 m
0 -3.5 l

gsave
0.000 setgray
fill
grestore
stroke
grestore
} bind def
241.795 27.88 o
grestore
gsave
232.115534 13.286250 translate
0.000000 rotate
0.000000 0.000000 m /C glyphshow
6.982422 0.000000 m /S glyphshow
13.330078 0.000000 m /P glyphshow
grestore
gsave
/o {
gsave
newpath
translate
0.8 setlinewidth
1 setlinejoin
0 setlinecap
0 0 m
0 -3.5 l

gsave
0.000 setgray
fill
grestore
stroke
grestore
} bind def
288.826 27.88 o
grestore
gsave
268.005828 13.286250 translate
0.000000 rotate
0.000000 0.000000 m /R glyphshow
6.948242 0.000000 m /a glyphshow
13.076172 0.000000 m /n glyphshow
19.414062 0.000000 m /d glyphshow
25.761719 0.000000 m /o glyphshow
31.879883 0.000000 m /m glyphshow
grestore
gsave
/o {
gsave
newpath
translate
0.8 setlinewidth
1 setlinejoin
0 setlinecap
0 0 m
0 -3.5 l

gsave
0.000 setgray
fill
grestore
stroke
grestore
} bind def
335.857 27.88 o
grestore
gsave
311.763309 13.286250 translate
0.000000 rotate
0.000000 0.000000 m /S glyphshow
6.347656 0.000000 m /S glyphshow
12.695312 0.000000 m /A glyphshow
19.536133 0.000000 m /P glyphshow
25.566406 0.000000 m /space glyphshow
28.745117 0.000000 m /H glyphshow
36.264648 0.000000 m /i glyphshow
39.042969 0.000000 m /s glyphshow
44.252930 0.000000 m /t glyphshow
grestore
gsave
/o {
gsave
newpath
translate
0.8 setlinewidth
1 setlinejoin
0 setlinecap
0 0 m
0 -3.5 l

gsave
0.000 setgray
fill
grestore
stroke
grestore
} bind def
382.888 27.88 o
grestore
gsave
357.692665 13.286250 translate
0.000000 rotate
0.000000 0.000000 m /S glyphshow
6.347656 0.000000 m /S glyphshow
12.695312 0.000000 m /A glyphshow
19.536133 0.000000 m /P glyphshow
25.566406 0.000000 m /space glyphshow
28.745117 0.000000 m /C glyphshow
35.727539 0.000000 m /M glyphshow
44.355469 0.000000 m /P glyphshow
grestore
gsave
/o {
gsave
newpath
translate
0.8 setlinewidth
1 setlinejoin
0 setlinecap
0 0 m
0 -3.5 l

gsave
0.000 setgray
fill
grestore
stroke
grestore
} bind def
429.919 27.88 o
grestore
gsave
410.801709 13.286250 translate
0.000000 rotate
0.000000 0.000000 m /C glyphshow
6.982422 0.000000 m /M glyphshow
15.610352 0.000000 m /space glyphshow
18.789062 0.000000 m /H glyphshow
26.308594 0.000000 m /i glyphshow
29.086914 0.000000 m /s glyphshow
34.296875 0.000000 m /t glyphshow
grestore
gsave
/o {
gsave
newpath
translate
0.8 setlinewidth
1 setlinejoin
0 setlinecap
0 0 m
-3.5 0 l

gsave
0.000 setgray
fill
grestore
stroke
grestore
} bind def
51.32 41.7164 o
grestore
gsave
28.413750 37.919489 translate
0.000000 rotate
0.000000 0.000000 m /zero glyphshow
6.362305 0.000000 m /period glyphshow
9.541016 0.000000 m /zero glyphshow
grestore
gsave
/o {
gsave
newpath
translate
0.8 setlinewidth
1 setlinejoin
0 setlinecap
0 0 m
-3.5 0 l

gsave
0.000 setgray
fill
grestore
stroke
grestore
} bind def
51.32 97.0618 o
grestore
gsave
28.413750 93.264943 translate
0.000000 rotate
0.000000 0.000000 m /zero glyphshow
6.362305 0.000000 m /period glyphshow
9.541016 0.000000 m /two glyphshow
grestore
gsave
/o {
gsave
newpath
translate
0.8 setlinewidth
1 setlinejoin
0 setlinecap
0 0 m
-3.5 0 l

gsave
0.000 setgray
fill
grestore
stroke
grestore
} bind def
51.32 152.407 o
grestore
gsave
28.413750 148.610398 translate
0.000000 rotate
0.000000 0.000000 m /zero glyphshow
6.362305 0.000000 m /period glyphshow
9.541016 0.000000 m /four glyphshow
grestore
gsave
/o {
gsave
newpath
translate
0.8 setlinewidth
1 setlinejoin
0 setlinecap
0 0 m
-3.5 0 l

gsave
0.000 setgray
fill
grestore
stroke
grestore
} bind def
51.32 207.753 o
grestore
gsave
28.413750 203.955852 translate
0.000000 rotate
0.000000 0.000000 m /zero glyphshow
6.362305 0.000000 m /period glyphshow
9.541016 0.000000 m /six glyphshow
grestore
gsave
/o {
gsave
newpath
translate
0.8 setlinewidth
1 setlinejoin
0 setlinecap
0 0 m
-3.5 0 l

gsave
0.000 setgray
fill
grestore
stroke
grestore
} bind def
51.32 263.098 o
grestore
gsave
28.413750 259.301307 translate
0.000000 rotate
0.000000 0.000000 m /zero glyphshow
6.362305 0.000000 m /period glyphshow
9.541016 0.000000 m /eight glyphshow
grestore
gsave
/o {
gsave
newpath
translate
0.8 setlinewidth
1 setlinejoin
0 setlinecap
0 0 m
-3.5 0 l

gsave
0.000 setgray
fill
grestore
stroke
grestore
} bind def
51.32 318.444 o
grestore
gsave
28.413750 314.646761 translate
0.000000 rotate
0.000000 0.000000 m /one glyphshow
6.362305 0.000000 m /period glyphshow
9.541016 0.000000 m /zero glyphshow
grestore
/DejaVuSans findfont
14.000 scalefont
setfont
gsave
21.507500 67.290937 translate
90.000000 rotate
0.000000 0.000000 m /F glyphshow
8.052734 0.000000 m /e glyphshow
16.666016 0.000000 m /a glyphshow
25.245117 0.000000 m /t glyphshow
30.734375 0.000000 m /u glyphshow
39.607422 0.000000 m /r glyphshow
45.363281 0.000000 m /e glyphshow
53.976562 0.000000 m /s glyphshow
61.270508 0.000000 m /space glyphshow
65.720703 0.000000 m /C glyphshow
75.496094 0.000000 m /a glyphshow
84.075195 0.000000 m /p glyphshow
92.961914 0.000000 m /t glyphshow
98.451172 0.000000 m /u glyphshow
107.324219 0.000000 m /r glyphshow
113.080078 0.000000 m /e glyphshow
121.693359 0.000000 m /d glyphshow
130.580078 0.000000 m /space glyphshow
135.030273 0.000000 m /parenleft glyphshow
140.492188 0.000000 m /N glyphshow
150.964844 0.000000 m /o glyphshow
159.530273 0.000000 m /r glyphshow
165.286133 0.000000 m /m glyphshow
178.923828 0.000000 m /a glyphshow
187.502930 0.000000 m /l glyphshow
191.392578 0.000000 m /i glyphshow
195.282227 0.000000 m /z glyphshow
202.630859 0.000000 m /e glyphshow
211.244141 0.000000 m /d glyphshow
220.130859 0.000000 m /parenright glyphshow
grestore
1.000 setlinewidth
2 setlinecap
0.843 0.098 0.110 setrgbcolor
gsave
390.4 304.4 51.32 27.88 clipbox
37.210724 318.443636 m
51.32 318.443636 l
51.32 318.443636 l
37.210724 318.443636 l
37.210724 318.443636 l
stroke
grestore
gsave
390.4 304.4 51.32 27.88 clipbox
44.265362 318.443636 m
44.265362 318.443636 l
stroke
grestore
gsave
390.4 304.4 51.32 27.88 clipbox
44.265362 318.443636 m
44.265362 318.443636 l
stroke
grestore
gsave
390.4 304.4 51.32 27.88 clipbox
40.738043 318.443636 m
47.792681 318.443636 l
stroke
grestore
gsave
390.4 304.4 51.32 27.88 clipbox
40.738043 318.443636 m
47.792681 318.443636 l
stroke
grestore
gsave
390.4 304.4 51.32 27.88 clipbox
84.241643 287.696162 m
98.350919 287.696162 l
98.350919 318.443636 l
84.241643 318.443636 l
84.241643 287.696162 l
stroke
grestore
gsave
390.4 304.4 51.32 27.88 clipbox
91.296281 287.696162 m
91.296281 249.261818 l
stroke
grestore
gsave
390.4 304.4 51.32 27.88 clipbox
91.296281 318.443636 m
91.296281 318.443636 l
stroke
grestore
gsave
390.4 304.4 51.32 27.88 clipbox
87.768962 249.261818 m
94.8236 249.261818 l
stroke
grestore
gsave
390.4 304.4 51.32 27.88 clipbox
87.768962 318.443636 m
94.8236 318.443636 l
stroke
grestore
gsave
390.4 304.4 51.32 27.88 clipbox
131.272562 287.696162 m
145.381838 287.696162 l
145.381838 318.443636 l
131.272562 318.443636 l
131.272562 287.696162 l
stroke
grestore
gsave
390.4 304.4 51.32 27.88 clipbox
138.3272 287.696162 m
138.3272 249.261818 l
stroke
grestore
gsave
390.4 304.4 51.32 27.88 clipbox
138.3272 318.443636 m
138.3272 318.443636 l
stroke
grestore
gsave
390.4 304.4 51.32 27.88 clipbox
134.799881 249.261818 m
141.854519 249.261818 l
stroke
grestore
gsave
390.4 304.4 51.32 27.88 clipbox
134.799881 318.443636 m
141.854519 318.443636 l
stroke
grestore
gsave
390.4 304.4 51.32 27.88 clipbox
178.303481 236.413766 m
192.412757 236.413766 l
192.412757 287.696162 l
178.303481 287.696162 l
178.303481 236.413766 l
stroke
grestore
gsave
390.4 304.4 51.32 27.88 clipbox
185.358119 236.413766 m
185.358119 180.08 l
stroke
grestore
gsave
390.4 304.4 51.32 27.88 clipbox
185.358119 287.696162 m
185.358119 318.443636 l
stroke
grestore
gsave
390.4 304.4 51.32 27.88 clipbox
181.8308 180.08 m
188.885438 180.08 l
stroke
grestore
gsave
390.4 304.4 51.32 27.88 clipbox
181.8308 318.443636 m
188.885438 318.443636 l
stroke
grestore
gsave
390.4 304.4 51.32 27.88 clipbox
225.3344 133.958788 m
239.443675 133.958788 l
239.443675 235.425455 l
225.3344 235.425455 l
225.3344 133.958788 l
stroke
grestore
gsave
390.4 304.4 51.32 27.88 clipbox
232.389038 133.958788 m
232.389038 41.716364 l
stroke
grestore
gsave
390.4 304.4 51.32 27.88 clipbox
232.389038 235.425455 m
232.389038 318.443636 l
stroke
grestore
gsave
390.4 304.4 51.32 27.88 clipbox
228.861719 41.716364 m
235.916357 41.716364 l
stroke
grestore
gsave
390.4 304.4 51.32 27.88 clipbox
228.861719 318.443636 m
235.916357 318.443636 l
stroke
grestore
gsave
390.4 304.4 51.32 27.88 clipbox
272.365319 76.307273 m
286.474594 76.307273 l
286.474594 145.489091 l
272.365319 145.489091 l
272.365319 76.307273 l
stroke
grestore
gsave
390.4 304.4 51.32 27.88 clipbox
279.419956 76.307273 m
279.419956 41.716364 l
stroke
grestore
gsave
390.4 304.4 51.32 27.88 clipbox
279.419956 145.489091 m
279.419956 226.201212 l
stroke
grestore
gsave
390.4 304.4 51.32 27.88 clipbox
275.892638 41.716364 m
282.947275 41.716364 l
stroke
grestore
gsave
390.4 304.4 51.32 27.88 clipbox
275.892638 226.201212 m
282.947275 226.201212 l
stroke
grestore
0.173 0.482 0.714 setrgbcolor
gsave
390.4 304.4 51.32 27.88 clipbox
56.023092 318.443636 m
70.132368 318.443636 l
70.132368 318.443636 l
56.023092 318.443636 l
56.023092 318.443636 l
stroke
grestore
gsave
390.4 304.4 51.32 27.88 clipbox
63.07773 318.443636 m
63.07773 318.443636 l
stroke
grestore
gsave
390.4 304.4 51.32 27.88 clipbox
63.07773 318.443636 m
63.07773 318.443636 l
stroke
grestore
gsave
390.4 304.4 51.32 27.88 clipbox
59.550411 318.443636 m
66.605049 318.443636 l
stroke
grestore
gsave
390.4 304.4 51.32 27.88 clipbox
59.550411 318.443636 m
66.605049 318.443636 l
stroke
grestore
gsave
390.4 304.4 51.32 27.88 clipbox
103.054011 287.481144 m
117.163286 287.481144 l
117.163286 302.853367 l
103.054011 302.853367 l
103.054011 287.481144 l
stroke
grestore
gsave
390.4 304.4 51.32 27.88 clipbox
110.108649 287.481144 m
110.108649 279.166217 l
stroke
grestore
gsave
390.4 304.4 51.32 27.88 clipbox
110.108649 302.853367 m
110.108649 318.443636 l
stroke
grestore
gsave
390.4 304.4 51.32 27.88 clipbox
106.58133 279.166217 m
113.635967 279.166217 l
stroke
grestore
gsave
390.4 304.4 51.32 27.88 clipbox
106.58133 318.443636 m
113.635967 318.443636 l
stroke
grestore
gsave
390.4 304.4 51.32 27.88 clipbox
150.08493 240.550034 m
164.194205 240.550034 l
164.194205 262.651848 l
150.08493 262.651848 l
150.08493 240.550034 l
stroke
grestore
gsave
390.4 304.4 51.32 27.88 clipbox
157.139567 240.550034 m
157.139567 210.925397 l
stroke
grestore
gsave
390.4 304.4 51.32 27.88 clipbox
157.139567 262.651848 m
157.139567 284.120874 l
stroke
grestore
gsave
390.4 304.4 51.32 27.88 clipbox
153.612249 210.925397 m
160.666886 210.925397 l
stroke
grestore
gsave
390.4 304.4 51.32 27.88 clipbox
153.612249 284.120874 m
160.666886 284.120874 l
stroke
grestore
gsave
390.4 304.4 51.32 27.88 clipbox
197.115848 243.605443 m
211.225124 243.605443 l
211.225124 280.617606 l
197.115848 280.617606 l
197.115848 243.605443 l
stroke
grestore
gsave
390.4 304.4 51.32 27.88 clipbox
204.170486 243.605443 m
204.170486 203.87502 l
stroke
grestore
gsave
390.4 304.4 51.32 27.88 clipbox
204.170486 280.617606 m
204.170486 308.001098 l
stroke
grestore
gsave
390.4 304.4 51.32 27.88 clipbox
200.643167 203.87502 m
207.697805 203.87502 l
stroke
grestore
gsave
390.4 304.4 51.32 27.88 clipbox
200.643167 308.001098 m
207.697805 308.001098 l
stroke
grestore
gsave
390.4 304.4 51.32 27.88 clipbox
244.146767 215.386583 m
258.256043 215.386583 l
258.256043 266.668856 l
244.146767 266.668856 l
244.146767 215.386583 l
stroke
grestore
gsave
390.4 304.4 51.32 27.88 clipbox
251.201405 215.386583 m
251.201405 173.491255 l
stroke
grestore
gsave
390.4 304.4 51.32 27.88 clipbox
251.201405 266.668856 m
251.201405 303.656683 l
stroke
grestore
gsave
390.4 304.4 51.32 27.88 clipbox
247.674086 173.491255 m
254.728724 173.491255 l
stroke
grestore
gsave
390.4 304.4 51.32 27.88 clipbox
247.674086 303.656683 m
254.728724 303.656683 l
stroke
grestore
gsave
390.4 304.4 51.32 27.88 clipbox
291.177686 167.139516 m
305.286962 167.139516 l
305.286962 198.035586 l
291.177686 198.035586 l
291.177686 167.139516 l
stroke
grestore
gsave
390.4 304.4 51.32 27.88 clipbox
298.232324 167.139516 m
298.232324 130.477942 l
stroke
grestore
gsave
390.4 304.4 51.32 27.88 clipbox
298.232324 198.035586 m
298.232324 241.949919 l
stroke
grestore
gsave
390.4 304.4 51.32 27.88 clipbox
294.705005 130.477942 m
301.759643 130.477942 l
stroke
grestore
gsave
390.4 304.4 51.32 27.88 clipbox
294.705005 241.949919 m
301.759643 241.949919 l
stroke
grestore
gsave
390.4 304.4 51.32 27.88 clipbox
328.802421 283.635174 m
342.911697 283.635174 l
342.911697 305.472045 l
328.802421 305.472045 l
328.802421 283.635174 l
stroke
grestore
gsave
390.4 304.4 51.32 27.88 clipbox
335.857059 283.635174 m
335.857059 264.750285 l
stroke
grestore
gsave
390.4 304.4 51.32 27.88 clipbox
335.857059 305.472045 m
335.857059 316.264681 l
stroke
grestore
gsave
390.4 304.4 51.32 27.88 clipbox
332.32974 264.750285 m
339.384378 264.750285 l
stroke
grestore
gsave
390.4 304.4 51.32 27.88 clipbox
332.32974 316.264681 m
339.384378 316.264681 l
stroke
grestore
gsave
390.4 304.4 51.32 27.88 clipbox
375.83334 269.028052 m
389.942616 269.028052 l
389.942616 298.535199 l
375.83334 298.535199 l
375.83334 269.028052 l
stroke
grestore
gsave
390.4 304.4 51.32 27.88 clipbox
382.887978 269.028052 m
382.887978 252.359512 l
stroke
grestore
gsave
390.4 304.4 51.32 27.88 clipbox
382.887978 298.535199 m
382.887978 318.443636 l
stroke
grestore
gsave
390.4 304.4 51.32 27.88 clipbox
379.360659 252.359512 m
386.415297 252.359512 l
stroke
grestore
gsave
390.4 304.4 51.32 27.88 clipbox
379.360659 318.443636 m
386.415297 318.443636 l
stroke
grestore
gsave
390.4 304.4 51.32 27.88 clipbox
422.864259 242.105078 m
436.973535 242.105078 l
436.973535 273.810205 l
422.864259 273.810205 l
422.864259 242.105078 l
stroke
grestore
gsave
390.4 304.4 51.32 27.88 clipbox
429.918897 242.105078 m
429.918897 198.285742 l
stroke
grestore
gsave
390.4 304.4 51.32 27.88 clipbox
429.918897 273.810205 m
429.918897 309.727817 l
stroke
grestore
gsave
390.4 304.4 51.32 27.88 clipbox
426.391578 198.285742 m
433.446216 198.285742 l
stroke
grestore
gsave
390.4 304.4 51.32 27.88 clipbox
426.391578 309.727817 m
433.446216 309.727817 l
stroke
grestore
1.500 setlinewidth
0 setlinecap
[5.55 2.4] 0 setdash
0.000 setgray
gsave
390.4 304.4 51.32 27.88 clipbox
312.3416 27.88 m
312.3416 332.28 l
stroke
grestore
1.000 setlinewidth
2 setlinecap
[] 0 setdash
0.843 0.098 0.110 setrgbcolor
gsave
390.4 304.4 51.32 27.88 clipbox
37.210724 318.443636 m
51.32 318.443636 l
stroke
grestore
gsave
390.4 304.4 51.32 27.88 clipbox
84.241643 294.334821 m
98.350919 294.334821 l
stroke
grestore
gsave
390.4 304.4 51.32 27.88 clipbox
131.272562 318.443636 m
145.381838 318.443636 l
stroke
grestore
gsave
390.4 304.4 51.32 27.88 clipbox
178.303481 272.322424 m
192.412757 272.322424 l
stroke
grestore
gsave
390.4 304.4 51.32 27.88 clipbox
225.3344 180.08 m
239.443675 180.08 l
stroke
grestore
gsave
390.4 304.4 51.32 27.88 clipbox
272.365319 117.187438 m
286.474594 117.187438 l
stroke
grestore
0.173 0.482 0.714 setrgbcolor
gsave
390.4 304.4 51.32 27.88 clipbox
56.023092 318.443636 m
70.132368 318.443636 l
stroke
grestore
gsave
390.4 304.4 51.32 27.88 clipbox
103.054011 296.126921 m
117.163286 296.126921 l
stroke
grestore
gsave
390.4 304.4 51.32 27.88 clipbox
150.08493 254.438689 m
164.194205 254.438689 l
stroke
grestore
gsave
390.4 304.4 51.32 27.88 clipbox
197.115848 259.980128 m
211.225124 259.980128 l
stroke
grestore
gsave
390.4 304.4 51.32 27.88 clipbox
244.146767 247.392039 m
258.256043 247.392039 l
stroke
grestore
gsave
390.4 304.4 51.32 27.88 clipbox
291.177686 185.057109 m
305.286962 185.057109 l
stroke
grestore
gsave
390.4 304.4 51.32 27.88 clipbox
328.802421 297.450533 m
342.911697 297.450533 l
stroke
grestore
gsave
390.4 304.4 51.32 27.88 clipbox
375.83334 285.375597 m
389.942616 285.375597 l
stroke
grestore
gsave
390.4 304.4 51.32 27.88 clipbox
422.864259 250.264453 m
436.973535 250.264453 l
stroke
grestore
0.800 setlinewidth
0 setlinejoin
[] 0 setdash
0.000 setgray
gsave
51.32 27.88 m
51.32 332.28 l
stroke
grestore
gsave
441.676627 27.88 m
441.676627 332.28 l
stroke
grestore
gsave
51.32 27.88 m
441.676627 27.88 l
stroke
grestore
gsave
51.32 332.28 m
441.676627 332.28 l
stroke
grestore
1.000 setlinewidth
0 setlinecap
0.800 setgray
gsave
320.739127 32.88 m
434.676627 32.88 l
436.00996 32.88 436.676627 33.546667 436.676627 34.88 c
436.676627 63.22375 l
436.676627 64.557083 436.00996 65.22375 434.676627 65.22375 c
320.739127 65.22375 l
319.405793 65.22375 318.739127 64.557083 318.739127 63.22375 c
318.739127 34.88 l
318.739127 33.546667 319.405793 32.88 320.739127 32.88 c
cl
gsave
1.000 setgray
fill
grestore
stroke
grestore
1.500 setlinewidth
1 setlinejoin
2 setlinecap
[] 0 setdash
0.843 0.098 0.110 setrgbcolor
gsave
322.739127 57.13 m
342.739127 57.13 l
stroke
grestore
0.000 setgray
/DejaVuSans findfont
10.000 scalefont
setfont
gsave
350.739127 53.630000 translate
0.000000 rotate
0.000000 0.000000 m /S glyphshow
6.347656 0.000000 m /i glyphshow
9.125977 0.000000 m /m glyphshow
18.867188 0.000000 m /u glyphshow
25.205078 0.000000 m /l glyphshow
27.983398 0.000000 m /a glyphshow
34.111328 0.000000 m /t glyphshow
38.032227 0.000000 m /e glyphshow
44.184570 0.000000 m /d glyphshow
50.532227 0.000000 m /space glyphshow
53.710938 0.000000 m /D glyphshow
61.411133 0.000000 m /a glyphshow
67.539062 0.000000 m /t glyphshow
71.459961 0.000000 m /a glyphshow
grestore
0.173 0.482 0.714 setrgbcolor
gsave
322.739127 42.458125 m
342.739127 42.458125 l
stroke
grestore
0.000 setgray
gsave
350.739127 38.958125 translate
0.000000 rotate
0.000000 0.000000 m /R glyphshow
6.948242 0.000000 m /e glyphshow
13.100586 0.000000 m /a glyphshow
19.228516 0.000000 m /l glyphshow
22.006836 0.000000 m /hyphen glyphshow
25.615234 0.000000 m /W glyphshow
35.502930 0.000000 m /o glyphshow
41.621094 0.000000 m /r glyphshow
45.732422 0.000000 m /l glyphshow
48.510742 0.000000 m /d glyphshow
54.858398 0.000000 m /space glyphshow
58.037109 0.000000 m /D glyphshow
65.737305 0.000000 m /a glyphshow
71.865234 0.000000 m /t glyphshow
75.786133 0.000000 m /a glyphshow
grestore

end
showpage
