0:2563
1:2395
2:3444
3:5833
4:8526
5:8921
6:8899
7:7696
8:5747
9:5992
10:5771
11:7924
12:9348
13:7805
14:3532
15:3216
16:3633
17:3794
18:4577
19:6621
20:3677
21:3065
22:4412
23:6028
24:8713
25:7896
26:8550
27:8447
28:10460
29:15089
30:6890
31:6551
32:9237
33:8650
34:9214
35:7310
36:9160
37:8177
38:8719
39:10395
40:4928
41:2888
42:3727
43:1556
44:3396
45:10689
46:10023
47:7731
48:5237
49:6117
50:5239
51:6786
52:9087
53:4959
54:1579
55:4178
56:7944
57:7818
