0:1811
1:1461
2:1327
3:879
4:1005
5:1286
6:1256
7:1493
8:1131
9:1047
10:2788
11:2936
12:6182
13:7070
14:8885
15:4479
16:6438
17:5796
18:10589
19:6531
20:7623
21:11223
22:6819
23:8947
24:7517
25:8325
26:5947
27:2086
28:8077
29:8360
30:6697
31:9009
