0:1811
1:1289
2:1363
3:1332
4:1256
5:987
6:1296
7:1682
8:1734
9:1782
10:2881
11:3384
12:4644
13:6232
14:5453
15:7749
16:6244
17:7535
18:6194
19:7710
20:9124
21:6487
22:7802
23:14093
24:9867
25:7266
26:9161
27:5177
28:5092
29:5357
30:6158
31:5980
32:7232
33:8662
