0:1739
1:1289
2:1365
3:1421
4:1210
5:987
6:1296
7:1694
8:1734
9:1782
10:2907
11:3384
12:4644
13:6232
14:5497
15:7749
16:6363
17:7535
18:6194
19:7755
20:9491
21:6492
22:7802
23:14093
24:9825
25:9571
26:9897
27:5723
28:4990
29:4795
30:7064
31:6271
32:6761
33:8703
