0:2397
1:2716
2:3398
3:1632
4:4045
5:7255
6:9934
7:9029
8:8694
9:9625
10:4687
11:3780
12:5680
13:6622
14:9674
15:9999
16:10524
17:10536
18:10407
19:12554
20:13378
21:9008
22:4677
23:3101
24:8557
25:7719
26:7185
27:11499
28:11394
29:10450
30:7989
31:4701
32:6980
33:6953
34:10864
35:4835
36:4339
37:6105
38:8198
39:6450
40:10723
41:13087
42:10641
43:10076
