0:2877
1:3031
2:2920
3:2419
4:3461
5:9559
6:8171
7:8234
8:8619
9:9489
10:8484
11:5724
12:7484
13:4383
14:4825
15:8124
16:9799
17:10987
18:8523
19:10990
20:8952
21:7660
22:10887
23:9992
24:8162
25:5556
26:4925
27:7386
28:6953
29:3585
30:10713
31:10004
32:11431
33:8226
34:10746
35:8075
36:6836
37:7340
38:8231
39:4316
40:5995
41:7535
42:5142
43:13161
44:9751
45:8203
