0:2401
1:2606
2:3398
3:4065
4:7416
5:7824
6:6927
7:9699
8:9738
9:9409
10:9608
11:5985
12:3561
13:5868
14:7033
15:9586
16:10644
17:9945
18:9769
19:6765
20:10863
21:11641
22:7308
23:6155
24:4599
25:5892
26:9985
27:10205
28:12903
29:12083
30:8910
31:5933
32:8173
33:9352
34:11268
35:12813
36:12476
37:6745
38:5924
39:5517
40:6601
41:12446
42:13672
43:13138
44:11478
45:11882
