0:2711
1:2592
2:1555
3:7472
4:6251
5:9520
6:9617
7:8429
8:6917
9:7708
10:5337
11:3625
12:5847
13:7440
14:9144
15:10199
16:9911
17:10353
18:10226
19:12342
20:13676
21:8035
22:6708
23:5279
24:5810
25:10078
26:12202
27:12266
28:12563
29:9298
30:6153
31:7505
32:8963
33:10520
34:6934
35:5955
36:5946
37:9204
38:8886
39:13851
40:14987
41:12420
42:10886
43:11464
