0:2454
1:2606
2:3398
3:4092
4:7416
5:7834
6:6927
7:9656
8:9738
9:9371
10:8782
11:5984
12:3564
13:5907
14:7132
15:9647
16:10644
17:9869
18:9814
19:6840
20:11035
21:11628
22:7368
23:6432
24:4643
25:5937
26:10099
27:10133
28:13083
29:12106
30:8984
31:5950
32:8227
33:9091
34:11569
35:12867
36:12631
37:6469
38:5912
39:5433
40:7113
41:12055
42:13557
43:12469
44:10665
45:11512
