0:2877
1:3031
2:2920
3:2443
4:3442
5:6571
6:8218
7:8076
8:8545
9:9290
10:8304
11:5586
12:7314
13:4416
14:4813
15:8294
16:10353
17:11550
18:12181
19:9099
20:12897
21:13782
22:12367
23:9846
24:6878
25:4825
26:5653
27:5699
28:5755
29:10780
30:10406
31:8945
32:8177
33:9947
34:8761
35:7961
36:8104
37:8911
38:5039
39:5130
40:5209
41:7302
42:13047
43:11118
44:9572
