0:2401
1:2664
2:3799
3:3398
4:3743
5:7039
6:7852
7:8108
8:8888
9:9355
10:8802
11:8597
12:6993
13:7556
14:4488
15:8260
16:11359
17:11562
18:12829
19:10278
20:10025
21:8712
22:11600
23:10211
24:5743
25:5529
26:6951
27:7624
28:4365
29:8943
30:9248
31:11665
32:9807
33:8558
34:5963
35:9170
36:8425
37:8444
38:10018
39:10434
40:5046
41:5427
42:4894
43:6766
44:8120
45:11221
46:9574
