0:2352
1:2664
2:3843
3:3398
4:2949
5:7115
6:7852
7:7460
8:9214
9:9364
10:8052
11:7682
12:5845
13:6740
14:4658
15:8348
16:11033
17:10069
18:13340
19:9669
20:9442
21:8782
22:11795
23:10239
24:5787
25:5657
26:5968
27:7018
28:4534
29:7847
30:10533
31:10981
32:11690
33:10048
34:6462
35:7915
36:7738
37:7167
38:9071
39:10725
40:4983
41:5260
42:5077
43:6558
44:8081
45:11482
46:9669
47:10384
