0:2352
1:2571
2:3843
3:3398
4:3770
5:6994
6:8701
7:7352
8:9344
9:9650
10:8236
11:7390
12:5956
13:5513
14:4314
15:7868
16:8595
17:8998
18:12239
19:8796
20:10101
21:9073
22:12020
23:10572
24:6049
25:4675
26:5352
27:5506
28:3687
29:6652
30:8703
31:12138
32:10182
33:10174
34:10931
35:7778
36:6729
37:7167
38:7655
39:11483
40:5070
41:6676
42:4039
43:7694
44:6538
45:10843
46:9318
47:10209
