0:2877
1:3031
2:2920
3:2443
4:3461
5:6279
6:8330
7:8181
8:8298
9:9770
10:8406
11:6255
12:7560
13:4971
14:4840
15:8265
16:10102
17:10903
18:11178
19:8379
20:12544
21:13896
22:12056
23:11341
24:6845
25:3746
26:7304
27:9377
28:5832
29:12120
30:11026
31:12105
32:8515
33:10364
34:7654
35:7252
36:7614
37:9556
38:6189
39:8557
40:5502
41:7796
42:14119
43:11010
44:10213
