0:2317
1:2664
2:3799
3:3398
4:2902
5:2923
6:7096
7:8169
8:7096
9:8356
10:8835
11:7997
12:7344
13:5654
14:6586
15:4548
16:8228
17:10413
18:8497
19:12148
20:8781
21:9980
22:8263
23:10809
24:9586
25:5221
26:5643
27:6297
28:7127
29:5440
30:9668
31:10523
32:11914
33:9154
34:7761
35:6405
36:8947
37:8893
38:9495
39:10368
40:11388
41:4236
42:5452
43:5186
44:6981
45:8704
46:11361
47:9641
48:9808
