0:2380
1:2772
2:3843
3:3133
4:2165
5:6999
6:7645
7:6926
8:9502
9:9565
10:9310
11:8189
12:7003
13:7212
14:4053
15:8338
16:8749
17:9304
18:10830
19:7845
20:8801
21:8697
22:11840
23:10809
24:6312
25:3239
26:7352
27:7912
28:5006
29:8139
30:9819
31:10785
32:10178
33:8709
34:10658
35:8346
36:7503
37:7634
38:8549
39:13022
40:4850
41:5039
42:5375
43:6917
44:11307
45:9703
46:10877
