0:2497
1:2139
2:7060
3:9109
4:8564
5:9159
6:8266
7:6571
8:5950
9:6337
10:7875
11:8367
12:8603
13:4478
14:2651
15:3253
16:3879
17:3571
18:3463
19:4807
20:6533
21:8259
22:9416
23:8217
24:15004
25:7595
26:7978
27:4718
28:4032
29:5826
30:7372
31:7773
32:6406
33:8435
34:10588
35:5739
36:8006
37:2937
38:2983
39:15521
40:14109
41:9647
42:9008
43:6414
44:7616
45:5550
46:10604
47:14960
48:15620
49:8854
50:2872
51:4480
52:4861
53:7335
54:8888
