0:2540
1:2241
2:6235
3:8704
4:7968
5:7980
6:9584
7:5862
8:4377
9:5315
10:8031
11:8408
12:7037
13:3301
14:4281
15:4262
16:5772
17:3449
18:4520
19:6160
20:5539
21:9319
22:8474
23:14477
24:9479
25:15419
26:8174
27:5066
28:7386
29:9944
30:7744
31:9371
32:10773
33:8296
34:9600
35:11262
36:7124
37:6482
38:9120
39:7644
40:4009
41:3476
42:7365
43:3795
44:5075
45:2925
46:13188
47:8247
48:7588
49:5504
50:8235
51:6869
52:5588
53:12095
54:13186
55:6411
56:4028
57:7380
58:3696
