0:2460
1:4131
2:9073
3:8587
4:9288
5:8256
6:8891
7:5620
8:4503
9:6680
10:9242
11:8231
12:4667
13:3004
14:3352
15:4071
16:2894
17:4982
18:6201
19:4945
20:8780
21:7416
22:9302
23:15918
24:8890
25:7998
26:6954
27:6305
28:6054
29:7134
30:7224
31:9591
32:10054
33:8547
34:10091
35:11717
36:5762
37:7373
38:9008
39:5427
40:3558
41:3602
42:4178
43:1810
44:10585
45:13137
46:8842
47:9528
48:7186
49:5100
50:12319
51:14292
52:5946
53:3883
54:5985
55:3249
56:6202
57:7561
