0:2563
1:2604
2:4142
3:8623
4:9099
5:9522
6:8299
7:6119
8:4662
9:4979
10:7690
11:8185
12:8693
13:5133
14:3434
15:3850
16:3990
17:3836
18:3471
19:4510
20:6114
21:5182
22:7991
23:11067
24:8135
25:14819
26:8009
27:5464
28:6580
29:9120
30:9790
31:5567
32:7668
33:8589
34:7676
35:9814
36:10335
37:10793
38:11102
39:4889
40:4444
41:5799
42:2209
43:1692
44:10857
45:12508
46:6457
47:7319
48:4733
49:6673
50:7903
51:3379
52:3569
53:4217
54:5687
55:4953
56:5649
57:8822
