0:1811
1:1498
2:1327
3:1372
4:1005
5:1286
6:1210
7:1673
8:1478
9:1200
10:3379
11:2936
12:6182
13:4853
14:3661
15:7084
16:7922
17:6856
18:8816
19:8562
20:12912
21:6828
22:7220
23:8023
24:6574
25:2228
26:5024
27:7213
28:4911
29:6422
