0:793
1:975
2:1136
3:1421
4:1199
5:1413
6:1306
7:5803
8:6028
9:6358
10:5233
11:6982
12:7738
13:9028
14:6537
15:8075
16:9649
17:8966
18:6204
19:5829
20:4531
21:9238
22:8768
23:8045
24:10333
25:8036
26:5026
27:7652
28:7666
29:9414
30:8806
31:7377
32:6202
33:4674
34:8235
35:10089
36:8446
37:10604
38:9069
39:8688
40:6861
41:4959
42:13945
43:11876
