0:872
1:1050
2:1162
3:1186
4:1349
5:1487
6:1319
7:3508
8:5892
9:5471
10:7341
11:7985
12:8170
13:7850
14:6102
15:10436
16:8582
17:7275
18:6464
19:7367
20:7438
21:9600
22:7012
23:9874
24:7852
25:8322
26:7887
27:4993
28:7511
29:6736
30:9857
31:9753
32:7554
33:6210
34:5352
35:8306
36:8204
37:9128
38:5574
39:4337
40:5935
41:12318
