0:1021
1:1113
2:1156
3:1247
4:1847
5:1075
6:1079
7:4747
8:5652
9:5294
10:4372
11:6211
12:6144
13:8476
14:6194
15:10555
16:8890
17:7392
18:7303
19:7692
20:7679
21:9732
22:10234
23:7898
24:8003
25:6635
26:5896
27:6971
28:5632
29:8471
30:12207
31:7699
32:9915
33:6872
34:3541
35:10382
36:9648
37:6869
38:5755
39:4495
40:6509
41:12217
