0:837
1:998
2:1186
3:1457
4:1237
5:1200
6:1310
7:3590
8:5740
9:5110
10:7091
11:6421
12:7917
13:7023
14:5953
15:10289
16:9015
17:6729
18:5733
19:4353
20:8430
21:9638
22:7942
23:8107
24:5266
25:6195
26:7658
27:7782
28:9483
29:8913
30:8995
31:6585
32:4516
33:8756
34:9104
35:6825
36:7906
37:7486
38:5152
39:4602
40:17734
41:14403
