0:1059
1:1048
2:1179
3:1226
4:1785
5:1650
6:2362
7:4439
8:6050
9:4925
10:6896
11:8255
12:8386
13:9572
14:5217
15:6974
16:7213
17:6310
18:6134
19:4963
20:6935
21:7637
22:9813
23:7804
24:10194
25:8286
26:4520
27:5119
28:5942
29:9230
30:10699
31:7657
32:6704
33:5253
34:6971
35:8118
36:6638
37:5086
38:3141
39:13421
40:16985
41:10934
