0:1134
1:1224
2:1099
3:1734
4:1619
5:2341
6:3137
7:5837
8:5391
9:7812
10:5835
11:5587
12:8464
13:6612
14:7345
15:9018
16:7887
17:7761
18:7985
19:10415
20:7449
21:9544
22:8764
23:6378
24:7384
25:5413
26:7575
27:6548
28:9340
29:9280
30:11506
31:6949
32:8174
33:7814
34:5882
35:8296
36:9196
37:6703
38:8847
39:4740
40:2982
41:9437
42:16182
43:10358
