0:1145
1:1186
2:1089
3:1169
4:1603
5:1279
6:3009
7:5579
8:5305
9:7801
10:8994
11:8414
12:8769
13:5388
14:5590
15:6391
16:5896
17:6550
18:6420
19:9945
20:6702
21:9116
22:7845
23:6660
24:6087
25:4282
26:7834
27:6941
28:9243
29:9127
30:9035
31:11923
32:7332
33:9525
34:7004
35:3676
36:13623
37:11887
38:9509
39:10824
40:5729
41:7658
42:7975
43:12703
44:6920
