0:1097
1:1156
2:1094
3:1895
4:1571
5:2096
6:3147
7:5446
8:5253
9:4251
10:6353
11:6144
12:8476
13:6195
14:10545
15:8885
16:7604
17:7456
18:7749
19:7705
20:9589
21:9696
22:10251
23:7902
24:8164
25:7871
26:5895
27:7655
28:5765
29:9936
30:11329
31:7410
32:9573
33:6666
34:3703
35:13286
36:9799
37:10160
38:7206
39:6227
40:3505
41:14327
42:16673
43:11424
