0:1105
1:1160
2:1175
3:1361
4:1747
5:1556
6:1689
7:2182
8:5703
9:5479
10:6311
11:6894
12:7193
13:8972
14:5650
15:7396
16:9540
17:8473
18:8630
19:5507
20:10195
21:8849
22:7782
23:7759
24:3483
25:6607
26:6238
27:8606
28:11422
29:8189
30:8006
31:4213
32:10668
33:8391
34:7704
35:7300
36:8259
37:5944
38:16886
39:15654
40:14226
41:11485
