0:1177
1:1164
2:1448
3:1345
4:1634
5:1425
6:1473
7:3813
8:5965
9:5387
10:4862
11:7073
12:7321
13:9266
14:7101
15:5034
16:6692
17:7063
18:5777
19:5306
20:7275
21:7877
22:8807
23:7866
24:8106
25:3701
26:7257
27:7080
28:8513
29:8649
30:7678
31:8181
32:6010
33:6388
34:12422
35:10333
36:9937
37:7379
38:5621
39:16017
40:15146
41:20998
42:13391
