0:1154
1:1176
2:1448
3:1345
4:1628
5:1441
6:1506
7:3706
8:5996
9:5732
10:3249
11:7034
12:6674
13:8743
14:4928
15:7342
16:9173
17:8487
18:8668
19:5174
20:8112
21:8912
22:7560
23:4515
24:3580
25:8100
26:9157
27:8419
28:8809
29:10205
30:4054
31:5506
32:10811
33:9037
34:7835
35:5607
36:3544
37:6449
38:6118
39:12533
40:7440
