0:861
1:927
2:1197
3:1423
4:1134
5:887
6:2842
7:3705
8:5793
9:5662
10:5099
11:7904
12:7902
13:9611
14:7129
15:7368
16:6279
17:6577
18:6401
19:7297
20:7014
21:7675
22:9556
23:8186
24:9618
25:7915
26:5032
27:7329
28:9995
29:9281
30:8636
31:6067
32:4545
33:9191
34:10087
35:9601
36:8654
37:8639
38:7185
39:5927
40:4949
41:14486
42:11604
