0:1125
1:1193
2:1175
3:1458
4:1747
5:1556
6:1676
7:2182
8:5988
9:5390
10:5285
11:7249
12:7870
13:9704
14:5795
15:7367
16:7812
17:7592
18:6377
19:5523
20:7221
21:9889
22:8153
23:7094
24:5646
25:6045
26:9054
27:11227
28:7864
29:8232
30:6092
31:6497
32:14134
33:11470
34:11730
35:9509
36:4786
37:5956
38:7317
39:12626
40:6646
