0:1069
1:1113
2:1156
3:1080
4:1875
5:1571
6:1079
7:3383
8:5652
9:5294
10:5365
11:9250
12:8623
13:8773
14:6366
15:8753
16:5382
17:5122
18:6141
19:7643
20:6286
21:9303
22:9188
23:9999
24:7904
25:9034
26:7977
27:5892
28:6987
29:5435
30:9039
31:11549
32:8824
33:11289
34:7805
35:6108
36:9724
37:8694
38:9802
39:7709
40:5932
41:7549
42:9387
43:9856
