0:803
1:1236
2:1182
3:1396
4:1463
5:1266
6:1129
7:2017
8:4532
9:5524
10:5471
11:4977
12:6838
13:8072
14:7152
15:5195
16:7100
17:6281
18:5235
19:6506
20:7225
21:7829
22:8611
23:8493
24:8237
25:12582
26:8153
27:7219
28:4283
29:4032
30:6125
31:9799
32:9829
33:9047
34:8464
35:5544
36:4785
37:9021
38:10101
39:10248
40:6941
41:7692
42:4301
43:15240
44:14714
45:14597
46:10921
