0:1134
1:1178
2:1145
3:1707
4:1636
5:2355
6:3756
7:5898
8:6365
9:8231
10:6865
11:5992
12:8531
13:5400
14:7528
15:6498
16:6663
17:7091
18:6171
19:9656
20:7955
21:7545
22:8594
23:7988
24:6882
25:6133
26:4968
27:6477
28:6801
29:9136
30:8434
31:9096
32:7313
33:9232
34:6165
35:5021
36:6062
37:6731
38:5890
39:5576
40:5293
41:2589
42:16100
43:19275
44:11726
