0:2373
1:2756
2:3843
3:3133
4:3986
5:5211
6:8496
7:7465
8:8955
9:8278
10:8354
11:8725
12:7911
13:6187
14:4187
15:5763
16:8763
17:9326
18:13178
19:11160
20:11614
21:9531
22:12217
23:11583
24:7317
25:5854
26:5784
27:5939
28:4411
29:10087
30:11232
31:12465
32:10597
33:8205
34:7199
35:6143
36:8470
37:14430
38:5236
39:5978
40:5646
41:6985
42:15950
43:11673
44:10019
45:9479
