0:2347
1:2772
2:3799
3:3398
4:2941
5:7278
6:8208
7:5888
8:8290
9:9273
10:8616
11:8528
12:6867
13:7173
14:4968
15:8064
16:8912
17:9119
18:11945
19:9651
20:9739
21:8788
22:11895
23:10290
24:5339
25:5775
26:6210
27:7047
28:4365
29:8124
30:8668
31:11367
32:9036
33:8989
34:10459
35:8133
36:7256
37:8536
38:8879
39:11769
40:5536
41:5471
42:5281
43:8089
44:9141
45:12218
46:10517
