0:2877
1:3000
2:2920
3:3402
4:3461
5:5986
6:8063
7:8178
8:8590
9:9461
10:8473
11:5761
12:7533
13:4355
14:5593
15:7038
16:9403
17:11685
18:12463
19:10386
20:8954
21:13072
22:11227
23:9118
24:6105
25:4005
26:8194
27:7234
28:5386
29:9478
30:9873
31:11663
32:7750
33:8504
34:7457
35:8079
36:9509
37:6109
38:8317
39:6915
40:5552
41:13501
42:9991
43:8883
