0:2490
1:2959
2:2920
3:3252
4:3370
5:7368
6:8290
7:8252
8:7611
9:8379
10:7380
11:5355
12:6339
13:4301
14:4831
15:7690
16:9658
17:10564
18:10876
19:10891
20:8045
21:7963
22:12078
23:10747
24:10075
25:5865
26:3833
27:7725
28:6600
29:5596
30:9444
31:10195
32:8573
33:6792
34:8615
35:7854
36:7946
37:7491
38:4985
39:5803
40:4823
41:11489
42:9334
43:8038
