%!PS-Adobe-3.0 EPSF-3.0
%%Title: /home/chris/ssap_ws/real_data_results/SameCourse_DiffRobot/samecourse_diffrobot.eps
%%Creator: matplotlib version 2.2.5, http://matplotlib.org/
%%CreationDate: Fri Sep 25 17:02:04 2020
%%Orientation: portrait
%%BoundingBox: 75 223 536 568
%%EndComments
%%BeginProlog
/mpldict 8 dict def
mpldict begin
/m { moveto } bind def
/l { lineto } bind def
/r { rlineto } bind def
/c { curveto } bind def
/cl { closepath } bind def
/box {
m
1 index 0 r
0 exch r
neg 0 r
cl
} bind def
/clipbox {
box
clip
newpath
} bind def
%!PS-Adobe-3.0 Resource-Font
%%Title: DejaVu Sans
%%Copyright: Copyright (c) 2003 by Bitstream, Inc. All Rights Reserved. Copyright (c) 2006 by Tavmjong Bah. All Rights Reserved. DejaVu changes are in public domain 
%%Creator: Converted from TrueType to type 3 by PPR
25 dict begin
/_d{bind def}bind def
/_m{moveto}_d
/_l{lineto}_d
/_cl{closepath eofill}_d
/_c{curveto}_d
/_sc{7 -1 roll{setcachedevice}{pop pop pop pop pop pop}ifelse}_d
/_e{exec}_d
/FontName /DejaVuSans def
/PaintType 0 def
/FontMatrix[.001 0 0 .001 0 0]def
/FontBBox[-1021 -463 1793 1232]def
/FontType 3 def
/Encoding [ /space /parenleft /parenright /period /zero /one /two /five /six /seven /eight /nine /A /B /C /D /F /H /N /R /a /b /d /e /h /i /l /m /o /p /r /s /t /u /w /z ] def
/FontInfo 10 dict dup begin
/FamilyName (DejaVu Sans) def
/FullName (DejaVu Sans) def
/Notice (Copyright (c) 2003 by Bitstream, Inc. All Rights Reserved. Copyright (c) 2006 by Tavmjong Bah. All Rights Reserved. DejaVu changes are in public domain ) def
/Weight (Book) def
/Version (Version 2.35) def
/ItalicAngle 0.0 def
/isFixedPitch false def
/UnderlinePosition -130 def
/UnderlineThickness 90 def
end readonly def
/CharStrings 37 dict dup begin
/.notdef 0 def
/space{318 0 0 0 0 0 _sc
}_d
/parenleft{390 0 86 -131 310 759 _sc
310 759 _m
266 683 234 609 213 536 _c
191 463 181 389 181 314 _c
181 238 191 164 213 91 _c
234 17 266 -56 310 -131 _c
232 -131 _l
183 -54 146 20 122 94 _c
98 168 86 241 86 314 _c
86 386 98 459 122 533 _c
146 607 182 682 232 759 _c
310 759 _l
_cl}_d
/parenright{390 0 80 -131 304 759 _sc
80 759 _m
158 759 _l
206 682 243 607 267 533 _c
291 459 304 386 304 314 _c
304 241 291 168 267 94 _c
243 20 206 -54 158 -131 _c
80 -131 _l
123 -56 155 17 177 91 _c
198 164 209 238 209 314 _c
209 389 198 463 177 536 _c
155 609 123 683 80 759 _c
_cl}_d
/period{318 0 107 0 210 124 _sc
107 124 _m
210 124 _l
210 0 _l
107 0 _l
107 124 _l
_cl}_d
/zero{636 0 66 -13 570 742 _sc
318 664 _m
267 664 229 639 203 589 _c
177 539 165 464 165 364 _c
165 264 177 189 203 139 _c
229 89 267 64 318 64 _c
369 64 407 89 433 139 _c
458 189 471 264 471 364 _c
471 464 458 539 433 589 _c
407 639 369 664 318 664 _c
318 742 _m
399 742 461 709 505 645 _c
548 580 570 486 570 364 _c
570 241 548 147 505 83 _c
461 19 399 -13 318 -13 _c
236 -13 173 19 130 83 _c
87 147 66 241 66 364 _c
66 486 87 580 130 645 _c
173 709 236 742 318 742 _c
_cl}_d
/one{636 0 110 0 544 729 _sc
124 83 _m
285 83 _l
285 639 _l
110 604 _l
110 694 _l
284 729 _l
383 729 _l
383 83 _l
544 83 _l
544 0 _l
124 0 _l
124 83 _l
_cl}_d
/two{{636 0 73 0 536 742 _sc
192 83 _m
536 83 _l
536 0 _l
73 0 _l
73 83 _l
110 121 161 173 226 239 _c
290 304 331 346 348 365 _c
380 400 402 430 414 455 _c
426 479 433 504 433 528 _c
433 566 419 598 392 622 _c
365 646 330 659 286 659 _c
255 659 222 653 188 643 _c
154 632 117 616 78 594 _c
78 694 _l
118 710 155 722 189 730 _c
223 738 255 742 284 742 _c
}_e{359 742 419 723 464 685 _c
509 647 532 597 532 534 _c
532 504 526 475 515 449 _c
504 422 484 390 454 354 _c
446 344 420 317 376 272 _c
332 227 271 164 192 83 _c
_cl}_e}_d
/five{{636 0 77 -13 549 729 _sc
108 729 _m
495 729 _l
495 646 _l
198 646 _l
198 467 _l
212 472 227 476 241 478 _c
255 480 270 482 284 482 _c
365 482 429 459 477 415 _c
525 370 549 310 549 234 _c
549 155 524 94 475 51 _c
426 8 357 -13 269 -13 _c
238 -13 207 -10 175 -6 _c
143 -1 111 6 77 17 _c
77 116 _l
106 100 136 88 168 80 _c
199 72 232 69 267 69 _c
}_e{323 69 368 83 401 113 _c
433 143 450 183 450 234 _c
450 284 433 324 401 354 _c
368 384 323 399 267 399 _c
241 399 214 396 188 390 _c
162 384 135 375 108 363 _c
108 729 _l
_cl}_e}_d
/six{{636 0 70 -13 573 742 _sc
330 404 _m
286 404 251 388 225 358 _c
199 328 186 286 186 234 _c
186 181 199 139 225 109 _c
251 79 286 64 330 64 _c
374 64 409 79 435 109 _c
461 139 474 181 474 234 _c
474 286 461 328 435 358 _c
409 388 374 404 330 404 _c
526 713 _m
526 623 _l
501 635 476 644 451 650 _c
425 656 400 659 376 659 _c
310 659 260 637 226 593 _c
}_e{192 549 172 482 168 394 _c
187 422 211 444 240 459 _c
269 474 301 482 336 482 _c
409 482 467 459 509 415 _c
551 371 573 310 573 234 _c
573 159 550 99 506 54 _c
462 9 403 -13 330 -13 _c
246 -13 181 19 137 83 _c
92 147 70 241 70 364 _c
70 479 97 571 152 639 _c
206 707 280 742 372 742 _c
396 742 421 739 447 735 _c
472 730 498 723 526 713 _c
_cl}_e}_d
/seven{636 0 82 0 551 729 _sc
82 729 _m
551 729 _l
551 687 _l
286 0 _l
183 0 _l
432 646 _l
82 646 _l
82 729 _l
_cl}_d
/eight{{636 0 68 -13 568 742 _sc
318 346 _m
271 346 234 333 207 308 _c
180 283 167 249 167 205 _c
167 161 180 126 207 101 _c
234 76 271 64 318 64 _c
364 64 401 76 428 102 _c
455 127 469 161 469 205 _c
469 249 455 283 429 308 _c
402 333 365 346 318 346 _c
219 388 _m
177 398 144 418 120 447 _c
96 476 85 511 85 553 _c
85 611 105 657 147 691 _c
188 725 245 742 318 742 _c
}_e{390 742 447 725 489 691 _c
530 657 551 611 551 553 _c
551 511 539 476 515 447 _c
491 418 459 398 417 388 _c
464 377 501 355 528 323 _c
554 291 568 251 568 205 _c
568 134 546 80 503 43 _c
459 5 398 -13 318 -13 _c
237 -13 175 5 132 43 _c
89 80 68 134 68 205 _c
68 251 81 291 108 323 _c
134 355 171 377 219 388 _c
183 544 _m
183 506 194 476 218 455 _c
}_e{242 434 275 424 318 424 _c
360 424 393 434 417 455 _c
441 476 453 506 453 544 _c
453 582 441 611 417 632 _c
393 653 360 664 318 664 _c
275 664 242 653 218 632 _c
194 611 183 582 183 544 _c
_cl}_e}_d
/nine{{636 0 63 -13 566 742 _sc
110 15 _m
110 105 _l
134 93 159 84 185 78 _c
210 72 235 69 260 69 _c
324 69 374 90 408 134 _c
442 178 462 244 468 334 _c
448 306 424 284 396 269 _c
367 254 335 247 300 247 _c
226 247 168 269 126 313 _c
84 357 63 417 63 494 _c
63 568 85 628 129 674 _c
173 719 232 742 306 742 _c
390 742 455 709 499 645 _c
543 580 566 486 566 364 _c
}_e{566 248 538 157 484 89 _c
429 21 356 -13 264 -13 _c
239 -13 214 -10 189 -6 _c
163 -2 137 5 110 15 _c
306 324 _m
350 324 385 339 411 369 _c
437 399 450 441 450 494 _c
450 546 437 588 411 618 _c
385 648 350 664 306 664 _c
262 664 227 648 201 618 _c
175 588 162 546 162 494 _c
162 441 175 399 201 369 _c
227 339 262 324 306 324 _c
_cl}_e}_d
/A{684 0 8 0 676 729 _sc
342 632 _m
208 269 _l
476 269 _l
342 632 _l
286 729 _m
398 729 _l
676 0 _l
573 0 _l
507 187 _l
178 187 _l
112 0 _l
8 0 _l
286 729 _l
_cl}_d
/B{{686 0 98 0 615 729 _sc
197 348 _m
197 81 _l
355 81 _l
408 81 447 92 473 114 _c
498 136 511 169 511 215 _c
511 260 498 293 473 315 _c
447 337 408 348 355 348 _c
197 348 _l
197 648 _m
197 428 _l
343 428 _l
391 428 426 437 450 455 _c
474 473 486 500 486 538 _c
486 574 474 602 450 620 _c
426 638 391 648 343 648 _c
197 648 _l
98 729 _m
350 729 _l
}_e{425 729 483 713 524 682 _c
564 650 585 606 585 549 _c
585 504 574 468 553 442 _c
532 416 502 399 462 393 _c
510 382 548 360 575 327 _c
601 294 615 253 615 204 _c
615 138 592 88 548 53 _c
504 17 441 0 360 0 _c
98 0 _l
98 729 _l
_cl}_e}_d
/C{{698 0 56 -13 644 742 _sc
644 673 _m
644 569 _l
610 599 575 622 537 638 _c
499 653 460 661 418 661 _c
334 661 270 635 226 584 _c
182 533 160 460 160 364 _c
160 268 182 194 226 143 _c
270 92 334 67 418 67 _c
460 67 499 74 537 90 _c
575 105 610 128 644 159 _c
644 56 _l
609 32 572 15 534 4 _c
496 -7 455 -13 412 -13 _c
302 -13 215 20 151 87 _c
}_e{87 154 56 246 56 364 _c
56 481 87 573 151 641 _c
215 708 302 742 412 742 _c
456 742 497 736 535 725 _c
573 713 610 696 644 673 _c
_cl}_e}_d
/D{770 0 98 0 711 729 _sc
197 648 _m
197 81 _l
316 81 _l
416 81 490 103 537 149 _c
583 195 607 267 607 365 _c
607 463 583 534 537 580 _c
490 625 416 648 316 648 _c
197 648 _l
98 729 _m
301 729 _l
442 729 546 699 612 641 _c
678 582 711 490 711 365 _c
711 239 677 147 611 88 _c
545 29 441 0 301 0 _c
98 0 _l
98 729 _l
_cl}_d
/F{575 0 98 0 517 729 _sc
98 729 _m
517 729 _l
517 646 _l
197 646 _l
197 431 _l
486 431 _l
486 348 _l
197 348 _l
197 0 _l
98 0 _l
98 729 _l
_cl}_d
/H{752 0 98 0 654 729 _sc
98 729 _m
197 729 _l
197 430 _l
555 430 _l
555 729 _l
654 729 _l
654 0 _l
555 0 _l
555 347 _l
197 347 _l
197 0 _l
98 0 _l
98 729 _l
_cl}_d
/N{748 0 98 0 650 729 _sc
98 729 _m
231 729 _l
554 119 _l
554 729 _l
650 729 _l
650 0 _l
517 0 _l
194 610 _l
194 0 _l
98 0 _l
98 729 _l
_cl}_d
/R{{695 0 98 0 666 729 _sc
444 342 _m
465 334 486 319 506 296 _c
526 272 546 240 566 199 _c
666 0 _l
560 0 _l
467 187 _l
443 235 419 268 397 284 _c
374 300 343 308 304 308 _c
197 308 _l
197 0 _l
98 0 _l
98 729 _l
321 729 _l
404 729 466 711 507 677 _c
548 642 569 589 569 519 _c
569 473 558 434 537 404 _c
515 374 484 353 444 342 _c
197 648 _m
197 389 _l
321 389 _l
}_e{368 389 404 400 428 422 _c
452 444 465 476 465 519 _c
465 561 452 593 428 615 _c
404 637 368 648 321 648 _c
197 648 _l
_cl}_e}_d
/a{{613 0 60 -13 522 560 _sc
343 275 _m
270 275 220 266 192 250 _c
164 233 150 205 150 165 _c
150 133 160 107 181 89 _c
202 70 231 61 267 61 _c
317 61 357 78 387 114 _c
417 149 432 196 432 255 _c
432 275 _l
343 275 _l
522 312 _m
522 0 _l
432 0 _l
432 83 _l
411 49 385 25 355 10 _c
325 -5 287 -13 243 -13 _c
187 -13 142 2 109 33 _c
76 64 60 106 60 159 _c
}_e{60 220 80 266 122 298 _c
163 329 224 345 306 345 _c
432 345 _l
432 354 _l
432 395 418 427 391 450 _c
364 472 326 484 277 484 _c
245 484 215 480 185 472 _c
155 464 127 453 100 439 _c
100 522 _l
132 534 164 544 195 550 _c
226 556 256 560 286 560 _c
365 560 424 539 463 498 _c
502 457 522 395 522 312 _c
_cl}_e}_d
/b{{635 0 91 -13 580 760 _sc
487 273 _m
487 339 473 390 446 428 _c
418 466 381 485 334 485 _c
286 485 249 466 222 428 _c
194 390 181 339 181 273 _c
181 207 194 155 222 117 _c
249 79 286 61 334 61 _c
381 61 418 79 446 117 _c
473 155 487 207 487 273 _c
181 464 _m
199 496 223 520 252 536 _c
281 552 316 560 356 560 _c
422 560 476 533 518 481 _c
559 428 580 359 580 273 _c
}_e{580 187 559 117 518 65 _c
476 13 422 -13 356 -13 _c
316 -13 281 -5 252 10 _c
223 25 199 49 181 82 _c
181 0 _l
91 0 _l
91 760 _l
181 760 _l
181 464 _l
_cl}_e}_d
/d{{635 0 55 -13 544 760 _sc
454 464 _m
454 760 _l
544 760 _l
544 0 _l
454 0 _l
454 82 _l
435 49 411 25 382 10 _c
353 -5 319 -13 279 -13 _c
213 -13 159 13 117 65 _c
75 117 55 187 55 273 _c
55 359 75 428 117 481 _c
159 533 213 560 279 560 _c
319 560 353 552 382 536 _c
411 520 435 496 454 464 _c
148 273 _m
148 207 161 155 188 117 _c
215 79 253 61 301 61 _c
}_e{348 61 385 79 413 117 _c
440 155 454 207 454 273 _c
454 339 440 390 413 428 _c
385 466 348 485 301 485 _c
253 485 215 466 188 428 _c
161 390 148 339 148 273 _c
_cl}_e}_d
/e{{615 0 55 -13 562 560 _sc
562 296 _m
562 252 _l
149 252 _l
153 190 171 142 205 110 _c
238 78 284 62 344 62 _c
378 62 412 66 444 74 _c
476 82 509 95 541 113 _c
541 28 _l
509 14 476 3 442 -3 _c
408 -9 373 -13 339 -13 _c
251 -13 182 12 131 62 _c
80 112 55 181 55 268 _c
55 357 79 428 127 481 _c
175 533 241 560 323 560 _c
397 560 455 536 498 489 _c
}_e{540 441 562 377 562 296 _c
472 322 _m
471 371 457 410 431 440 _c
404 469 368 484 324 484 _c
274 484 234 469 204 441 _c
174 413 156 373 152 322 _c
472 322 _l
_cl}_e}_d
/h{634 0 91 0 549 760 _sc
549 330 _m
549 0 _l
459 0 _l
459 327 _l
459 379 448 417 428 443 _c
408 469 378 482 338 482 _c
289 482 251 466 223 435 _c
195 404 181 362 181 309 _c
181 0 _l
91 0 _l
91 760 _l
181 760 _l
181 462 _l
202 494 227 519 257 535 _c
286 551 320 560 358 560 _c
420 560 468 540 500 501 _c
532 462 549 405 549 330 _c
_cl}_d
/i{278 0 94 0 184 760 _sc
94 547 _m
184 547 _l
184 0 _l
94 0 _l
94 547 _l
94 760 _m
184 760 _l
184 646 _l
94 646 _l
94 760 _l
_cl}_d
/l{278 0 94 0 184 760 _sc
94 760 _m
184 760 _l
184 0 _l
94 0 _l
94 760 _l
_cl}_d
/m{{974 0 91 0 889 560 _sc
520 442 _m
542 482 569 511 600 531 _c
631 550 668 560 711 560 _c
767 560 811 540 842 500 _c
873 460 889 403 889 330 _c
889 0 _l
799 0 _l
799 327 _l
799 379 789 418 771 444 _c
752 469 724 482 686 482 _c
639 482 602 466 575 435 _c
548 404 535 362 535 309 _c
535 0 _l
445 0 _l
445 327 _l
445 379 435 418 417 444 _c
398 469 369 482 331 482 _c
}_e{285 482 248 466 221 435 _c
194 404 181 362 181 309 _c
181 0 _l
91 0 _l
91 547 _l
181 547 _l
181 462 _l
201 495 226 520 255 536 _c
283 552 317 560 357 560 _c
397 560 430 550 458 530 _c
486 510 506 480 520 442 _c
_cl}_e}_d
/o{612 0 55 -13 557 560 _sc
306 484 _m
258 484 220 465 192 427 _c
164 389 150 338 150 273 _c
150 207 163 156 191 118 _c
219 80 257 62 306 62 _c
354 62 392 80 420 118 _c
448 156 462 207 462 273 _c
462 337 448 389 420 427 _c
392 465 354 484 306 484 _c
306 560 _m
384 560 445 534 490 484 _c
534 433 557 363 557 273 _c
557 183 534 113 490 63 _c
445 12 384 -13 306 -13 _c
227 -13 165 12 121 63 _c
77 113 55 183 55 273 _c
55 363 77 433 121 484 _c
165 534 227 560 306 560 _c
_cl}_d
/p{{635 0 91 -207 580 560 _sc
181 82 _m
181 -207 _l
91 -207 _l
91 547 _l
181 547 _l
181 464 _l
199 496 223 520 252 536 _c
281 552 316 560 356 560 _c
422 560 476 533 518 481 _c
559 428 580 359 580 273 _c
580 187 559 117 518 65 _c
476 13 422 -13 356 -13 _c
316 -13 281 -5 252 10 _c
223 25 199 49 181 82 _c
487 273 _m
487 339 473 390 446 428 _c
418 466 381 485 334 485 _c
}_e{286 485 249 466 222 428 _c
194 390 181 339 181 273 _c
181 207 194 155 222 117 _c
249 79 286 61 334 61 _c
381 61 418 79 446 117 _c
473 155 487 207 487 273 _c
_cl}_e}_d
/r{411 0 91 0 411 560 _sc
411 463 _m
401 469 390 473 378 476 _c
366 478 353 480 339 480 _c
288 480 249 463 222 430 _c
194 397 181 350 181 288 _c
181 0 _l
91 0 _l
91 547 _l
181 547 _l
181 462 _l
199 495 224 520 254 536 _c
284 552 321 560 365 560 _c
371 560 378 559 386 559 _c
393 558 401 557 411 555 _c
411 463 _l
_cl}_d
/s{{521 0 54 -13 472 560 _sc
443 531 _m
443 446 _l
417 458 391 468 364 475 _c
336 481 308 485 279 485 _c
234 485 200 478 178 464 _c
156 450 145 430 145 403 _c
145 382 153 366 169 354 _c
185 342 217 330 265 320 _c
296 313 _l
360 299 405 279 432 255 _c
458 230 472 195 472 151 _c
472 100 452 60 412 31 _c
372 1 316 -13 246 -13 _c
216 -13 186 -10 154 -5 _c
}_e{122 0 89 8 54 20 _c
54 113 _l
87 95 120 82 152 74 _c
184 65 216 61 248 61 _c
290 61 323 68 346 82 _c
368 96 380 117 380 144 _c
380 168 371 187 355 200 _c
339 213 303 226 247 238 _c
216 245 _l
160 257 119 275 95 299 _c
70 323 58 356 58 399 _c
58 450 76 490 112 518 _c
148 546 200 560 268 560 _c
301 560 332 557 362 552 _c
391 547 418 540 443 531 _c
}_e{_cl}_e}_d
/t{392 0 27 0 368 702 _sc
183 702 _m
183 547 _l
368 547 _l
368 477 _l
183 477 _l
183 180 _l
183 135 189 106 201 94 _c
213 81 238 75 276 75 _c
368 75 _l
368 0 _l
276 0 _l
206 0 158 13 132 39 _c
106 65 93 112 93 180 _c
93 477 _l
27 477 _l
27 547 _l
93 547 _l
93 702 _l
183 702 _l
_cl}_d
/u{634 0 85 -13 543 560 _sc
85 216 _m
85 547 _l
175 547 _l
175 219 _l
175 167 185 129 205 103 _c
225 77 255 64 296 64 _c
344 64 383 79 411 110 _c
439 141 453 183 453 237 _c
453 547 _l
543 547 _l
543 0 _l
453 0 _l
453 84 _l
431 50 405 26 377 10 _c
348 -5 315 -13 277 -13 _c
214 -13 166 6 134 45 _c
101 83 85 140 85 216 _c
311 560 _m
311 560 _l
_cl}_d
/w{818 0 42 0 776 547 _sc
42 547 _m
132 547 _l
244 120 _l
356 547 _l
462 547 _l
574 120 _l
686 547 _l
776 547 _l
633 0 _l
527 0 _l
409 448 _l
291 0 _l
185 0 _l
42 547 _l
_cl}_d
/z{525 0 43 0 482 547 _sc
55 547 _m
482 547 _l
482 465 _l
144 72 _l
482 72 _l
482 0 _l
43 0 _l
43 82 _l
381 475 _l
55 475 _l
55 547 _l
_cl}_d
end readonly def

/BuildGlyph
 {exch begin
 CharStrings exch
 2 copy known not{pop /.notdef}if
 true 3 1 roll get exec
 end}_d

/BuildChar {
 1 index /Encoding get exch get
 1 index /BuildGlyph get exec
}_d

FontName currentdict end definefont pop
end
%%EndProlog
mpldict begin
75.6 223.2 translate
460.8 345.6 0 0 clipbox
gsave
0 0 m
460.8 0 l
460.8 345.6 l
0 345.6 l
cl
1.000 setgray
fill
grestore
gsave
57.62 45.56 m
244.63 45.56 l
244.63 332.28 l
57.62 332.28 l
cl
1.000 setgray
fill
grestore
0.800 setlinewidth
1 setlinejoin
0 setlinecap
[] 0 setdash
0.000 setgray
gsave
/o {
gsave
newpath
translate
0.8 setlinewidth
1 setlinejoin
0 setlinecap
0 0 m
0 -3.5 l

gsave
0.000 setgray
fill
grestore
stroke
grestore
} bind def
80.9963 45.56 o
grestore
/DejaVuSans findfont
10.000 scalefont
setfont
gsave
63.027500 30.966250 translate
0.000000 rotate
0.000000 0.000000 m /R glyphshow
6.948242 0.000000 m /one glyphshow
13.310547 0.000000 m /space glyphshow
16.489258 0.000000 m /H glyphshow
24.008789 0.000000 m /i glyphshow
26.787109 0.000000 m /s glyphshow
31.997070 0.000000 m /t glyphshow
grestore
gsave
/o {
gsave
newpath
translate
0.8 setlinewidth
1 setlinejoin
0 setlinecap
0 0 m
0 -3.5 l

gsave
0.000 setgray
fill
grestore
stroke
grestore
} bind def
127.749 45.56 o
grestore
gsave
109.780000 30.966250 translate
0.000000 rotate
0.000000 0.000000 m /R glyphshow
6.948242 0.000000 m /two glyphshow
13.310547 0.000000 m /space glyphshow
16.489258 0.000000 m /H glyphshow
24.008789 0.000000 m /i glyphshow
26.787109 0.000000 m /s glyphshow
31.997070 0.000000 m /t glyphshow
grestore
gsave
/o {
gsave
newpath
translate
0.8 setlinewidth
1 setlinejoin
0 setlinecap
0 0 m
0 -3.5 l

gsave
0.000 setgray
fill
grestore
stroke
grestore
} bind def
174.501 45.56 o
grestore
gsave
156.532500 30.966250 translate
0.000000 rotate
0.000000 0.000000 m /R glyphshow
6.948242 0.000000 m /one glyphshow
13.310547 0.000000 m /space glyphshow
16.489258 0.000000 m /H glyphshow
24.008789 0.000000 m /i glyphshow
26.787109 0.000000 m /s glyphshow
31.997070 0.000000 m /t glyphshow
grestore
gsave
/o {
gsave
newpath
translate
0.8 setlinewidth
1 setlinejoin
0 setlinecap
0 0 m
0 -3.5 l

gsave
0.000 setgray
fill
grestore
stroke
grestore
} bind def
221.254 45.56 o
grestore
gsave
203.285000 30.966250 translate
0.000000 rotate
0.000000 0.000000 m /R glyphshow
6.948242 0.000000 m /two glyphshow
13.310547 0.000000 m /space glyphshow
16.489258 0.000000 m /H glyphshow
24.008789 0.000000 m /i glyphshow
26.787109 0.000000 m /s glyphshow
31.997070 0.000000 m /t glyphshow
grestore
/DejaVuSans findfont
14.000 scalefont
setfont
gsave
123.828125 14.247500 translate
0.000000 rotate
0.000000 0.000000 m /R glyphshow
9.727539 0.000000 m /o glyphshow
18.292969 0.000000 m /b glyphshow
27.179688 0.000000 m /o glyphshow
35.745117 0.000000 m /t glyphshow
41.234375 0.000000 m /space glyphshow
45.684570 0.000000 m /one glyphshow
grestore
gsave
/o {
gsave
newpath
translate
0.8 setlinewidth
1 setlinejoin
0 setlinecap
0 0 m
-3.5 0 l

gsave
0.000 setgray
fill
grestore
stroke
grestore
} bind def
57.62 68.3673 o
grestore
/DejaVuSans findfont
10.000 scalefont
setfont
gsave
28.354375 64.570398 translate
0.000000 rotate
0.000000 0.000000 m /zero glyphshow
6.362305 0.000000 m /period glyphshow
9.541016 0.000000 m /six glyphshow
15.903320 0.000000 m /five glyphshow
grestore
gsave
/o {
gsave
newpath
translate
0.8 setlinewidth
1 setlinejoin
0 setlinecap
0 0 m
-3.5 0 l

gsave
0.000 setgray
fill
grestore
stroke
grestore
} bind def
57.62 104.207 o
grestore
gsave
28.354375 100.410398 translate
0.000000 rotate
0.000000 0.000000 m /zero glyphshow
6.362305 0.000000 m /period glyphshow
9.541016 0.000000 m /seven glyphshow
15.903320 0.000000 m /zero glyphshow
grestore
gsave
/o {
gsave
newpath
translate
0.8 setlinewidth
1 setlinejoin
0 setlinecap
0 0 m
-3.5 0 l

gsave
0.000 setgray
fill
grestore
stroke
grestore
} bind def
57.62 140.047 o
grestore
gsave
28.354375 136.250398 translate
0.000000 rotate
0.000000 0.000000 m /zero glyphshow
6.362305 0.000000 m /period glyphshow
9.541016 0.000000 m /seven glyphshow
15.903320 0.000000 m /five glyphshow
grestore
gsave
/o {
gsave
newpath
translate
0.8 setlinewidth
1 setlinejoin
0 setlinecap
0 0 m
-3.5 0 l

gsave
0.000 setgray
fill
grestore
stroke
grestore
} bind def
57.62 175.887 o
grestore
gsave
28.354375 172.090398 translate
0.000000 rotate
0.000000 0.000000 m /zero glyphshow
6.362305 0.000000 m /period glyphshow
9.541016 0.000000 m /eight glyphshow
15.903320 0.000000 m /zero glyphshow
grestore
gsave
/o {
gsave
newpath
translate
0.8 setlinewidth
1 setlinejoin
0 setlinecap
0 0 m
-3.5 0 l

gsave
0.000 setgray
fill
grestore
stroke
grestore
} bind def
57.62 211.727 o
grestore
gsave
28.354375 207.930398 translate
0.000000 rotate
0.000000 0.000000 m /zero glyphshow
6.362305 0.000000 m /period glyphshow
9.541016 0.000000 m /eight glyphshow
15.903320 0.000000 m /five glyphshow
grestore
gsave
/o {
gsave
newpath
translate
0.8 setlinewidth
1 setlinejoin
0 setlinecap
0 0 m
-3.5 0 l

gsave
0.000 setgray
fill
grestore
stroke
grestore
} bind def
57.62 247.567 o
grestore
gsave
28.354375 243.770398 translate
0.000000 rotate
0.000000 0.000000 m /zero glyphshow
6.362305 0.000000 m /period glyphshow
9.541016 0.000000 m /nine glyphshow
15.903320 0.000000 m /zero glyphshow
grestore
gsave
/o {
gsave
newpath
translate
0.8 setlinewidth
1 setlinejoin
0 setlinecap
0 0 m
-3.5 0 l

gsave
0.000 setgray
fill
grestore
stroke
grestore
} bind def
57.62 283.407 o
grestore
gsave
28.354375 279.610398 translate
0.000000 rotate
0.000000 0.000000 m /zero glyphshow
6.362305 0.000000 m /period glyphshow
9.541016 0.000000 m /nine glyphshow
15.903320 0.000000 m /five glyphshow
grestore
gsave
/o {
gsave
newpath
translate
0.8 setlinewidth
1 setlinejoin
0 setlinecap
0 0 m
-3.5 0 l

gsave
0.000 setgray
fill
grestore
stroke
grestore
} bind def
57.62 319.247 o
grestore
gsave
28.354375 315.450398 translate
0.000000 rotate
0.000000 0.000000 m /one glyphshow
6.362305 0.000000 m /period glyphshow
9.541016 0.000000 m /zero glyphshow
15.903320 0.000000 m /zero glyphshow
grestore
/DejaVuSans findfont
14.000 scalefont
setfont
gsave
21.448125 76.130937 translate
90.000000 rotate
0.000000 0.000000 m /F glyphshow
8.052734 0.000000 m /e glyphshow
16.666016 0.000000 m /a glyphshow
25.245117 0.000000 m /t glyphshow
30.734375 0.000000 m /u glyphshow
39.607422 0.000000 m /r glyphshow
45.363281 0.000000 m /e glyphshow
53.976562 0.000000 m /s glyphshow
61.270508 0.000000 m /space glyphshow
65.720703 0.000000 m /C glyphshow
75.496094 0.000000 m /a glyphshow
84.075195 0.000000 m /p glyphshow
92.961914 0.000000 m /t glyphshow
98.451172 0.000000 m /u glyphshow
107.324219 0.000000 m /r glyphshow
113.080078 0.000000 m /e glyphshow
121.693359 0.000000 m /d glyphshow
130.580078 0.000000 m /space glyphshow
135.030273 0.000000 m /parenleft glyphshow
140.492188 0.000000 m /N glyphshow
150.964844 0.000000 m /o glyphshow
159.530273 0.000000 m /r glyphshow
165.286133 0.000000 m /m glyphshow
178.923828 0.000000 m /a glyphshow
187.502930 0.000000 m /l glyphshow
191.392578 0.000000 m /i glyphshow
195.282227 0.000000 m /z glyphshow
202.630859 0.000000 m /e glyphshow
211.244141 0.000000 m /d glyphshow
220.130859 0.000000 m /parenright glyphshow
grestore
1.000 setlinewidth
2 setlinecap
gsave
187 286.7 57.62 45.56 clipbox
80.99625 243.45248 m
80.99625 196.367273 l
stroke
grestore
gsave
187 286.7 57.62 45.56 clipbox
80.99625 286.416738 m
80.99625 319.247273 l
stroke
grestore
gsave
187 286.7 57.62 45.56 clipbox
75.736594 196.367273 m
86.255906 196.367273 l
stroke
grestore
gsave
187 286.7 57.62 45.56 clipbox
75.736594 319.247273 m
86.255906 319.247273 l
stroke
grestore
gsave
187 286.7 57.62 45.56 clipbox
127.74875 231.029561 m
127.74875 177.906428 l
stroke
grestore
gsave
187 286.7 57.62 45.56 clipbox
127.74875 280.79655 m
127.74875 319.247273 l
stroke
grestore
gsave
187 286.7 57.62 45.56 clipbox
122.489094 177.906428 m
133.008406 177.906428 l
stroke
grestore
gsave
187 286.7 57.62 45.56 clipbox
122.489094 319.247273 m
133.008406 319.247273 l
stroke
grestore
gsave
187 286.7 57.62 45.56 clipbox
174.50125 178.709408 m
174.50125 63.247273 l
stroke
grestore
gsave
187 286.7 57.62 45.56 clipbox
174.50125 287.147855 m
174.50125 319.247273 l
stroke
grestore
gsave
187 286.7 57.62 45.56 clipbox
169.241594 63.247273 m
179.760906 63.247273 l
stroke
grestore
gsave
187 286.7 57.62 45.56 clipbox
169.241594 319.247273 m
179.760906 319.247273 l
stroke
grestore
gsave
187 286.7 57.62 45.56 clipbox
221.25375 131.364232 m
221.25375 58.592727 l
stroke
grestore
gsave
187 286.7 57.62 45.56 clipbox
221.25375 277.657939 m
221.25375 312.288049 l
stroke
grestore
gsave
187 286.7 57.62 45.56 clipbox
215.994094 58.592727 m
226.513406 58.592727 l
stroke
grestore
gsave
187 286.7 57.62 45.56 clipbox
215.994094 312.288049 m
226.513406 312.288049 l
stroke
grestore
0 setlinejoin
0 setlinecap
[] 0 setdash
gsave
187 286.7 57.62 45.56 clipbox
70.476938 243.45248 m
91.515563 243.45248 l
91.515563 286.416738 l
70.476938 286.416738 l
70.476938 243.45248 l
cl
gsave
0.678 0.847 0.902 setrgbcolor
fill
grestore
stroke
grestore
gsave
187 286.7 57.62 45.56 clipbox
117.229438 231.029561 m
138.268063 231.029561 l
138.268063 280.79655 l
117.229438 280.79655 l
117.229438 231.029561 l
cl
gsave
0.678 0.847 0.902 setrgbcolor
fill
grestore
  << /PatternType 1
     /PaintType 2
     /TilingType 2
     /BBox[0 0 72 72]
     /XStep 72
     /YStep 72

     /PaintProc {
        pop
        1.000000 setlinewidth
-36 36 m
36 108 l
-24 24 m
48 96 l
-12 12 m
60 84 l
0 0 m
72 72 l
12 -12 m
84 60 l
24 -24 m
96 48 l
36 -36 m
108 36 l
        fill
        stroke
     } bind
   >>
   matrix
   0.0 345.600000 translate
   makepattern
   /H0 exch def
gsave
0.000000 0.000000 0.000000 H0 setpattern fill grestore
stroke
grestore
gsave
187 286.7 57.62 45.56 clipbox
163.981938 178.709408 m
185.020563 178.709408 l
185.020563 287.147855 l
163.981938 287.147855 l
163.981938 178.709408 l
cl
gsave
0.565 0.933 0.565 setrgbcolor
fill
grestore
stroke
grestore
gsave
187 286.7 57.62 45.56 clipbox
210.734438 131.364232 m
231.773062 131.364232 l
231.773062 277.657939 l
210.734438 277.657939 l
210.734438 131.364232 l
cl
gsave
0.565 0.933 0.565 setrgbcolor
fill
grestore
gsave
0.000000 0.000000 0.000000 H0 setpattern fill grestore
stroke
grestore
1 setlinejoin
2 setlinecap
[] 0 setdash
1.000 0.498 0.055 setrgbcolor
gsave
187 286.7 57.62 45.56 clipbox
70.476938 264.095758 m
91.515563 264.095758 l
stroke
grestore
gsave
187 286.7 57.62 45.56 clipbox
117.229438 248.097864 m
138.268063 248.097864 l
stroke
grestore
gsave
187 286.7 57.62 45.56 clipbox
163.981938 249.913035 m
185.020563 249.913035 l
stroke
grestore
gsave
187 286.7 57.62 45.56 clipbox
210.734438 232.811811 m
231.773062 232.811811 l
stroke
grestore
0.800 setlinewidth
0 setlinejoin
[] 0 setdash
0.000 setgray
gsave
57.62 45.56 m
57.62 332.28 l
stroke
grestore
gsave
244.63 45.56 m
244.63 332.28 l
stroke
grestore
gsave
57.62 45.56 m
244.63 45.56 l
stroke
grestore
gsave
57.62 332.28 m
244.63 332.28 l
stroke
grestore
gsave
260.47 45.56 m
447.48 45.56 l
447.48 332.28 l
260.47 332.28 l
cl
1.000 setgray
fill
grestore
1 setlinejoin
0 setlinecap
[] 0 setdash
gsave
/o {
gsave
newpath
translate
0.8 setlinewidth
1 setlinejoin
0 setlinecap
0 0 m
0 -3.5 l

gsave
0.000 setgray
fill
grestore
stroke
grestore
} bind def
283.846 45.56 o
grestore
/DejaVuSans findfont
10.000 scalefont
setfont
gsave
265.877500 30.966250 translate
0.000000 rotate
0.000000 0.000000 m /R glyphshow
6.948242 0.000000 m /one glyphshow
13.310547 0.000000 m /space glyphshow
16.489258 0.000000 m /H glyphshow
24.008789 0.000000 m /i glyphshow
26.787109 0.000000 m /s glyphshow
31.997070 0.000000 m /t glyphshow
grestore
gsave
/o {
gsave
newpath
translate
0.8 setlinewidth
1 setlinejoin
0 setlinecap
0 0 m
0 -3.5 l

gsave
0.000 setgray
fill
grestore
stroke
grestore
} bind def
330.599 45.56 o
grestore
gsave
312.630000 30.966250 translate
0.000000 rotate
0.000000 0.000000 m /R glyphshow
6.948242 0.000000 m /two glyphshow
13.310547 0.000000 m /space glyphshow
16.489258 0.000000 m /H glyphshow
24.008789 0.000000 m /i glyphshow
26.787109 0.000000 m /s glyphshow
31.997070 0.000000 m /t glyphshow
grestore
gsave
/o {
gsave
newpath
translate
0.8 setlinewidth
1 setlinejoin
0 setlinecap
0 0 m
0 -3.5 l

gsave
0.000 setgray
fill
grestore
stroke
grestore
} bind def
377.351 45.56 o
grestore
gsave
359.382500 30.966250 translate
0.000000 rotate
0.000000 0.000000 m /R glyphshow
6.948242 0.000000 m /one glyphshow
13.310547 0.000000 m /space glyphshow
16.489258 0.000000 m /H glyphshow
24.008789 0.000000 m /i glyphshow
26.787109 0.000000 m /s glyphshow
31.997070 0.000000 m /t glyphshow
grestore
gsave
/o {
gsave
newpath
translate
0.8 setlinewidth
1 setlinejoin
0 setlinecap
0 0 m
0 -3.5 l

gsave
0.000 setgray
fill
grestore
stroke
grestore
} bind def
424.104 45.56 o
grestore
gsave
406.135000 30.966250 translate
0.000000 rotate
0.000000 0.000000 m /R glyphshow
6.948242 0.000000 m /two glyphshow
13.310547 0.000000 m /space glyphshow
16.489258 0.000000 m /H glyphshow
24.008789 0.000000 m /i glyphshow
26.787109 0.000000 m /s glyphshow
31.997070 0.000000 m /t glyphshow
grestore
/DejaVuSans findfont
14.000 scalefont
setfont
gsave
326.678125 14.247500 translate
0.000000 rotate
0.000000 0.000000 m /R glyphshow
9.727539 0.000000 m /o glyphshow
18.292969 0.000000 m /b glyphshow
27.179688 0.000000 m /o glyphshow
35.745117 0.000000 m /t glyphshow
41.234375 0.000000 m /space glyphshow
45.684570 0.000000 m /two glyphshow
grestore
gsave
/o {
gsave
newpath
translate
0.8 setlinewidth
1 setlinejoin
0 setlinecap
0 0 m
-3.5 0 l

gsave
0.000 setgray
fill
grestore
stroke
grestore
} bind def
260.47 68.3673 o
grestore
gsave
/o {
gsave
newpath
translate
0.8 setlinewidth
1 setlinejoin
0 setlinecap
0 0 m
-3.5 0 l

gsave
0.000 setgray
fill
grestore
stroke
grestore
} bind def
260.47 104.207 o
grestore
gsave
/o {
gsave
newpath
translate
0.8 setlinewidth
1 setlinejoin
0 setlinecap
0 0 m
-3.5 0 l

gsave
0.000 setgray
fill
grestore
stroke
grestore
} bind def
260.47 140.047 o
grestore
gsave
/o {
gsave
newpath
translate
0.8 setlinewidth
1 setlinejoin
0 setlinecap
0 0 m
-3.5 0 l

gsave
0.000 setgray
fill
grestore
stroke
grestore
} bind def
260.47 175.887 o
grestore
gsave
/o {
gsave
newpath
translate
0.8 setlinewidth
1 setlinejoin
0 setlinecap
0 0 m
-3.5 0 l

gsave
0.000 setgray
fill
grestore
stroke
grestore
} bind def
260.47 211.727 o
grestore
gsave
/o {
gsave
newpath
translate
0.8 setlinewidth
1 setlinejoin
0 setlinecap
0 0 m
-3.5 0 l

gsave
0.000 setgray
fill
grestore
stroke
grestore
} bind def
260.47 247.567 o
grestore
gsave
/o {
gsave
newpath
translate
0.8 setlinewidth
1 setlinejoin
0 setlinecap
0 0 m
-3.5 0 l

gsave
0.000 setgray
fill
grestore
stroke
grestore
} bind def
260.47 283.407 o
grestore
gsave
/o {
gsave
newpath
translate
0.8 setlinewidth
1 setlinejoin
0 setlinecap
0 0 m
-3.5 0 l

gsave
0.000 setgray
fill
grestore
stroke
grestore
} bind def
260.47 319.247 o
grestore
1.000 setlinewidth
2 setlinecap
gsave
187 286.7 260.5 45.56 clipbox
283.84625 274.756238 m
283.84625 254.504047 l
stroke
grestore
gsave
187 286.7 260.5 45.56 clipbox
283.84625 308.933604 m
283.84625 319.247273 l
stroke
grestore
gsave
187 286.7 260.5 45.56 clipbox
278.586594 254.504047 m
289.105906 254.504047 l
stroke
grestore
gsave
187 286.7 260.5 45.56 clipbox
278.586594 319.247273 m
289.105906 319.247273 l
stroke
grestore
0 setlinecap
gsave
187 286.7 260.5 45.56 clipbox
/o {
gsave
newpath
translate
1.0 setlinewidth
1 setlinejoin
0 setlinecap
0 -3 m
0.795609 -3 1.55874 -2.683901 2.12132 -2.12132 c
2.683901 -1.55874 3 -0.795609 3 0 c
3 0.795609 2.683901 1.55874 2.12132 2.12132 c
1.55874 2.683901 0.795609 3 0 3 c
-0.795609 3 -1.55874 2.683901 -2.12132 2.12132 c
-2.683901 1.55874 -3 0.795609 -3 0 c
-3 -0.795609 -2.683901 -1.55874 -2.12132 -2.12132 c
-1.55874 -2.683901 -0.795609 -3 0 -3 c
cl

gsave
grestore
stroke
grestore
} bind def
283.846 212.696 o
283.846 177.025 o
283.846 215.196 o
283.846 150.32 o
283.846 169.468 o
grestore
2 setlinecap
gsave
187 286.7 260.5 45.56 clipbox
330.59875 275.361558 m
330.59875 231.337839 l
stroke
grestore
gsave
187 286.7 260.5 45.56 clipbox
330.59875 310.230921 m
330.59875 319.247273 l
stroke
grestore
gsave
187 286.7 260.5 45.56 clipbox
325.339094 231.337839 m
335.858406 231.337839 l
stroke
grestore
gsave
187 286.7 260.5 45.56 clipbox
325.339094 319.247273 m
335.858406 319.247273 l
stroke
grestore
0 setlinecap
gsave
187 286.7 260.5 45.56 clipbox
/o {
gsave
newpath
translate
1.0 setlinewidth
1 setlinejoin
0 setlinecap
0 -3 m
0.795609 -3 1.55874 -2.683901 2.12132 -2.12132 c
2.683901 -1.55874 3 -0.795609 3 0 c
3 0.795609 2.683901 1.55874 2.12132 2.12132 c
1.55874 2.683901 0.795609 3 0 3 c
-0.795609 3 -1.55874 2.683901 -2.12132 2.12132 c
-2.683901 1.55874 -3 0.795609 -3 0 c
-3 -0.795609 -2.683901 -1.55874 -2.12132 -2.12132 c
-1.55874 -2.683901 -0.795609 -3 0 -3 c
cl

gsave
grestore
stroke
grestore
} bind def
330.599 177.025 o
330.599 215.196 o
330.599 218.804 o
grestore
2 setlinecap
gsave
187 286.7 260.5 45.56 clipbox
377.35125 207.667866 m
377.35125 165.268013 l
stroke
grestore
gsave
187 286.7 260.5 45.56 clipbox
377.35125 276.936162 m
377.35125 319.247273 l
stroke
grestore
gsave
187 286.7 260.5 45.56 clipbox
372.091594 165.268013 m
382.610906 165.268013 l
stroke
grestore
gsave
187 286.7 260.5 45.56 clipbox
372.091594 319.247273 m
382.610906 319.247273 l
stroke
grestore
0 setlinecap
gsave
187 286.7 260.5 45.56 clipbox
/o {
gsave
newpath
translate
1.0 setlinewidth
1 setlinejoin
0 setlinecap
0 -3 m
0.795609 -3 1.55874 -2.683901 2.12132 -2.12132 c
2.683901 -1.55874 3 -0.795609 3 0 c
3 0.795609 2.683901 1.55874 2.12132 2.12132 c
1.55874 2.683901 0.795609 3 0 3 c
-0.795609 3 -1.55874 2.683901 -2.12132 2.12132 c
-2.683901 1.55874 -3 0.795609 -3 0 c
-3 -0.795609 -2.683901 -1.55874 -2.12132 -2.12132 c
-1.55874 -2.683901 -0.795609 -3 0 -3 c
cl

gsave
grestore
stroke
grestore
} bind def
377.351 100.847 o
grestore
2 setlinecap
gsave
187 286.7 260.5 45.56 clipbox
424.10375 273.881319 m
424.10375 215.862657 l
stroke
grestore
gsave
187 286.7 260.5 45.56 clipbox
424.10375 312.605111 m
424.10375 319.247273 l
stroke
grestore
gsave
187 286.7 260.5 45.56 clipbox
418.844094 215.862657 m
429.363406 215.862657 l
stroke
grestore
gsave
187 286.7 260.5 45.56 clipbox
418.844094 319.247273 m
429.363406 319.247273 l
stroke
grestore
0 setlinecap
gsave
187 286.7 260.5 45.56 clipbox
/o {
gsave
newpath
translate
1.0 setlinewidth
1 setlinejoin
0 setlinecap
0 -3 m
0.795609 -3 1.55874 -2.683901 2.12132 -2.12132 c
2.683901 -1.55874 3 -0.795609 3 0 c
3 0.795609 2.683901 1.55874 2.12132 2.12132 c
1.55874 2.683901 0.795609 3 0 3 c
-0.795609 3 -1.55874 2.683901 -2.12132 2.12132 c
-2.683901 1.55874 -3 0.795609 -3 0 c
-3 -0.795609 -2.683901 -1.55874 -2.12132 -2.12132 c
-1.55874 -2.683901 -0.795609 -3 0 -3 c
cl

gsave
grestore
stroke
grestore
} bind def
424.104 196.047 o
424.104 170.578 o
grestore
0 setlinejoin
[] 0 setdash
gsave
187 286.7 260.5 45.56 clipbox
273.326937 274.756238 m
294.365563 274.756238 l
294.365563 308.933604 l
273.326937 308.933604 l
273.326937 274.756238 l
cl
gsave
0.678 0.847 0.902 setrgbcolor
fill
grestore
stroke
grestore
gsave
187 286.7 260.5 45.56 clipbox
320.079437 275.361558 m
341.118063 275.361558 l
341.118063 310.230921 l
320.079437 310.230921 l
320.079437 275.361558 l
cl
gsave
0.678 0.847 0.902 setrgbcolor
fill
grestore
gsave
0.000000 0.000000 0.000000 H0 setpattern fill grestore
stroke
grestore
gsave
187 286.7 260.5 45.56 clipbox
366.831937 207.667866 m
387.870563 207.667866 l
387.870563 276.936162 l
366.831937 276.936162 l
366.831937 207.667866 l
cl
gsave
0.565 0.933 0.565 setrgbcolor
fill
grestore
stroke
grestore
gsave
187 286.7 260.5 45.56 clipbox
413.584438 273.881319 m
434.623063 273.881319 l
434.623063 312.605111 l
413.584438 312.605111 l
413.584438 273.881319 l
cl
gsave
0.565 0.933 0.565 setrgbcolor
fill
grestore
gsave
0.000000 0.000000 0.000000 H0 setpattern fill grestore
stroke
grestore
1 setlinejoin
2 setlinecap
[] 0 setdash
1.000 0.498 0.055 setrgbcolor
gsave
187 286.7 260.5 45.56 clipbox
273.326937 285.647273 m
294.365563 285.647273 l
stroke
grestore
gsave
187 286.7 260.5 45.56 clipbox
320.079437 295.974545 m
341.118063 295.974545 l
stroke
grestore
gsave
187 286.7 260.5 45.56 clipbox
366.831937 243.794641 m
387.870563 243.794641 l
stroke
grestore
gsave
187 286.7 260.5 45.56 clipbox
413.584438 284.451156 m
434.623063 284.451156 l
stroke
grestore
0.800 setlinewidth
0 setlinejoin
[] 0 setdash
0.000 setgray
gsave
260.47 45.56 m
260.47 332.28 l
stroke
grestore
gsave
447.48 45.56 m
447.48 332.28 l
stroke
grestore
gsave
260.47 45.56 m
447.48 45.56 l
stroke
grestore
gsave
260.47 332.28 m
447.48 332.28 l
stroke
grestore
1.000 setlinewidth
0 setlinecap
0.800 setgray
gsave
273.933125 50.56 m
440.48 50.56 l
441.813333 50.56 442.48 51.226667 442.48 52.56 c
442.48 110.2475 l
442.48 111.580833 441.813333 112.2475 440.48 112.2475 c
273.933125 112.2475 l
272.599792 112.2475 271.933125 111.580833 271.933125 110.2475 c
271.933125 52.56 l
271.933125 51.226667 272.599792 50.56 273.933125 50.56 c
cl
gsave
1.000 setgray
fill
grestore
stroke
grestore
0.000 setgray
gsave
275.933125 100.65375 m
295.933125 100.65375 l
295.933125 107.65375 l
275.933125 107.65375 l
cl
gsave
0.678 0.847 0.902 setrgbcolor
fill
grestore
stroke
grestore
/DejaVuSans findfont
10.000 scalefont
setfont
gsave
303.933125 100.653750 translate
0.000000 rotate
0.000000 0.000000 m /A glyphshow
6.840820 0.000000 m /l glyphshow
9.619141 0.000000 m /p glyphshow
15.966797 0.000000 m /h glyphshow
22.304688 0.000000 m /a glyphshow
28.432617 0.000000 m /space glyphshow
31.611328 0.000000 m /C glyphshow
38.593750 0.000000 m /o glyphshow
44.711914 0.000000 m /u glyphshow
51.049805 0.000000 m /r glyphshow
55.161133 0.000000 m /s glyphshow
60.371094 0.000000 m /e glyphshow
66.523438 0.000000 m /space glyphshow
69.702148 0.000000 m /w glyphshow
77.880859 0.000000 m /i glyphshow
80.659180 0.000000 m /t glyphshow
84.580078 0.000000 m /h glyphshow
90.917969 0.000000 m /space glyphshow
94.096680 0.000000 m /R glyphshow
101.044922 0.000000 m /one glyphshow
107.407227 0.000000 m /space glyphshow
110.585938 0.000000 m /D glyphshow
118.286133 0.000000 m /a glyphshow
124.414062 0.000000 m /t glyphshow
128.334961 0.000000 m /a glyphshow
grestore
gsave
275.933125 85.981875 m
295.933125 85.981875 l
295.933125 92.981875 l
275.933125 92.981875 l
cl
gsave
0.678 0.847 0.902 setrgbcolor
fill
grestore
gsave
0.000000 0.000000 0.000000 H0 setpattern fill grestore
stroke
grestore
gsave
303.933125 85.981875 translate
0.000000 rotate
0.000000 0.000000 m /A glyphshow
6.840820 0.000000 m /l glyphshow
9.619141 0.000000 m /p glyphshow
15.966797 0.000000 m /h glyphshow
22.304688 0.000000 m /a glyphshow
28.432617 0.000000 m /space glyphshow
31.611328 0.000000 m /C glyphshow
38.593750 0.000000 m /o glyphshow
44.711914 0.000000 m /u glyphshow
51.049805 0.000000 m /r glyphshow
55.161133 0.000000 m /s glyphshow
60.371094 0.000000 m /e glyphshow
66.523438 0.000000 m /space glyphshow
69.702148 0.000000 m /w glyphshow
77.880859 0.000000 m /i glyphshow
80.659180 0.000000 m /t glyphshow
84.580078 0.000000 m /h glyphshow
90.917969 0.000000 m /space glyphshow
94.096680 0.000000 m /R glyphshow
101.044922 0.000000 m /two glyphshow
107.407227 0.000000 m /space glyphshow
110.585938 0.000000 m /D glyphshow
118.286133 0.000000 m /a glyphshow
124.414062 0.000000 m /t glyphshow
128.334961 0.000000 m /a glyphshow
grestore
gsave
275.933125 71.31 m
295.933125 71.31 l
295.933125 78.31 l
275.933125 78.31 l
cl
gsave
0.565 0.933 0.565 setrgbcolor
fill
grestore
stroke
grestore
gsave
303.933125 71.310000 translate
0.000000 rotate
0.000000 0.000000 m /B glyphshow
6.860352 0.000000 m /e glyphshow
13.012695 0.000000 m /t glyphshow
16.933594 0.000000 m /a glyphshow
23.061523 0.000000 m /space glyphshow
26.240234 0.000000 m /C glyphshow
33.222656 0.000000 m /o glyphshow
39.340820 0.000000 m /u glyphshow
45.678711 0.000000 m /r glyphshow
49.790039 0.000000 m /s glyphshow
55.000000 0.000000 m /e glyphshow
61.152344 0.000000 m /space glyphshow
64.331055 0.000000 m /w glyphshow
72.509766 0.000000 m /i glyphshow
75.288086 0.000000 m /t glyphshow
79.208984 0.000000 m /h glyphshow
85.546875 0.000000 m /space glyphshow
88.725586 0.000000 m /R glyphshow
95.673828 0.000000 m /one glyphshow
102.036133 0.000000 m /space glyphshow
105.214844 0.000000 m /D glyphshow
112.915039 0.000000 m /a glyphshow
119.042969 0.000000 m /t glyphshow
122.963867 0.000000 m /a glyphshow
grestore
gsave
275.933125 56.638125 m
295.933125 56.638125 l
295.933125 63.638125 l
275.933125 63.638125 l
cl
gsave
0.565 0.933 0.565 setrgbcolor
fill
grestore
gsave
0.000000 0.000000 0.000000 H0 setpattern fill grestore
stroke
grestore
gsave
303.933125 56.638125 translate
0.000000 rotate
0.000000 0.000000 m /B glyphshow
6.860352 0.000000 m /e glyphshow
13.012695 0.000000 m /t glyphshow
16.933594 0.000000 m /a glyphshow
23.061523 0.000000 m /space glyphshow
26.240234 0.000000 m /C glyphshow
33.222656 0.000000 m /o glyphshow
39.340820 0.000000 m /u glyphshow
45.678711 0.000000 m /r glyphshow
49.790039 0.000000 m /s glyphshow
55.000000 0.000000 m /e glyphshow
61.152344 0.000000 m /space glyphshow
64.331055 0.000000 m /w glyphshow
72.509766 0.000000 m /i glyphshow
75.288086 0.000000 m /t glyphshow
79.208984 0.000000 m /h glyphshow
85.546875 0.000000 m /space glyphshow
88.725586 0.000000 m /R glyphshow
95.673828 0.000000 m /two glyphshow
102.036133 0.000000 m /space glyphshow
105.214844 0.000000 m /D glyphshow
112.915039 0.000000 m /a glyphshow
119.042969 0.000000 m /t glyphshow
122.963867 0.000000 m /a glyphshow
grestore

end
showpage
