0:1059
1:1087
2:1179
3:1221
4:1785
5:1650
6:2362
7:3007
8:5508
9:5040
10:5167
11:6326
12:7490
13:8388
14:6256
15:10497
16:8843
17:7254
18:6907
19:7249
20:6735
21:8274
22:7400
23:10054
24:7900
25:7081
26:6245
27:6302
28:7553
29:6672
30:9483
31:11441
32:8166
33:8079
34:4942
35:9357
36:10636
37:9322
38:6115
39:8156
40:9120
41:13627
