0:777
1:1007
2:1162
3:1259
4:1279
5:1260
6:1311
7:3707
8:6032
9:5131
10:6883
11:7913
12:8985
13:7982
14:4918
15:7138
16:7439
17:5965
18:5974
19:4463
20:7531
21:9496
22:9386
23:9809
24:8006
25:6912
26:5633
27:4244
28:5195
29:8061
30:9380
31:8501
32:7473
33:7076
34:5120
35:7897
36:6247
37:8454
38:6949
39:5360
40:4475
41:18768
42:13966
