%!PS-Adobe-3.0 EPSF-3.0
%%Title: figures/algorithm_example.eps
%%Creator: matplotlib version 2.2.5, http://matplotlib.org/
%%CreationDate: Tue May 19 21:11:18 2020
%%Orientation: portrait
%%BoundingBox: 75 223 536 568
%%EndComments
%%BeginProlog
/mpldict 8 dict def
mpldict begin
/m { moveto } bind def
/l { lineto } bind def
/r { rlineto } bind def
/c { curveto } bind def
/cl { closepath } bind def
/box {
m
1 index 0 r
0 exch r
neg 0 r
cl
} bind def
/clipbox {
box
clip
newpath
} bind def
%!PS-Adobe-3.0 Resource-Font
%%Title: DejaVu Sans
%%Copyright: Copyright (c) 2003 by Bitstream, Inc. All Rights Reserved. Copyright (c) 2006 by Tavmjong Bah. All Rights Reserved. DejaVu changes are in public domain 
%%Creator: Converted from TrueType to type 3 by PPR
25 dict begin
/_d{bind def}bind def
/_m{moveto}_d
/_l{lineto}_d
/_cl{closepath eofill}_d
/_c{curveto}_d
/_sc{7 -1 roll{setcachedevice}{pop pop pop pop pop pop}ifelse}_d
/_e{exec}_d
/FontName /DejaVuSans def
/PaintType 0 def
/FontMatrix[.001 0 0 .001 0 0]def
/FontBBox[-1021 -463 1793 1232]def
/FontType 3 def
/Encoding [ /space /zero /one /two /three /four /five /six /C /D /O /P /R /S /a /b /c /d /e /i /l /n /o /r /s /t /u /v /w ] def
/FontInfo 10 dict dup begin
/FamilyName (DejaVu Sans) def
/FullName (DejaVu Sans) def
/Notice (Copyright (c) 2003 by Bitstream, Inc. All Rights Reserved. Copyright (c) 2006 by Tavmjong Bah. All Rights Reserved. DejaVu changes are in public domain ) def
/Weight (Book) def
/Version (Version 2.35) def
/ItalicAngle 0.0 def
/isFixedPitch false def
/UnderlinePosition -130 def
/UnderlineThickness 90 def
end readonly def
/CharStrings 30 dict dup begin
/.notdef 0 def
/space{318 0 0 0 0 0 _sc
}_d
/zero{636 0 66 -13 570 742 _sc
318 664 _m
267 664 229 639 203 589 _c
177 539 165 464 165 364 _c
165 264 177 189 203 139 _c
229 89 267 64 318 64 _c
369 64 407 89 433 139 _c
458 189 471 264 471 364 _c
471 464 458 539 433 589 _c
407 639 369 664 318 664 _c
318 742 _m
399 742 461 709 505 645 _c
548 580 570 486 570 364 _c
570 241 548 147 505 83 _c
461 19 399 -13 318 -13 _c
236 -13 173 19 130 83 _c
87 147 66 241 66 364 _c
66 486 87 580 130 645 _c
173 709 236 742 318 742 _c
_cl}_d
/one{636 0 110 0 544 729 _sc
124 83 _m
285 83 _l
285 639 _l
110 604 _l
110 694 _l
284 729 _l
383 729 _l
383 83 _l
544 83 _l
544 0 _l
124 0 _l
124 83 _l
_cl}_d
/two{{636 0 73 0 536 742 _sc
192 83 _m
536 83 _l
536 0 _l
73 0 _l
73 83 _l
110 121 161 173 226 239 _c
290 304 331 346 348 365 _c
380 400 402 430 414 455 _c
426 479 433 504 433 528 _c
433 566 419 598 392 622 _c
365 646 330 659 286 659 _c
255 659 222 653 188 643 _c
154 632 117 616 78 594 _c
78 694 _l
118 710 155 722 189 730 _c
223 738 255 742 284 742 _c
}_e{359 742 419 723 464 685 _c
509 647 532 597 532 534 _c
532 504 526 475 515 449 _c
504 422 484 390 454 354 _c
446 344 420 317 376 272 _c
332 227 271 164 192 83 _c
_cl}_e}_d
/three{{636 0 76 -13 556 742 _sc
406 393 _m
453 383 490 362 516 330 _c
542 298 556 258 556 212 _c
556 140 531 84 482 45 _c
432 6 362 -13 271 -13 _c
240 -13 208 -10 176 -4 _c
144 1 110 10 76 22 _c
76 117 _l
103 101 133 89 166 81 _c
198 73 232 69 268 69 _c
330 69 377 81 409 105 _c
441 129 458 165 458 212 _c
458 254 443 288 413 312 _c
383 336 341 349 287 349 _c
}_e{202 349 _l
202 430 _l
291 430 _l
339 430 376 439 402 459 _c
428 478 441 506 441 543 _c
441 580 427 609 401 629 _c
374 649 336 659 287 659 _c
260 659 231 656 200 650 _c
169 644 135 635 98 623 _c
98 711 _l
135 721 170 729 203 734 _c
235 739 266 742 296 742 _c
370 742 429 725 473 691 _c
517 657 539 611 539 553 _c
539 513 527 479 504 451 _c
481 423 448 403 406 393 _c
_cl}_e}_d
/four{636 0 49 0 580 729 _sc
378 643 _m
129 254 _l
378 254 _l
378 643 _l
352 729 _m
476 729 _l
476 254 _l
580 254 _l
580 172 _l
476 172 _l
476 0 _l
378 0 _l
378 172 _l
49 172 _l
49 267 _l
352 729 _l
_cl}_d
/five{{636 0 77 -13 549 729 _sc
108 729 _m
495 729 _l
495 646 _l
198 646 _l
198 467 _l
212 472 227 476 241 478 _c
255 480 270 482 284 482 _c
365 482 429 459 477 415 _c
525 370 549 310 549 234 _c
549 155 524 94 475 51 _c
426 8 357 -13 269 -13 _c
238 -13 207 -10 175 -6 _c
143 -1 111 6 77 17 _c
77 116 _l
106 100 136 88 168 80 _c
199 72 232 69 267 69 _c
}_e{323 69 368 83 401 113 _c
433 143 450 183 450 234 _c
450 284 433 324 401 354 _c
368 384 323 399 267 399 _c
241 399 214 396 188 390 _c
162 384 135 375 108 363 _c
108 729 _l
_cl}_e}_d
/six{{636 0 70 -13 573 742 _sc
330 404 _m
286 404 251 388 225 358 _c
199 328 186 286 186 234 _c
186 181 199 139 225 109 _c
251 79 286 64 330 64 _c
374 64 409 79 435 109 _c
461 139 474 181 474 234 _c
474 286 461 328 435 358 _c
409 388 374 404 330 404 _c
526 713 _m
526 623 _l
501 635 476 644 451 650 _c
425 656 400 659 376 659 _c
310 659 260 637 226 593 _c
}_e{192 549 172 482 168 394 _c
187 422 211 444 240 459 _c
269 474 301 482 336 482 _c
409 482 467 459 509 415 _c
551 371 573 310 573 234 _c
573 159 550 99 506 54 _c
462 9 403 -13 330 -13 _c
246 -13 181 19 137 83 _c
92 147 70 241 70 364 _c
70 479 97 571 152 639 _c
206 707 280 742 372 742 _c
396 742 421 739 447 735 _c
472 730 498 723 526 713 _c
_cl}_e}_d
/C{{698 0 56 -13 644 742 _sc
644 673 _m
644 569 _l
610 599 575 622 537 638 _c
499 653 460 661 418 661 _c
334 661 270 635 226 584 _c
182 533 160 460 160 364 _c
160 268 182 194 226 143 _c
270 92 334 67 418 67 _c
460 67 499 74 537 90 _c
575 105 610 128 644 159 _c
644 56 _l
609 32 572 15 534 4 _c
496 -7 455 -13 412 -13 _c
302 -13 215 20 151 87 _c
}_e{87 154 56 246 56 364 _c
56 481 87 573 151 641 _c
215 708 302 742 412 742 _c
456 742 497 736 535 725 _c
573 713 610 696 644 673 _c
_cl}_e}_d
/D{770 0 98 0 711 729 _sc
197 648 _m
197 81 _l
316 81 _l
416 81 490 103 537 149 _c
583 195 607 267 607 365 _c
607 463 583 534 537 580 _c
490 625 416 648 316 648 _c
197 648 _l
98 729 _m
301 729 _l
442 729 546 699 612 641 _c
678 582 711 490 711 365 _c
711 239 677 147 611 88 _c
545 29 441 0 301 0 _c
98 0 _l
98 729 _l
_cl}_d
/O{787 0 56 -13 731 742 _sc
394 662 _m
322 662 265 635 223 582 _c
181 528 160 456 160 364 _c
160 272 181 199 223 146 _c
265 92 322 66 394 66 _c
465 66 522 92 564 146 _c
606 199 627 272 627 364 _c
627 456 606 528 564 582 _c
522 635 465 662 394 662 _c
394 742 _m
496 742 577 707 639 639 _c
700 571 731 479 731 364 _c
731 248 700 157 639 89 _c
577 21 496 -13 394 -13 _c
291 -13 209 21 148 89 _c
86 157 56 248 56 364 _c
56 479 86 571 148 639 _c
209 707 291 742 394 742 _c
_cl}_d
/P{603 0 98 0 569 729 _sc
197 648 _m
197 374 _l
321 374 _l
367 374 402 385 427 409 _c
452 433 465 467 465 511 _c
465 555 452 588 427 612 _c
402 636 367 648 321 648 _c
197 648 _l
98 729 _m
321 729 _l
402 729 464 710 506 673 _c
548 636 569 582 569 511 _c
569 439 548 384 506 348 _c
464 311 402 293 321 293 _c
197 293 _l
197 0 _l
98 0 _l
98 729 _l
_cl}_d
/R{{695 0 98 0 666 729 _sc
444 342 _m
465 334 486 319 506 296 _c
526 272 546 240 566 199 _c
666 0 _l
560 0 _l
467 187 _l
443 235 419 268 397 284 _c
374 300 343 308 304 308 _c
197 308 _l
197 0 _l
98 0 _l
98 729 _l
321 729 _l
404 729 466 711 507 677 _c
548 642 569 589 569 519 _c
569 473 558 434 537 404 _c
515 374 484 353 444 342 _c
197 648 _m
197 389 _l
321 389 _l
}_e{368 389 404 400 428 422 _c
452 444 465 476 465 519 _c
465 561 452 593 428 615 _c
404 637 368 648 321 648 _c
197 648 _l
_cl}_e}_d
/S{{635 0 66 -13 579 742 _sc
535 705 _m
535 609 _l
497 627 462 640 429 649 _c
395 657 363 662 333 662 _c
279 662 237 651 208 631 _c
179 610 165 580 165 542 _c
165 510 174 485 194 469 _c
213 452 250 439 304 429 _c
364 417 _l
437 403 491 378 526 343 _c
561 307 579 260 579 201 _c
579 130 555 77 508 41 _c
460 5 391 -13 300 -13 _c
265 -13 228 -9 189 -2 _c
}_e{150 5 110 16 69 32 _c
69 134 _l
109 111 148 94 186 83 _c
224 71 262 66 300 66 _c
356 66 399 77 430 99 _c
460 121 476 152 476 194 _c
476 230 465 258 443 278 _c
421 298 385 313 335 323 _c
275 335 _l
201 349 148 372 115 404 _c
82 435 66 478 66 534 _c
66 598 88 649 134 686 _c
179 723 242 742 322 742 _c
356 742 390 739 426 733 _c
461 727 497 717 535 705 _c
}_e{_cl}_e}_d
/a{{613 0 60 -13 522 560 _sc
343 275 _m
270 275 220 266 192 250 _c
164 233 150 205 150 165 _c
150 133 160 107 181 89 _c
202 70 231 61 267 61 _c
317 61 357 78 387 114 _c
417 149 432 196 432 255 _c
432 275 _l
343 275 _l
522 312 _m
522 0 _l
432 0 _l
432 83 _l
411 49 385 25 355 10 _c
325 -5 287 -13 243 -13 _c
187 -13 142 2 109 33 _c
76 64 60 106 60 159 _c
}_e{60 220 80 266 122 298 _c
163 329 224 345 306 345 _c
432 345 _l
432 354 _l
432 395 418 427 391 450 _c
364 472 326 484 277 484 _c
245 484 215 480 185 472 _c
155 464 127 453 100 439 _c
100 522 _l
132 534 164 544 195 550 _c
226 556 256 560 286 560 _c
365 560 424 539 463 498 _c
502 457 522 395 522 312 _c
_cl}_e}_d
/b{{635 0 91 -13 580 760 _sc
487 273 _m
487 339 473 390 446 428 _c
418 466 381 485 334 485 _c
286 485 249 466 222 428 _c
194 390 181 339 181 273 _c
181 207 194 155 222 117 _c
249 79 286 61 334 61 _c
381 61 418 79 446 117 _c
473 155 487 207 487 273 _c
181 464 _m
199 496 223 520 252 536 _c
281 552 316 560 356 560 _c
422 560 476 533 518 481 _c
559 428 580 359 580 273 _c
}_e{580 187 559 117 518 65 _c
476 13 422 -13 356 -13 _c
316 -13 281 -5 252 10 _c
223 25 199 49 181 82 _c
181 0 _l
91 0 _l
91 760 _l
181 760 _l
181 464 _l
_cl}_e}_d
/c{{550 0 55 -13 488 560 _sc
488 526 _m
488 442 _l
462 456 437 466 411 473 _c
385 480 360 484 334 484 _c
276 484 230 465 198 428 _c
166 391 150 339 150 273 _c
150 206 166 154 198 117 _c
230 80 276 62 334 62 _c
360 62 385 65 411 72 _c
437 79 462 90 488 104 _c
488 21 _l
462 9 436 0 410 -5 _c
383 -10 354 -13 324 -13 _c
242 -13 176 12 128 64 _c
}_e{79 115 55 185 55 273 _c
55 362 79 432 128 483 _c
177 534 244 560 330 560 _c
358 560 385 557 411 551 _c
437 545 463 537 488 526 _c
_cl}_e}_d
/d{{635 0 55 -13 544 760 _sc
454 464 _m
454 760 _l
544 760 _l
544 0 _l
454 0 _l
454 82 _l
435 49 411 25 382 10 _c
353 -5 319 -13 279 -13 _c
213 -13 159 13 117 65 _c
75 117 55 187 55 273 _c
55 359 75 428 117 481 _c
159 533 213 560 279 560 _c
319 560 353 552 382 536 _c
411 520 435 496 454 464 _c
148 273 _m
148 207 161 155 188 117 _c
215 79 253 61 301 61 _c
}_e{348 61 385 79 413 117 _c
440 155 454 207 454 273 _c
454 339 440 390 413 428 _c
385 466 348 485 301 485 _c
253 485 215 466 188 428 _c
161 390 148 339 148 273 _c
_cl}_e}_d
/e{{615 0 55 -13 562 560 _sc
562 296 _m
562 252 _l
149 252 _l
153 190 171 142 205 110 _c
238 78 284 62 344 62 _c
378 62 412 66 444 74 _c
476 82 509 95 541 113 _c
541 28 _l
509 14 476 3 442 -3 _c
408 -9 373 -13 339 -13 _c
251 -13 182 12 131 62 _c
80 112 55 181 55 268 _c
55 357 79 428 127 481 _c
175 533 241 560 323 560 _c
397 560 455 536 498 489 _c
}_e{540 441 562 377 562 296 _c
472 322 _m
471 371 457 410 431 440 _c
404 469 368 484 324 484 _c
274 484 234 469 204 441 _c
174 413 156 373 152 322 _c
472 322 _l
_cl}_e}_d
/i{278 0 94 0 184 760 _sc
94 547 _m
184 547 _l
184 0 _l
94 0 _l
94 547 _l
94 760 _m
184 760 _l
184 646 _l
94 646 _l
94 760 _l
_cl}_d
/l{278 0 94 0 184 760 _sc
94 760 _m
184 760 _l
184 0 _l
94 0 _l
94 760 _l
_cl}_d
/n{634 0 91 0 549 560 _sc
549 330 _m
549 0 _l
459 0 _l
459 327 _l
459 379 448 417 428 443 _c
408 469 378 482 338 482 _c
289 482 251 466 223 435 _c
195 404 181 362 181 309 _c
181 0 _l
91 0 _l
91 547 _l
181 547 _l
181 462 _l
202 494 227 519 257 535 _c
286 551 320 560 358 560 _c
420 560 468 540 500 501 _c
532 462 549 405 549 330 _c
_cl}_d
/o{612 0 55 -13 557 560 _sc
306 484 _m
258 484 220 465 192 427 _c
164 389 150 338 150 273 _c
150 207 163 156 191 118 _c
219 80 257 62 306 62 _c
354 62 392 80 420 118 _c
448 156 462 207 462 273 _c
462 337 448 389 420 427 _c
392 465 354 484 306 484 _c
306 560 _m
384 560 445 534 490 484 _c
534 433 557 363 557 273 _c
557 183 534 113 490 63 _c
445 12 384 -13 306 -13 _c
227 -13 165 12 121 63 _c
77 113 55 183 55 273 _c
55 363 77 433 121 484 _c
165 534 227 560 306 560 _c
_cl}_d
/r{411 0 91 0 411 560 _sc
411 463 _m
401 469 390 473 378 476 _c
366 478 353 480 339 480 _c
288 480 249 463 222 430 _c
194 397 181 350 181 288 _c
181 0 _l
91 0 _l
91 547 _l
181 547 _l
181 462 _l
199 495 224 520 254 536 _c
284 552 321 560 365 560 _c
371 560 378 559 386 559 _c
393 558 401 557 411 555 _c
411 463 _l
_cl}_d
/s{{521 0 54 -13 472 560 _sc
443 531 _m
443 446 _l
417 458 391 468 364 475 _c
336 481 308 485 279 485 _c
234 485 200 478 178 464 _c
156 450 145 430 145 403 _c
145 382 153 366 169 354 _c
185 342 217 330 265 320 _c
296 313 _l
360 299 405 279 432 255 _c
458 230 472 195 472 151 _c
472 100 452 60 412 31 _c
372 1 316 -13 246 -13 _c
216 -13 186 -10 154 -5 _c
}_e{122 0 89 8 54 20 _c
54 113 _l
87 95 120 82 152 74 _c
184 65 216 61 248 61 _c
290 61 323 68 346 82 _c
368 96 380 117 380 144 _c
380 168 371 187 355 200 _c
339 213 303 226 247 238 _c
216 245 _l
160 257 119 275 95 299 _c
70 323 58 356 58 399 _c
58 450 76 490 112 518 _c
148 546 200 560 268 560 _c
301 560 332 557 362 552 _c
391 547 418 540 443 531 _c
}_e{_cl}_e}_d
/t{392 0 27 0 368 702 _sc
183 702 _m
183 547 _l
368 547 _l
368 477 _l
183 477 _l
183 180 _l
183 135 189 106 201 94 _c
213 81 238 75 276 75 _c
368 75 _l
368 0 _l
276 0 _l
206 0 158 13 132 39 _c
106 65 93 112 93 180 _c
93 477 _l
27 477 _l
27 547 _l
93 547 _l
93 702 _l
183 702 _l
_cl}_d
/u{634 0 85 -13 543 560 _sc
85 216 _m
85 547 _l
175 547 _l
175 219 _l
175 167 185 129 205 103 _c
225 77 255 64 296 64 _c
344 64 383 79 411 110 _c
439 141 453 183 453 237 _c
453 547 _l
543 547 _l
543 0 _l
453 0 _l
453 84 _l
431 50 405 26 377 10 _c
348 -5 315 -13 277 -13 _c
214 -13 166 6 134 45 _c
101 83 85 140 85 216 _c
311 560 _m
311 560 _l
_cl}_d
/v{592 0 30 0 562 547 _sc
30 547 _m
125 547 _l
296 88 _l
467 547 _l
562 547 _l
357 0 _l
235 0 _l
30 547 _l
_cl}_d
/w{818 0 42 0 776 547 _sc
42 547 _m
132 547 _l
244 120 _l
356 547 _l
462 547 _l
574 120 _l
686 547 _l
776 547 _l
633 0 _l
527 0 _l
409 448 _l
291 0 _l
185 0 _l
42 547 _l
_cl}_d
end readonly def

/BuildGlyph
 {exch begin
 CharStrings exch
 2 copy known not{pop /.notdef}if
 true 3 1 roll get exec
 end}_d

/BuildChar {
 1 index /Encoding get exch get
 1 index /BuildGlyph get exec
}_d

FontName currentdict end definefont pop
end
%%EndProlog
mpldict begin
75.6 223.2 translate
460.8 345.6 0 0 clipbox
gsave
0 0 m
460.8 0 l
460.8 345.6 l
0 345.6 l
cl
1.000 setgray
fill
grestore
gsave
57.6 133.005152 m
414.72 133.005152 l
414.72 209.138848 l
57.6 209.138848 l
cl
1.000 setgray
fill
grestore
0.500 setlinewidth
1 setlinejoin
0 setlinecap
[] 0 setdash
0.122 0.467 0.706 setrgbcolor
gsave
357.1 76.13 57.6 133 clipbox
78.832836 133.005152 m
78.832836 133.005152 l
stroke
grestore
gsave
357.1 76.13 57.6 133 clipbox
84.175551 133.005152 m
84.175551 133.005152 l
stroke
grestore
gsave
357.1 76.13 57.6 133 clipbox
89.518267 133.005152 m
89.518267 133.005152 l
stroke
grestore
gsave
357.1 76.13 57.6 133 clipbox
94.860982 133.005152 m
94.860982 133.005152 l
stroke
grestore
gsave
357.1 76.13 57.6 133 clipbox
100.203697 133.005152 m
100.203697 133.005152 l
stroke
grestore
gsave
357.1 76.13 57.6 133 clipbox
105.546413 133.005152 m
105.546413 133.005152 l
stroke
grestore
gsave
357.1 76.13 57.6 133 clipbox
110.889128 133.005152 m
110.889128 133.005152 l
stroke
grestore
gsave
357.1 76.13 57.6 133 clipbox
116.231844 133.005152 m
116.231844 133.005152 l
stroke
grestore
gsave
357.1 76.13 57.6 133 clipbox
121.574559 133.005152 m
121.574559 133.005152 l
stroke
grestore
gsave
357.1 76.13 57.6 133 clipbox
126.917275 133.005152 m
126.917275 133.005152 l
stroke
grestore
gsave
357.1 76.13 57.6 133 clipbox
132.25999 133.005152 m
132.25999 133.005152 l
stroke
grestore
gsave
357.1 76.13 57.6 133 clipbox
137.602706 133.005152 m
137.602706 133.005152 l
stroke
grestore
gsave
357.1 76.13 57.6 133 clipbox
142.945421 133.005152 m
142.945421 133.005152 l
stroke
grestore
gsave
357.1 76.13 57.6 133 clipbox
148.288137 133.005152 m
148.288137 133.005152 l
stroke
grestore
gsave
357.1 76.13 57.6 133 clipbox
153.630852 133.005152 m
153.630852 133.005152 l
stroke
grestore
gsave
357.1 76.13 57.6 133 clipbox
158.973568 133.005152 m
158.973568 133.005152 l
stroke
grestore
gsave
357.1 76.13 57.6 133 clipbox
164.316283 133.005152 m
164.316283 133.005152 l
stroke
grestore
gsave
357.1 76.13 57.6 133 clipbox
169.658998 133.005152 m
169.658998 133.005152 l
stroke
grestore
gsave
357.1 76.13 57.6 133 clipbox
175.001714 133.005152 m
175.001714 133.005152 l
stroke
grestore
gsave
357.1 76.13 57.6 133 clipbox
180.344429 133.005152 m
180.344429 133.005152 l
stroke
grestore
gsave
357.1 76.13 57.6 133 clipbox
185.687145 133.005152 m
185.687145 133.005152 l
stroke
grestore
gsave
357.1 76.13 57.6 133 clipbox
191.02986 133.005152 m
191.02986 133.005152 l
stroke
grestore
gsave
357.1 76.13 57.6 133 clipbox
196.372576 133.005152 m
196.372576 133.005152 l
stroke
grestore
gsave
357.1 76.13 57.6 133 clipbox
201.715291 133.005152 m
201.715291 133.005152 l
stroke
grestore
gsave
357.1 76.13 57.6 133 clipbox
207.058007 133.005152 m
207.058007 133.005152 l
stroke
grestore
gsave
357.1 76.13 57.6 133 clipbox
212.400722 133.005152 m
212.400722 133.005152 l
stroke
grestore
gsave
357.1 76.13 57.6 133 clipbox
217.743438 133.005152 m
217.743438 133.005152 l
stroke
grestore
gsave
357.1 76.13 57.6 133 clipbox
223.086153 133.005152 m
223.086153 133.005152 l
stroke
grestore
gsave
357.1 76.13 57.6 133 clipbox
228.428868 133.005152 m
228.428868 133.005152 l
stroke
grestore
gsave
357.1 76.13 57.6 133 clipbox
233.771584 133.005152 m
233.771584 133.005152 l
stroke
grestore
gsave
357.1 76.13 57.6 133 clipbox
239.114299 133.005152 m
239.114299 133.005152 l
stroke
grestore
gsave
357.1 76.13 57.6 133 clipbox
244.457015 133.005152 m
244.457015 133.005152 l
stroke
grestore
gsave
357.1 76.13 57.6 133 clipbox
249.79973 133.005152 m
249.79973 133.005152 l
stroke
grestore
gsave
357.1 76.13 57.6 133 clipbox
255.142446 133.005152 m
255.142446 133.005152 l
stroke
grestore
gsave
357.1 76.13 57.6 133 clipbox
260.485161 133.005152 m
260.485161 133.005152 l
stroke
grestore
gsave
357.1 76.13 57.6 133 clipbox
265.827877 133.005152 m
265.827877 133.005152 l
stroke
grestore
gsave
357.1 76.13 57.6 133 clipbox
271.170592 133.005152 m
271.170592 133.005152 l
stroke
grestore
gsave
357.1 76.13 57.6 133 clipbox
276.513308 133.005152 m
276.513308 133.005152 l
stroke
grestore
gsave
357.1 76.13 57.6 133 clipbox
281.856023 133.005152 m
281.856023 133.005152 l
stroke
grestore
gsave
357.1 76.13 57.6 133 clipbox
287.198739 133.005152 m
287.198739 133.005152 l
stroke
grestore
gsave
357.1 76.13 57.6 133 clipbox
292.541454 133.005152 m
292.541454 133.005152 l
stroke
grestore
gsave
357.1 76.13 57.6 133 clipbox
297.884169 133.005152 m
297.884169 133.005152 l
stroke
grestore
gsave
357.1 76.13 57.6 133 clipbox
303.226885 133.005152 m
303.226885 133.005152 l
stroke
grestore
gsave
357.1 76.13 57.6 133 clipbox
308.5696 133.005152 m
308.5696 133.005152 l
stroke
grestore
gsave
357.1 76.13 57.6 133 clipbox
313.912316 133.005152 m
313.912316 133.005152 l
stroke
grestore
gsave
357.1 76.13 57.6 133 clipbox
319.255031 133.005152 m
319.255031 133.005152 l
stroke
grestore
gsave
357.1 76.13 57.6 133 clipbox
324.597747 133.005152 m
324.597747 133.005152 l
stroke
grestore
gsave
357.1 76.13 57.6 133 clipbox
329.940462 133.005152 m
329.940462 133.005152 l
stroke
grestore
gsave
357.1 76.13 57.6 133 clipbox
335.283178 133.005152 m
335.283178 133.005152 l
stroke
grestore
gsave
357.1 76.13 57.6 133 clipbox
340.625893 133.005152 m
340.625893 133.005152 l
stroke
grestore
gsave
357.1 76.13 57.6 133 clipbox
345.968609 133.005152 m
345.968609 133.005152 l
stroke
grestore
gsave
357.1 76.13 57.6 133 clipbox
351.311324 133.005152 m
351.311324 133.005152 l
stroke
grestore
gsave
357.1 76.13 57.6 133 clipbox
356.65404 133.005152 m
356.65404 133.005152 l
stroke
grestore
gsave
357.1 76.13 57.6 133 clipbox
361.996755 133.005152 m
361.996755 133.005152 l
stroke
grestore
gsave
357.1 76.13 57.6 133 clipbox
367.33947 133.005152 m
367.33947 133.005152 l
stroke
grestore
gsave
357.1 76.13 57.6 133 clipbox
372.682186 133.005152 m
372.682186 133.005152 l
stroke
grestore
gsave
357.1 76.13 57.6 133 clipbox
378.024901 133.005152 m
378.024901 133.005152 l
stroke
grestore
gsave
357.1 76.13 57.6 133 clipbox
383.367617 133.005152 m
383.367617 133.005152 l
stroke
grestore
gsave
357.1 76.13 57.6 133 clipbox
388.710332 133.005152 m
388.710332 133.005152 l
stroke
grestore
gsave
357.1 76.13 57.6 133 clipbox
394.053048 133.005152 m
394.053048 133.005152 l
stroke
grestore
0.800 setlinewidth
0.000 setgray
gsave
/o {
gsave
newpath
translate
0.8 setlinewidth
1 setlinejoin
0 setlinecap
0 0 m
0 -3.5 l

gsave
0.000 setgray
fill
grestore
stroke
grestore
} bind def
78.8328 133.005 o
grestore
/DejaVuSans findfont
10.000 scalefont
setfont
gsave
75.653148 118.411402 translate
0.000000 rotate
0.000000 0.000000 m /zero glyphshow
grestore
gsave
/o {
gsave
newpath
translate
0.8 setlinewidth
1 setlinejoin
0 setlinecap
0 0 m
0 -3.5 l

gsave
0.000 setgray
fill
grestore
stroke
grestore
} bind def
132.26 133.005 o
grestore
gsave
125.900615 118.411402 translate
0.000000 rotate
0.000000 0.000000 m /one glyphshow
6.362305 0.000000 m /zero glyphshow
grestore
gsave
/o {
gsave
newpath
translate
0.8 setlinewidth
1 setlinejoin
0 setlinecap
0 0 m
0 -3.5 l

gsave
0.000 setgray
fill
grestore
stroke
grestore
} bind def
185.687 133.005 o
grestore
gsave
179.327770 118.411402 translate
0.000000 rotate
0.000000 0.000000 m /two glyphshow
6.362305 0.000000 m /zero glyphshow
grestore
gsave
/o {
gsave
newpath
translate
0.8 setlinewidth
1 setlinejoin
0 setlinecap
0 0 m
0 -3.5 l

gsave
0.000 setgray
fill
grestore
stroke
grestore
} bind def
239.114 133.005 o
grestore
gsave
232.754924 118.411402 translate
0.000000 rotate
0.000000 0.000000 m /three glyphshow
6.362305 0.000000 m /zero glyphshow
grestore
gsave
/o {
gsave
newpath
translate
0.8 setlinewidth
1 setlinejoin
0 setlinecap
0 0 m
0 -3.5 l

gsave
0.000 setgray
fill
grestore
stroke
grestore
} bind def
292.541 133.005 o
grestore
gsave
286.182079 118.411402 translate
0.000000 rotate
0.000000 0.000000 m /four glyphshow
6.362305 0.000000 m /zero glyphshow
grestore
gsave
/o {
gsave
newpath
translate
0.8 setlinewidth
1 setlinejoin
0 setlinecap
0 0 m
0 -3.5 l

gsave
0.000 setgray
fill
grestore
stroke
grestore
} bind def
345.969 133.005 o
grestore
gsave
339.609234 118.411402 translate
0.000000 rotate
0.000000 0.000000 m /five glyphshow
6.362305 0.000000 m /zero glyphshow
grestore
gsave
/o {
gsave
newpath
translate
0.8 setlinewidth
1 setlinejoin
0 setlinecap
0 0 m
0 -3.5 l

gsave
0.000 setgray
fill
grestore
stroke
grestore
} bind def
399.396 133.005 o
grestore
gsave
393.036388 118.411402 translate
0.000000 rotate
0.000000 0.000000 m /six glyphshow
6.362305 0.000000 m /zero glyphshow
grestore
gsave
198.050625 104.739527 translate
0.000000 rotate
0.000000 0.000000 m /D glyphshow
7.700195 0.000000 m /e glyphshow
13.852539 0.000000 m /c glyphshow
19.350586 0.000000 m /i glyphshow
22.128906 0.000000 m /s glyphshow
27.338867 0.000000 m /i glyphshow
30.117188 0.000000 m /o glyphshow
36.235352 0.000000 m /n glyphshow
42.573242 0.000000 m /space glyphshow
45.751953 0.000000 m /P glyphshow
51.782227 0.000000 m /o glyphshow
57.900391 0.000000 m /i glyphshow
60.678711 0.000000 m /n glyphshow
67.016602 0.000000 m /t glyphshow
70.937500 0.000000 m /s glyphshow
grestore
gsave
/o {
gsave
newpath
translate
0.8 setlinewidth
1 setlinejoin
0 setlinecap
0 0 m
-3.5 0 l

gsave
0.000 setgray
fill
grestore
stroke
grestore
} bind def
57.6 133.005 o
grestore
gsave
44.240625 129.208277 translate
0.000000 rotate
0.000000 0.000000 m /zero glyphshow
grestore
gsave
/o {
gsave
newpath
translate
0.8 setlinewidth
1 setlinejoin
0 setlinecap
0 0 m
-3.5 0 l

gsave
0.000 setgray
fill
grestore
stroke
grestore
} bind def
57.6 158.383 o
grestore
gsave
44.240625 154.586176 translate
0.000000 rotate
0.000000 0.000000 m /five glyphshow
grestore
gsave
/o {
gsave
newpath
translate
0.8 setlinewidth
1 setlinejoin
0 setlinecap
0 0 m
-3.5 0 l

gsave
0.000 setgray
fill
grestore
stroke
grestore
} bind def
57.6 183.761 o
grestore
gsave
37.881250 179.964074 translate
0.000000 rotate
0.000000 0.000000 m /one glyphshow
6.362305 0.000000 m /zero glyphshow
grestore
gsave
/o {
gsave
newpath
translate
0.8 setlinewidth
1 setlinejoin
0 setlinecap
0 0 m
-3.5 0 l

gsave
0.000 setgray
fill
grestore
stroke
grestore
} bind def
57.6 209.139 o
grestore
gsave
37.881250 205.341973 translate
0.000000 rotate
0.000000 0.000000 m /one glyphshow
6.362305 0.000000 m /five glyphshow
grestore
gsave
31.803125 120.079813 translate
90.000000 rotate
0.000000 0.000000 m /O glyphshow
7.871094 0.000000 m /b glyphshow
14.218750 0.000000 m /s glyphshow
19.428711 0.000000 m /e glyphshow
25.581055 0.000000 m /r glyphshow
29.692383 0.000000 m /v glyphshow
35.610352 0.000000 m /a glyphshow
41.738281 0.000000 m /t glyphshow
45.659180 0.000000 m /i glyphshow
48.437500 0.000000 m /o glyphshow
54.555664 0.000000 m /n glyphshow
60.893555 0.000000 m /space glyphshow
64.072266 0.000000 m /R glyphshow
71.020508 0.000000 m /e glyphshow
77.172852 0.000000 m /w glyphshow
85.351562 0.000000 m /a glyphshow
91.479492 0.000000 m /r glyphshow
95.590820 0.000000 m /d glyphshow
grestore
0 setlinejoin
2 setlinecap
[] 0 setdash
gsave
57.6 133.005152 m
57.6 209.138848 l
stroke
grestore
gsave
414.72 133.005152 m
414.72 209.138848 l
stroke
grestore
gsave
57.6 133.005152 m
414.72 133.005152 l
stroke
grestore
gsave
57.6 209.138848 m
414.72 209.138848 l
stroke
grestore
0.500 setlinewidth
1 setlinejoin
0 setlinecap
[1.85 0.8] 0 setdash
gsave
357.1 76.13 57.6 133 clipbox
183.015787 133.005152 m
183.015787 209.138848 l
stroke
grestore
gsave
357.1 76.13 57.6 133 clipbox
289.870096 133.005152 m
289.870096 209.138848 l
stroke
grestore
1.000 setlinewidth
0 setlinejoin
[] 0 setdash
0.800 setgray
gsave
343.173125 157.123223 m
407.72 157.123223 l
409.053333 157.123223 409.72 157.789889 409.72 159.123223 c
409.72 202.138848 l
409.72 203.472181 409.053333 204.138848 407.72 204.138848 c
343.173125 204.138848 l
341.839792 204.138848 341.173125 203.472181 341.173125 202.138848 c
341.173125 159.123223 l
341.173125 157.789889 341.839792 157.123223 343.173125 157.123223 c
cl
gsave
1.000 setgray
fill
grestore
stroke
grestore
0.500 setlinewidth
1 setlinejoin
[] 0 setdash
0.000 0.500 0.000 setrgbcolor
gsave
355.173125 202.586296 m
353.508085 197.461829 l
348.119901 197.461829 l
352.479033 194.294734 l
350.813993 189.170267 l
355.173125 192.337362 l
359.532257 189.170267 l
357.867217 194.294734 l
362.226349 197.461829 l
356.838165 197.461829 l
cl
stroke
grestore
0.000 setgray
gsave
373.173125 192.545098 translate
0.000000 rotate
0.000000 0.000000 m /O glyphshow
7.871094 0.000000 m /r glyphshow
11.982422 0.000000 m /a glyphshow
18.110352 0.000000 m /c glyphshow
23.608398 0.000000 m /l glyphshow
26.386719 0.000000 m /e glyphshow
grestore
1.000 0.000 0.000 setrgbcolor
gsave
355.173125 174.173667 m
356.850417 174.173667 358.459237 174.840062 359.645261 176.026087 c
360.831285 177.212111 361.49768 178.820931 361.49768 180.498223 c
361.49768 182.175514 360.831285 183.784334 359.645261 184.970359 c
358.459237 186.156383 356.850417 186.822778 355.173125 186.822778 c
353.495833 186.822778 351.887013 186.156383 350.700989 184.970359 c
349.514965 183.784334 348.84857 182.175514 348.84857 180.498223 c
348.84857 178.820931 349.514965 177.212111 350.700989 176.026087 c
351.887013 174.840062 353.495833 174.173667 355.173125 174.173667 c
cl
stroke
grestore
0.000 setgray
gsave
373.173125 177.873223 translate
0.000000 rotate
0.000000 0.000000 m /O glyphshow
7.871094 0.000000 m /u glyphshow
14.208984 0.000000 m /r glyphshow
18.320312 0.000000 m /s glyphshow
grestore
gsave
355.173125 170.298484 m
351.300142 168.062416 l
351.300142 163.59028 l
355.173125 161.354212 l
359.046108 163.59028 l
359.046108 168.062416 l
cl
stroke
grestore
gsave
373.173125 163.201348 translate
0.000000 rotate
0.000000 0.000000 m /C glyphshow
6.982422 0.000000 m /S glyphshow
13.330078 0.000000 m /P glyphshow
grestore
/p0_0 {
newpath
translate
0 4.472136 m
-3.872983 2.236068 l
-3.872983 -2.236068 l
-0 -4.472136 l
3.872983 -2.236068 l
3.872983 2.236068 l
cl

} bind def
gsave
357.1 76.13 57.6 133 clipbox
180.344 133.005 p0_0
stroke
grestore
gsave
357.1 76.13 57.6 133 clipbox
287.199 133.005 p0_0
stroke
grestore
gsave
357.1 76.13 57.6 133 clipbox
394.053 133.005 p0_0
stroke
grestore
/p1_0 {
newpath
translate
0 7.416198 m
-1.66504 2.291731 l
-7.053224 2.291731 l
-2.694092 -0.875363 l
-4.359132 -5.999831 l
-0 -2.832736 l
4.359132 -5.999831 l
2.694092 -0.875363 l
7.053224 2.291731 l
1.66504 2.291731 l
cl

} bind def
0.000 0.500 0.000 setrgbcolor
gsave
357.1 76.13 57.6 133 clipbox
78.8328 133.005 p1_0
stroke
grestore
gsave
357.1 76.13 57.6 133 clipbox
78.8328 133.005 p1_0
stroke
grestore
gsave
357.1 76.13 57.6 133 clipbox
78.8328 133.005 p1_0
stroke
grestore
/p2_0 {
newpath
translate
0 -6.324555 m
1.677292 -6.324555 3.286112 -5.65816 4.472136 -4.472136 c
5.65816 -3.286112 6.324555 -1.677292 6.324555 0 c
6.324555 1.677292 5.65816 3.286112 4.472136 4.472136 c
3.286112 5.65816 1.677292 6.324555 0 6.324555 c
-1.677292 6.324555 -3.286112 5.65816 -4.472136 4.472136 c
-5.65816 3.286112 -6.324555 1.677292 -6.324555 0 c
-6.324555 -1.677292 -5.65816 -3.286112 -4.472136 -4.472136 c
-3.286112 -5.65816 -1.677292 -6.324555 0 -6.324555 c
cl

} bind def
1.000 0.000 0.000 setrgbcolor
gsave
357.1 76.13 57.6 133 clipbox
383.368 133.005 p2_0
stroke
grestore
gsave
357.1 76.13 57.6 133 clipbox
388.71 133.005 p2_0
stroke
grestore
gsave
357.1 76.13 57.6 133 clipbox
394.053 133.005 p2_0
stroke
grestore

end
showpage
