%!PS-Adobe-3.0 EPSF-3.0
%%Title: figures/r_passengers.eps
%%Creator: matplotlib version 2.2.5, http://matplotlib.org/
%%CreationDate: Wed May 20 12:53:13 2020
%%Orientation: portrait
%%BoundingBox: 75 223 536 568
%%EndComments
%%BeginProlog
/mpldict 8 dict def
mpldict begin
/m { moveto } bind def
/l { lineto } bind def
/r { rlineto } bind def
/c { curveto } bind def
/cl { closepath } bind def
/box {
m
1 index 0 r
0 exch r
neg 0 r
cl
} bind def
/clipbox {
box
clip
newpath
} bind def
%!PS-Adobe-3.0 Resource-Font
%%Title: DejaVu Sans
%%Copyright: Copyright (c) 2003 by Bitstream, Inc. All Rights Reserved. Copyright (c) 2006 by Tavmjong Bah. All Rights Reserved. DejaVu changes are in public domain 
%%Creator: Converted from TrueType to type 3 by PPR
25 dict begin
/_d{bind def}bind def
/_m{moveto}_d
/_l{lineto}_d
/_cl{closepath eofill}_d
/_c{curveto}_d
/_sc{7 -1 roll{setcachedevice}{pop pop pop pop pop pop}ifelse}_d
/_e{exec}_d
/FontName /DejaVuSans def
/PaintType 0 def
/FontMatrix[.001 0 0 .001 0 0]def
/FontBBox[-1021 -463 1793 1232]def
/FontType 3 def
/Encoding [ /space /parenleft /parenright /period /zero /one /two /four /five /six /seven /eight /nine /C /F /M /N /O /P /R /S /a /b /c /d /e /f /g /i /l /m /n /o /p /r /s /t /u /z ] def
/FontInfo 10 dict dup begin
/FamilyName (DejaVu Sans) def
/FullName (DejaVu Sans) def
/Notice (Copyright (c) 2003 by Bitstream, Inc. All Rights Reserved. Copyright (c) 2006 by Tavmjong Bah. All Rights Reserved. DejaVu changes are in public domain ) def
/Weight (Book) def
/Version (Version 2.35) def
/ItalicAngle 0.0 def
/isFixedPitch false def
/UnderlinePosition -130 def
/UnderlineThickness 90 def
end readonly def
/CharStrings 40 dict dup begin
/.notdef 0 def
/space{318 0 0 0 0 0 _sc
}_d
/parenleft{390 0 86 -131 310 759 _sc
310 759 _m
266 683 234 609 213 536 _c
191 463 181 389 181 314 _c
181 238 191 164 213 91 _c
234 17 266 -56 310 -131 _c
232 -131 _l
183 -54 146 20 122 94 _c
98 168 86 241 86 314 _c
86 386 98 459 122 533 _c
146 607 182 682 232 759 _c
310 759 _l
_cl}_d
/parenright{390 0 80 -131 304 759 _sc
80 759 _m
158 759 _l
206 682 243 607 267 533 _c
291 459 304 386 304 314 _c
304 241 291 168 267 94 _c
243 20 206 -54 158 -131 _c
80 -131 _l
123 -56 155 17 177 91 _c
198 164 209 238 209 314 _c
209 389 198 463 177 536 _c
155 609 123 683 80 759 _c
_cl}_d
/period{318 0 107 0 210 124 _sc
107 124 _m
210 124 _l
210 0 _l
107 0 _l
107 124 _l
_cl}_d
/zero{636 0 66 -13 570 742 _sc
318 664 _m
267 664 229 639 203 589 _c
177 539 165 464 165 364 _c
165 264 177 189 203 139 _c
229 89 267 64 318 64 _c
369 64 407 89 433 139 _c
458 189 471 264 471 364 _c
471 464 458 539 433 589 _c
407 639 369 664 318 664 _c
318 742 _m
399 742 461 709 505 645 _c
548 580 570 486 570 364 _c
570 241 548 147 505 83 _c
461 19 399 -13 318 -13 _c
236 -13 173 19 130 83 _c
87 147 66 241 66 364 _c
66 486 87 580 130 645 _c
173 709 236 742 318 742 _c
_cl}_d
/one{636 0 110 0 544 729 _sc
124 83 _m
285 83 _l
285 639 _l
110 604 _l
110 694 _l
284 729 _l
383 729 _l
383 83 _l
544 83 _l
544 0 _l
124 0 _l
124 83 _l
_cl}_d
/two{{636 0 73 0 536 742 _sc
192 83 _m
536 83 _l
536 0 _l
73 0 _l
73 83 _l
110 121 161 173 226 239 _c
290 304 331 346 348 365 _c
380 400 402 430 414 455 _c
426 479 433 504 433 528 _c
433 566 419 598 392 622 _c
365 646 330 659 286 659 _c
255 659 222 653 188 643 _c
154 632 117 616 78 594 _c
78 694 _l
118 710 155 722 189 730 _c
223 738 255 742 284 742 _c
}_e{359 742 419 723 464 685 _c
509 647 532 597 532 534 _c
532 504 526 475 515 449 _c
504 422 484 390 454 354 _c
446 344 420 317 376 272 _c
332 227 271 164 192 83 _c
_cl}_e}_d
/four{636 0 49 0 580 729 _sc
378 643 _m
129 254 _l
378 254 _l
378 643 _l
352 729 _m
476 729 _l
476 254 _l
580 254 _l
580 172 _l
476 172 _l
476 0 _l
378 0 _l
378 172 _l
49 172 _l
49 267 _l
352 729 _l
_cl}_d
/five{{636 0 77 -13 549 729 _sc
108 729 _m
495 729 _l
495 646 _l
198 646 _l
198 467 _l
212 472 227 476 241 478 _c
255 480 270 482 284 482 _c
365 482 429 459 477 415 _c
525 370 549 310 549 234 _c
549 155 524 94 475 51 _c
426 8 357 -13 269 -13 _c
238 -13 207 -10 175 -6 _c
143 -1 111 6 77 17 _c
77 116 _l
106 100 136 88 168 80 _c
199 72 232 69 267 69 _c
}_e{323 69 368 83 401 113 _c
433 143 450 183 450 234 _c
450 284 433 324 401 354 _c
368 384 323 399 267 399 _c
241 399 214 396 188 390 _c
162 384 135 375 108 363 _c
108 729 _l
_cl}_e}_d
/six{{636 0 70 -13 573 742 _sc
330 404 _m
286 404 251 388 225 358 _c
199 328 186 286 186 234 _c
186 181 199 139 225 109 _c
251 79 286 64 330 64 _c
374 64 409 79 435 109 _c
461 139 474 181 474 234 _c
474 286 461 328 435 358 _c
409 388 374 404 330 404 _c
526 713 _m
526 623 _l
501 635 476 644 451 650 _c
425 656 400 659 376 659 _c
310 659 260 637 226 593 _c
}_e{192 549 172 482 168 394 _c
187 422 211 444 240 459 _c
269 474 301 482 336 482 _c
409 482 467 459 509 415 _c
551 371 573 310 573 234 _c
573 159 550 99 506 54 _c
462 9 403 -13 330 -13 _c
246 -13 181 19 137 83 _c
92 147 70 241 70 364 _c
70 479 97 571 152 639 _c
206 707 280 742 372 742 _c
396 742 421 739 447 735 _c
472 730 498 723 526 713 _c
_cl}_e}_d
/seven{636 0 82 0 551 729 _sc
82 729 _m
551 729 _l
551 687 _l
286 0 _l
183 0 _l
432 646 _l
82 646 _l
82 729 _l
_cl}_d
/eight{{636 0 68 -13 568 742 _sc
318 346 _m
271 346 234 333 207 308 _c
180 283 167 249 167 205 _c
167 161 180 126 207 101 _c
234 76 271 64 318 64 _c
364 64 401 76 428 102 _c
455 127 469 161 469 205 _c
469 249 455 283 429 308 _c
402 333 365 346 318 346 _c
219 388 _m
177 398 144 418 120 447 _c
96 476 85 511 85 553 _c
85 611 105 657 147 691 _c
188 725 245 742 318 742 _c
}_e{390 742 447 725 489 691 _c
530 657 551 611 551 553 _c
551 511 539 476 515 447 _c
491 418 459 398 417 388 _c
464 377 501 355 528 323 _c
554 291 568 251 568 205 _c
568 134 546 80 503 43 _c
459 5 398 -13 318 -13 _c
237 -13 175 5 132 43 _c
89 80 68 134 68 205 _c
68 251 81 291 108 323 _c
134 355 171 377 219 388 _c
183 544 _m
183 506 194 476 218 455 _c
}_e{242 434 275 424 318 424 _c
360 424 393 434 417 455 _c
441 476 453 506 453 544 _c
453 582 441 611 417 632 _c
393 653 360 664 318 664 _c
275 664 242 653 218 632 _c
194 611 183 582 183 544 _c
_cl}_e}_d
/nine{{636 0 63 -13 566 742 _sc
110 15 _m
110 105 _l
134 93 159 84 185 78 _c
210 72 235 69 260 69 _c
324 69 374 90 408 134 _c
442 178 462 244 468 334 _c
448 306 424 284 396 269 _c
367 254 335 247 300 247 _c
226 247 168 269 126 313 _c
84 357 63 417 63 494 _c
63 568 85 628 129 674 _c
173 719 232 742 306 742 _c
390 742 455 709 499 645 _c
543 580 566 486 566 364 _c
}_e{566 248 538 157 484 89 _c
429 21 356 -13 264 -13 _c
239 -13 214 -10 189 -6 _c
163 -2 137 5 110 15 _c
306 324 _m
350 324 385 339 411 369 _c
437 399 450 441 450 494 _c
450 546 437 588 411 618 _c
385 648 350 664 306 664 _c
262 664 227 648 201 618 _c
175 588 162 546 162 494 _c
162 441 175 399 201 369 _c
227 339 262 324 306 324 _c
_cl}_e}_d
/C{{698 0 56 -13 644 742 _sc
644 673 _m
644 569 _l
610 599 575 622 537 638 _c
499 653 460 661 418 661 _c
334 661 270 635 226 584 _c
182 533 160 460 160 364 _c
160 268 182 194 226 143 _c
270 92 334 67 418 67 _c
460 67 499 74 537 90 _c
575 105 610 128 644 159 _c
644 56 _l
609 32 572 15 534 4 _c
496 -7 455 -13 412 -13 _c
302 -13 215 20 151 87 _c
}_e{87 154 56 246 56 364 _c
56 481 87 573 151 641 _c
215 708 302 742 412 742 _c
456 742 497 736 535 725 _c
573 713 610 696 644 673 _c
_cl}_e}_d
/F{575 0 98 0 517 729 _sc
98 729 _m
517 729 _l
517 646 _l
197 646 _l
197 431 _l
486 431 _l
486 348 _l
197 348 _l
197 0 _l
98 0 _l
98 729 _l
_cl}_d
/M{863 0 98 0 765 729 _sc
98 729 _m
245 729 _l
431 233 _l
618 729 _l
765 729 _l
765 0 _l
669 0 _l
669 640 _l
481 140 _l
382 140 _l
194 640 _l
194 0 _l
98 0 _l
98 729 _l
_cl}_d
/N{748 0 98 0 650 729 _sc
98 729 _m
231 729 _l
554 119 _l
554 729 _l
650 729 _l
650 0 _l
517 0 _l
194 610 _l
194 0 _l
98 0 _l
98 729 _l
_cl}_d
/O{787 0 56 -13 731 742 _sc
394 662 _m
322 662 265 635 223 582 _c
181 528 160 456 160 364 _c
160 272 181 199 223 146 _c
265 92 322 66 394 66 _c
465 66 522 92 564 146 _c
606 199 627 272 627 364 _c
627 456 606 528 564 582 _c
522 635 465 662 394 662 _c
394 742 _m
496 742 577 707 639 639 _c
700 571 731 479 731 364 _c
731 248 700 157 639 89 _c
577 21 496 -13 394 -13 _c
291 -13 209 21 148 89 _c
86 157 56 248 56 364 _c
56 479 86 571 148 639 _c
209 707 291 742 394 742 _c
_cl}_d
/P{603 0 98 0 569 729 _sc
197 648 _m
197 374 _l
321 374 _l
367 374 402 385 427 409 _c
452 433 465 467 465 511 _c
465 555 452 588 427 612 _c
402 636 367 648 321 648 _c
197 648 _l
98 729 _m
321 729 _l
402 729 464 710 506 673 _c
548 636 569 582 569 511 _c
569 439 548 384 506 348 _c
464 311 402 293 321 293 _c
197 293 _l
197 0 _l
98 0 _l
98 729 _l
_cl}_d
/R{{695 0 98 0 666 729 _sc
444 342 _m
465 334 486 319 506 296 _c
526 272 546 240 566 199 _c
666 0 _l
560 0 _l
467 187 _l
443 235 419 268 397 284 _c
374 300 343 308 304 308 _c
197 308 _l
197 0 _l
98 0 _l
98 729 _l
321 729 _l
404 729 466 711 507 677 _c
548 642 569 589 569 519 _c
569 473 558 434 537 404 _c
515 374 484 353 444 342 _c
197 648 _m
197 389 _l
321 389 _l
}_e{368 389 404 400 428 422 _c
452 444 465 476 465 519 _c
465 561 452 593 428 615 _c
404 637 368 648 321 648 _c
197 648 _l
_cl}_e}_d
/S{{635 0 66 -13 579 742 _sc
535 705 _m
535 609 _l
497 627 462 640 429 649 _c
395 657 363 662 333 662 _c
279 662 237 651 208 631 _c
179 610 165 580 165 542 _c
165 510 174 485 194 469 _c
213 452 250 439 304 429 _c
364 417 _l
437 403 491 378 526 343 _c
561 307 579 260 579 201 _c
579 130 555 77 508 41 _c
460 5 391 -13 300 -13 _c
265 -13 228 -9 189 -2 _c
}_e{150 5 110 16 69 32 _c
69 134 _l
109 111 148 94 186 83 _c
224 71 262 66 300 66 _c
356 66 399 77 430 99 _c
460 121 476 152 476 194 _c
476 230 465 258 443 278 _c
421 298 385 313 335 323 _c
275 335 _l
201 349 148 372 115 404 _c
82 435 66 478 66 534 _c
66 598 88 649 134 686 _c
179 723 242 742 322 742 _c
356 742 390 739 426 733 _c
461 727 497 717 535 705 _c
}_e{_cl}_e}_d
/a{{613 0 60 -13 522 560 _sc
343 275 _m
270 275 220 266 192 250 _c
164 233 150 205 150 165 _c
150 133 160 107 181 89 _c
202 70 231 61 267 61 _c
317 61 357 78 387 114 _c
417 149 432 196 432 255 _c
432 275 _l
343 275 _l
522 312 _m
522 0 _l
432 0 _l
432 83 _l
411 49 385 25 355 10 _c
325 -5 287 -13 243 -13 _c
187 -13 142 2 109 33 _c
76 64 60 106 60 159 _c
}_e{60 220 80 266 122 298 _c
163 329 224 345 306 345 _c
432 345 _l
432 354 _l
432 395 418 427 391 450 _c
364 472 326 484 277 484 _c
245 484 215 480 185 472 _c
155 464 127 453 100 439 _c
100 522 _l
132 534 164 544 195 550 _c
226 556 256 560 286 560 _c
365 560 424 539 463 498 _c
502 457 522 395 522 312 _c
_cl}_e}_d
/b{{635 0 91 -13 580 760 _sc
487 273 _m
487 339 473 390 446 428 _c
418 466 381 485 334 485 _c
286 485 249 466 222 428 _c
194 390 181 339 181 273 _c
181 207 194 155 222 117 _c
249 79 286 61 334 61 _c
381 61 418 79 446 117 _c
473 155 487 207 487 273 _c
181 464 _m
199 496 223 520 252 536 _c
281 552 316 560 356 560 _c
422 560 476 533 518 481 _c
559 428 580 359 580 273 _c
}_e{580 187 559 117 518 65 _c
476 13 422 -13 356 -13 _c
316 -13 281 -5 252 10 _c
223 25 199 49 181 82 _c
181 0 _l
91 0 _l
91 760 _l
181 760 _l
181 464 _l
_cl}_e}_d
/c{{550 0 55 -13 488 560 _sc
488 526 _m
488 442 _l
462 456 437 466 411 473 _c
385 480 360 484 334 484 _c
276 484 230 465 198 428 _c
166 391 150 339 150 273 _c
150 206 166 154 198 117 _c
230 80 276 62 334 62 _c
360 62 385 65 411 72 _c
437 79 462 90 488 104 _c
488 21 _l
462 9 436 0 410 -5 _c
383 -10 354 -13 324 -13 _c
242 -13 176 12 128 64 _c
}_e{79 115 55 185 55 273 _c
55 362 79 432 128 483 _c
177 534 244 560 330 560 _c
358 560 385 557 411 551 _c
437 545 463 537 488 526 _c
_cl}_e}_d
/d{{635 0 55 -13 544 760 _sc
454 464 _m
454 760 _l
544 760 _l
544 0 _l
454 0 _l
454 82 _l
435 49 411 25 382 10 _c
353 -5 319 -13 279 -13 _c
213 -13 159 13 117 65 _c
75 117 55 187 55 273 _c
55 359 75 428 117 481 _c
159 533 213 560 279 560 _c
319 560 353 552 382 536 _c
411 520 435 496 454 464 _c
148 273 _m
148 207 161 155 188 117 _c
215 79 253 61 301 61 _c
}_e{348 61 385 79 413 117 _c
440 155 454 207 454 273 _c
454 339 440 390 413 428 _c
385 466 348 485 301 485 _c
253 485 215 466 188 428 _c
161 390 148 339 148 273 _c
_cl}_e}_d
/e{{615 0 55 -13 562 560 _sc
562 296 _m
562 252 _l
149 252 _l
153 190 171 142 205 110 _c
238 78 284 62 344 62 _c
378 62 412 66 444 74 _c
476 82 509 95 541 113 _c
541 28 _l
509 14 476 3 442 -3 _c
408 -9 373 -13 339 -13 _c
251 -13 182 12 131 62 _c
80 112 55 181 55 268 _c
55 357 79 428 127 481 _c
175 533 241 560 323 560 _c
397 560 455 536 498 489 _c
}_e{540 441 562 377 562 296 _c
472 322 _m
471 371 457 410 431 440 _c
404 469 368 484 324 484 _c
274 484 234 469 204 441 _c
174 413 156 373 152 322 _c
472 322 _l
_cl}_e}_d
/f{352 0 23 0 371 760 _sc
371 760 _m
371 685 _l
285 685 _l
253 685 230 678 218 665 _c
205 652 199 629 199 595 _c
199 547 _l
347 547 _l
347 477 _l
199 477 _l
199 0 _l
109 0 _l
109 477 _l
23 477 _l
23 547 _l
109 547 _l
109 585 _l
109 645 123 690 151 718 _c
179 746 224 760 286 760 _c
371 760 _l
_cl}_d
/g{{635 0 55 -207 544 560 _sc
454 280 _m
454 344 440 395 414 431 _c
387 467 349 485 301 485 _c
253 485 215 467 188 431 _c
161 395 148 344 148 280 _c
148 215 161 165 188 129 _c
215 93 253 75 301 75 _c
349 75 387 93 414 129 _c
440 165 454 215 454 280 _c
544 68 _m
544 -24 523 -93 482 -139 _c
440 -184 377 -207 292 -207 _c
260 -207 231 -204 203 -200 _c
175 -195 147 -188 121 -178 _c
}_e{121 -91 _l
147 -105 173 -115 199 -122 _c
225 -129 251 -133 278 -133 _c
336 -133 380 -117 410 -87 _c
439 -56 454 -10 454 52 _c
454 96 _l
435 64 411 40 382 24 _c
353 8 319 0 279 0 _c
211 0 157 25 116 76 _c
75 127 55 195 55 280 _c
55 364 75 432 116 483 _c
157 534 211 560 279 560 _c
319 560 353 552 382 536 _c
411 520 435 496 454 464 _c
454 547 _l
544 547 _l
}_e{544 68 _l
_cl}_e}_d
/i{278 0 94 0 184 760 _sc
94 547 _m
184 547 _l
184 0 _l
94 0 _l
94 547 _l
94 760 _m
184 760 _l
184 646 _l
94 646 _l
94 760 _l
_cl}_d
/l{278 0 94 0 184 760 _sc
94 760 _m
184 760 _l
184 0 _l
94 0 _l
94 760 _l
_cl}_d
/m{{974 0 91 0 889 560 _sc
520 442 _m
542 482 569 511 600 531 _c
631 550 668 560 711 560 _c
767 560 811 540 842 500 _c
873 460 889 403 889 330 _c
889 0 _l
799 0 _l
799 327 _l
799 379 789 418 771 444 _c
752 469 724 482 686 482 _c
639 482 602 466 575 435 _c
548 404 535 362 535 309 _c
535 0 _l
445 0 _l
445 327 _l
445 379 435 418 417 444 _c
398 469 369 482 331 482 _c
}_e{285 482 248 466 221 435 _c
194 404 181 362 181 309 _c
181 0 _l
91 0 _l
91 547 _l
181 547 _l
181 462 _l
201 495 226 520 255 536 _c
283 552 317 560 357 560 _c
397 560 430 550 458 530 _c
486 510 506 480 520 442 _c
_cl}_e}_d
/n{634 0 91 0 549 560 _sc
549 330 _m
549 0 _l
459 0 _l
459 327 _l
459 379 448 417 428 443 _c
408 469 378 482 338 482 _c
289 482 251 466 223 435 _c
195 404 181 362 181 309 _c
181 0 _l
91 0 _l
91 547 _l
181 547 _l
181 462 _l
202 494 227 519 257 535 _c
286 551 320 560 358 560 _c
420 560 468 540 500 501 _c
532 462 549 405 549 330 _c
_cl}_d
/o{612 0 55 -13 557 560 _sc
306 484 _m
258 484 220 465 192 427 _c
164 389 150 338 150 273 _c
150 207 163 156 191 118 _c
219 80 257 62 306 62 _c
354 62 392 80 420 118 _c
448 156 462 207 462 273 _c
462 337 448 389 420 427 _c
392 465 354 484 306 484 _c
306 560 _m
384 560 445 534 490 484 _c
534 433 557 363 557 273 _c
557 183 534 113 490 63 _c
445 12 384 -13 306 -13 _c
227 -13 165 12 121 63 _c
77 113 55 183 55 273 _c
55 363 77 433 121 484 _c
165 534 227 560 306 560 _c
_cl}_d
/p{{635 0 91 -207 580 560 _sc
181 82 _m
181 -207 _l
91 -207 _l
91 547 _l
181 547 _l
181 464 _l
199 496 223 520 252 536 _c
281 552 316 560 356 560 _c
422 560 476 533 518 481 _c
559 428 580 359 580 273 _c
580 187 559 117 518 65 _c
476 13 422 -13 356 -13 _c
316 -13 281 -5 252 10 _c
223 25 199 49 181 82 _c
487 273 _m
487 339 473 390 446 428 _c
418 466 381 485 334 485 _c
}_e{286 485 249 466 222 428 _c
194 390 181 339 181 273 _c
181 207 194 155 222 117 _c
249 79 286 61 334 61 _c
381 61 418 79 446 117 _c
473 155 487 207 487 273 _c
_cl}_e}_d
/r{411 0 91 0 411 560 _sc
411 463 _m
401 469 390 473 378 476 _c
366 478 353 480 339 480 _c
288 480 249 463 222 430 _c
194 397 181 350 181 288 _c
181 0 _l
91 0 _l
91 547 _l
181 547 _l
181 462 _l
199 495 224 520 254 536 _c
284 552 321 560 365 560 _c
371 560 378 559 386 559 _c
393 558 401 557 411 555 _c
411 463 _l
_cl}_d
/s{{521 0 54 -13 472 560 _sc
443 531 _m
443 446 _l
417 458 391 468 364 475 _c
336 481 308 485 279 485 _c
234 485 200 478 178 464 _c
156 450 145 430 145 403 _c
145 382 153 366 169 354 _c
185 342 217 330 265 320 _c
296 313 _l
360 299 405 279 432 255 _c
458 230 472 195 472 151 _c
472 100 452 60 412 31 _c
372 1 316 -13 246 -13 _c
216 -13 186 -10 154 -5 _c
}_e{122 0 89 8 54 20 _c
54 113 _l
87 95 120 82 152 74 _c
184 65 216 61 248 61 _c
290 61 323 68 346 82 _c
368 96 380 117 380 144 _c
380 168 371 187 355 200 _c
339 213 303 226 247 238 _c
216 245 _l
160 257 119 275 95 299 _c
70 323 58 356 58 399 _c
58 450 76 490 112 518 _c
148 546 200 560 268 560 _c
301 560 332 557 362 552 _c
391 547 418 540 443 531 _c
}_e{_cl}_e}_d
/t{392 0 27 0 368 702 _sc
183 702 _m
183 547 _l
368 547 _l
368 477 _l
183 477 _l
183 180 _l
183 135 189 106 201 94 _c
213 81 238 75 276 75 _c
368 75 _l
368 0 _l
276 0 _l
206 0 158 13 132 39 _c
106 65 93 112 93 180 _c
93 477 _l
27 477 _l
27 547 _l
93 547 _l
93 702 _l
183 702 _l
_cl}_d
/u{634 0 85 -13 543 560 _sc
85 216 _m
85 547 _l
175 547 _l
175 219 _l
175 167 185 129 205 103 _c
225 77 255 64 296 64 _c
344 64 383 79 411 110 _c
439 141 453 183 453 237 _c
453 547 _l
543 547 _l
543 0 _l
453 0 _l
453 84 _l
431 50 405 26 377 10 _c
348 -5 315 -13 277 -13 _c
214 -13 166 6 134 45 _c
101 83 85 140 85 216 _c
311 560 _m
311 560 _l
_cl}_d
/z{525 0 43 0 482 547 _sc
55 547 _m
482 547 _l
482 465 _l
144 72 _l
482 72 _l
482 0 _l
43 0 _l
43 82 _l
381 475 _l
55 475 _l
55 547 _l
_cl}_d
end readonly def

/BuildGlyph
 {exch begin
 CharStrings exch
 2 copy known not{pop /.notdef}if
 true 3 1 roll get exec
 end}_d

/BuildChar {
 1 index /Encoding get exch get
 1 index /BuildGlyph get exec
}_d

FontName currentdict end definefont pop
end
%%EndProlog
mpldict begin
75.6 223.2 translate
460.8 345.6 0 0 clipbox
gsave
0 0 m
460.8 0 l
460.8 345.6 l
0 345.6 l
cl
1.000 setgray
fill
grestore
gsave
57.6 38.016 m
414.72 38.016 l
414.72 304.128 l
57.6 304.128 l
cl
1.000 setgray
fill
grestore
0.800 setlinewidth
1 setlinejoin
0 setlinecap
[] 0 setdash
0.000 setgray
gsave
/o {
gsave
newpath
translate
0.8 setlinewidth
1 setlinejoin
0 setlinecap
0 0 m
0 -3.5 l

gsave
0.000 setgray
fill
grestore
stroke
grestore
} bind def
109.905 38.016 o
grestore
/DejaVuSans findfont
10.000 scalefont
setfont
gsave
106.725767 23.422250 translate
0.000000 rotate
0.000000 0.000000 m /two glyphshow
grestore
gsave
/o {
gsave
newpath
translate
0.8 setlinewidth
1 setlinejoin
0 setlinecap
0 0 m
0 -3.5 l

gsave
0.000 setgray
fill
grestore
stroke
grestore
} bind def
182.051 38.016 o
grestore
gsave
178.871222 23.422250 translate
0.000000 rotate
0.000000 0.000000 m /four glyphshow
grestore
gsave
/o {
gsave
newpath
translate
0.8 setlinewidth
1 setlinejoin
0 setlinecap
0 0 m
0 -3.5 l

gsave
0.000 setgray
fill
grestore
stroke
grestore
} bind def
254.196 38.016 o
grestore
gsave
251.016676 23.422250 translate
0.000000 rotate
0.000000 0.000000 m /six glyphshow
grestore
gsave
/o {
gsave
newpath
translate
0.8 setlinewidth
1 setlinejoin
0 setlinecap
0 0 m
0 -3.5 l

gsave
0.000 setgray
fill
grestore
stroke
grestore
} bind def
326.342 38.016 o
grestore
gsave
323.162131 23.422250 translate
0.000000 rotate
0.000000 0.000000 m /eight glyphshow
grestore
gsave
/o {
gsave
newpath
translate
0.8 setlinewidth
1 setlinejoin
0 setlinecap
0 0 m
0 -3.5 l

gsave
0.000 setgray
fill
grestore
stroke
grestore
} bind def
398.487 38.016 o
grestore
gsave
392.127898 23.422250 translate
0.000000 rotate
0.000000 0.000000 m /one glyphshow
6.362305 0.000000 m /zero glyphshow
grestore
/DejaVuSans findfont
14.000 scalefont
setfont
gsave
134.175625 6.703500 translate
0.000000 rotate
0.000000 0.000000 m /N glyphshow
10.472656 0.000000 m /u glyphshow
19.345703 0.000000 m /m glyphshow
32.983398 0.000000 m /b glyphshow
41.870117 0.000000 m /e glyphshow
50.483398 0.000000 m /r glyphshow
56.239258 0.000000 m /space glyphshow
60.689453 0.000000 m /o glyphshow
69.254883 0.000000 m /f glyphshow
74.183594 0.000000 m /space glyphshow
78.633789 0.000000 m /P glyphshow
87.076172 0.000000 m /a glyphshow
95.655273 0.000000 m /s glyphshow
102.949219 0.000000 m /s glyphshow
110.243164 0.000000 m /e glyphshow
118.856445 0.000000 m /n glyphshow
127.729492 0.000000 m /g glyphshow
136.616211 0.000000 m /e glyphshow
145.229492 0.000000 m /r glyphshow
150.985352 0.000000 m /space glyphshow
155.435547 0.000000 m /R glyphshow
165.163086 0.000000 m /o glyphshow
173.728516 0.000000 m /b glyphshow
182.615234 0.000000 m /o glyphshow
191.180664 0.000000 m /t glyphshow
196.669922 0.000000 m /s glyphshow
grestore
gsave
/o {
gsave
newpath
translate
0.8 setlinewidth
1 setlinejoin
0 setlinecap
0 0 m
-3.5 0 l

gsave
0.000 setgray
fill
grestore
stroke
grestore
} bind def
57.6 50.2802 o
grestore
/DejaVuSans findfont
10.000 scalefont
setfont
gsave
34.693750 46.483353 translate
0.000000 rotate
0.000000 0.000000 m /zero glyphshow
6.362305 0.000000 m /period glyphshow
9.541016 0.000000 m /five glyphshow
grestore
gsave
/o {
gsave
newpath
translate
0.8 setlinewidth
1 setlinejoin
0 setlinecap
0 0 m
-3.5 0 l

gsave
0.000 setgray
fill
grestore
stroke
grestore
} bind def
57.6 98.6306 o
grestore
gsave
34.693750 94.833707 translate
0.000000 rotate
0.000000 0.000000 m /zero glyphshow
6.362305 0.000000 m /period glyphshow
9.541016 0.000000 m /six glyphshow
grestore
gsave
/o {
gsave
newpath
translate
0.8 setlinewidth
1 setlinejoin
0 setlinecap
0 0 m
-3.5 0 l

gsave
0.000 setgray
fill
grestore
stroke
grestore
} bind def
57.6 146.981 o
grestore
gsave
34.693750 143.184062 translate
0.000000 rotate
0.000000 0.000000 m /zero glyphshow
6.362305 0.000000 m /period glyphshow
9.541016 0.000000 m /seven glyphshow
grestore
gsave
/o {
gsave
newpath
translate
0.8 setlinewidth
1 setlinejoin
0 setlinecap
0 0 m
-3.5 0 l

gsave
0.000 setgray
fill
grestore
stroke
grestore
} bind def
57.6 195.331 o
grestore
gsave
34.693750 191.534416 translate
0.000000 rotate
0.000000 0.000000 m /zero glyphshow
6.362305 0.000000 m /period glyphshow
9.541016 0.000000 m /eight glyphshow
grestore
gsave
/o {
gsave
newpath
translate
0.8 setlinewidth
1 setlinejoin
0 setlinecap
0 0 m
-3.5 0 l

gsave
0.000 setgray
fill
grestore
stroke
grestore
} bind def
57.6 243.682 o
grestore
gsave
34.693750 239.884771 translate
0.000000 rotate
0.000000 0.000000 m /zero glyphshow
6.362305 0.000000 m /period glyphshow
9.541016 0.000000 m /nine glyphshow
grestore
gsave
/o {
gsave
newpath
translate
0.8 setlinewidth
1 setlinejoin
0 setlinecap
0 0 m
-3.5 0 l

gsave
0.000 setgray
fill
grestore
stroke
grestore
} bind def
57.6 292.032 o
grestore
gsave
34.693750 288.235125 translate
0.000000 rotate
0.000000 0.000000 m /one glyphshow
6.362305 0.000000 m /period glyphshow
9.541016 0.000000 m /zero glyphshow
grestore
/DejaVuSans findfont
14.000 scalefont
setfont
gsave
27.787500 58.282937 translate
90.000000 rotate
0.000000 0.000000 m /F glyphshow
8.052734 0.000000 m /e glyphshow
16.666016 0.000000 m /a glyphshow
25.245117 0.000000 m /t glyphshow
30.734375 0.000000 m /u glyphshow
39.607422 0.000000 m /r glyphshow
45.363281 0.000000 m /e glyphshow
53.976562 0.000000 m /s glyphshow
61.270508 0.000000 m /space glyphshow
65.720703 0.000000 m /C glyphshow
75.496094 0.000000 m /a glyphshow
84.075195 0.000000 m /p glyphshow
92.961914 0.000000 m /t glyphshow
98.451172 0.000000 m /u glyphshow
107.324219 0.000000 m /r glyphshow
113.080078 0.000000 m /e glyphshow
121.693359 0.000000 m /d glyphshow
130.580078 0.000000 m /space glyphshow
135.030273 0.000000 m /parenleft glyphshow
140.492188 0.000000 m /N glyphshow
150.964844 0.000000 m /o glyphshow
159.530273 0.000000 m /r glyphshow
165.286133 0.000000 m /m glyphshow
178.923828 0.000000 m /a glyphshow
187.502930 0.000000 m /l glyphshow
191.392578 0.000000 m /i glyphshow
195.282227 0.000000 m /z glyphshow
202.630859 0.000000 m /e glyphshow
211.244141 0.000000 m /d glyphshow
220.130859 0.000000 m /parenright glyphshow
grestore
1.500 setlinewidth
0.122 0.467 0.706 setrgbcolor
gsave
357.1 266.1 57.6 38.02 clipbox
73.832727 292.032 m
73.832727 292.032 l
stroke
grestore
gsave
357.1 266.1 57.6 38.02 clipbox
109.905455 292.032 m
109.905455 292.032 l
stroke
grestore
gsave
357.1 266.1 57.6 38.02 clipbox
145.978182 292.032 m
145.978182 292.032 l
stroke
grestore
gsave
357.1 266.1 57.6 38.02 clipbox
182.050909 292.032 m
182.050909 292.032 l
stroke
grestore
gsave
357.1 266.1 57.6 38.02 clipbox
218.123636 292.032 m
218.123636 292.032 l
stroke
grestore
gsave
357.1 266.1 57.6 38.02 clipbox
254.196364 292.032 m
254.196364 292.032 l
stroke
grestore
gsave
357.1 266.1 57.6 38.02 clipbox
290.269091 292.032 m
290.269091 292.032 l
stroke
grestore
gsave
357.1 266.1 57.6 38.02 clipbox
326.341818 292.032 m
326.341818 292.032 l
stroke
grestore
gsave
357.1 266.1 57.6 38.02 clipbox
362.414545 292.032 m
362.414545 292.032 l
stroke
grestore
gsave
357.1 266.1 57.6 38.02 clipbox
398.487273 292.032 m
398.487273 292.032 l
stroke
grestore
1.000 0.498 0.055 setrgbcolor
gsave
357.1 266.1 57.6 38.02 clipbox
73.832727 262.544065 m
73.832727 270.376517 l
stroke
grestore
gsave
357.1 266.1 57.6 38.02 clipbox
109.905455 270.313348 m
109.905455 274.318938 l
stroke
grestore
gsave
357.1 266.1 57.6 38.02 clipbox
145.978182 274.492018 m
145.978182 277.914006 l
stroke
grestore
gsave
357.1 266.1 57.6 38.02 clipbox
182.050909 277.384928 m
182.050909 280.146213 l
stroke
grestore
gsave
357.1 266.1 57.6 38.02 clipbox
218.123636 275.698061 m
218.123636 278.586407 l
stroke
grestore
gsave
357.1 266.1 57.6 38.02 clipbox
254.196364 275.904316 m
254.196364 278.605474 l
stroke
grestore
gsave
357.1 266.1 57.6 38.02 clipbox
290.269091 280.007797 m
290.269091 281.956915 l
stroke
grestore
gsave
357.1 266.1 57.6 38.02 clipbox
326.341818 278.701616 m
326.341818 280.825923 l
stroke
grestore
gsave
357.1 266.1 57.6 38.02 clipbox
362.414545 280.789986 m
362.414545 282.720863 l
stroke
grestore
gsave
357.1 266.1 57.6 38.02 clipbox
398.487273 283.281546 m
398.487273 284.650321 l
stroke
grestore
0.173 0.627 0.173 setrgbcolor
gsave
357.1 266.1 57.6 38.02 clipbox
73.832727 262.544065 m
73.832727 270.376517 l
stroke
grestore
gsave
357.1 266.1 57.6 38.02 clipbox
109.905455 249.644219 m
109.905455 256.349797 l
stroke
grestore
gsave
357.1 266.1 57.6 38.02 clipbox
145.978182 243.139779 m
145.978182 248.990966 l
stroke
grestore
gsave
357.1 266.1 57.6 38.02 clipbox
182.050909 245.656933 m
182.050909 250.727634 l
stroke
grestore
gsave
357.1 266.1 57.6 38.02 clipbox
218.123636 235.218737 m
218.123636 240.567885 l
stroke
grestore
gsave
357.1 266.1 57.6 38.02 clipbox
254.196364 233.165326 m
254.196364 237.859912 l
stroke
grestore
gsave
357.1 266.1 57.6 38.02 clipbox
290.269091 234.39302 m
290.269091 238.952329 l
stroke
grestore
gsave
357.1 266.1 57.6 38.02 clipbox
326.341818 233.085562 m
326.341818 237.087787 l
stroke
grestore
gsave
357.1 266.1 57.6 38.02 clipbox
362.414545 233.070521 m
362.414545 237.370035 l
stroke
grestore
gsave
357.1 266.1 57.6 38.02 clipbox
398.487273 231.352048 m
398.487273 235.056137 l
stroke
grestore
0.839 0.153 0.157 setrgbcolor
gsave
357.1 266.1 57.6 38.02 clipbox
73.832727 177.243026 m
73.832727 197.660896 l
stroke
grestore
gsave
357.1 266.1 57.6 38.02 clipbox
109.905455 177.981621 m
109.905455 191.127393 l
stroke
grestore
gsave
357.1 266.1 57.6 38.02 clipbox
145.978182 171.353577 m
145.978182 182.366991 l
stroke
grestore
gsave
357.1 266.1 57.6 38.02 clipbox
182.050909 174.223067 m
182.050909 184.448542 l
stroke
grestore
gsave
357.1 266.1 57.6 38.02 clipbox
218.123636 175.961667 m
218.123636 183.743541 l
stroke
grestore
gsave
357.1 266.1 57.6 38.02 clipbox
254.196364 181.447835 m
254.196364 188.696839 l
stroke
grestore
gsave
357.1 266.1 57.6 38.02 clipbox
290.269091 176.485563 m
290.269091 183.71847 l
stroke
grestore
gsave
357.1 266.1 57.6 38.02 clipbox
326.341818 182.678441 m
326.341818 188.267157 l
stroke
grestore
gsave
357.1 266.1 57.6 38.02 clipbox
362.414545 180.500183 m
362.414545 186.415377 l
stroke
grestore
gsave
357.1 266.1 57.6 38.02 clipbox
398.487273 178.020829 m
398.487273 184.006491 l
stroke
grestore
0.580 0.404 0.741 setrgbcolor
gsave
357.1 266.1 57.6 38.02 clipbox
73.832727 50.112 m
73.832727 66.210744 l
stroke
grestore
gsave
357.1 266.1 57.6 38.02 clipbox
109.905455 61.775107 m
109.905455 73.330297 l
stroke
grestore
gsave
357.1 266.1 57.6 38.02 clipbox
145.978182 67.171214 m
145.978182 77.807325 l
stroke
grestore
gsave
357.1 266.1 57.6 38.02 clipbox
182.050909 70.307439 m
182.050909 79.668658 l
stroke
grestore
gsave
357.1 266.1 57.6 38.02 clipbox
218.123636 83.211775 m
218.123636 90.798813 l
stroke
grestore
gsave
357.1 266.1 57.6 38.02 clipbox
254.196364 90.620895 m
254.196364 97.305415 l
stroke
grestore
gsave
357.1 266.1 57.6 38.02 clipbox
290.269091 91.469281 m
290.269091 98.360185 l
stroke
grestore
gsave
357.1 266.1 57.6 38.02 clipbox
326.341818 98.971846 m
326.341818 105.880499 l
stroke
grestore
gsave
357.1 266.1 57.6 38.02 clipbox
362.414545 112.379276 m
362.414545 118.653066 l
stroke
grestore
gsave
357.1 266.1 57.6 38.02 clipbox
398.487273 113.860856 m
398.487273 119.361841 l
stroke
grestore
2 setlinecap
0.122 0.467 0.706 setrgbcolor
gsave
357.1 266.1 57.6 38.02 clipbox
73.832727 292.032 m
109.905455 292.032 l
145.978182 292.032 l
182.050909 292.032 l
218.123636 292.032 l
254.196364 292.032 l
290.269091 292.032 l
326.341818 292.032 l
362.414545 292.032 l
398.487273 292.032 l
stroke
grestore
1.000 0.498 0.055 setrgbcolor
gsave
357.1 266.1 57.6 38.02 clipbox
73.832727 266.460291 m
109.905455 272.316143 l
145.978182 276.203012 l
182.050909 278.765571 l
218.123636 277.142234 l
254.196364 277.254895 l
290.269091 280.982356 l
326.341818 279.76377 l
362.414545 281.755424 l
398.487273 283.965933 l
stroke
grestore
0.173 0.627 0.173 setrgbcolor
gsave
357.1 266.1 57.6 38.02 clipbox
73.832727 266.460291 m
109.905455 252.997008 l
145.978182 246.065372 l
182.050909 248.192283 l
218.123636 237.893311 l
254.196364 235.512619 l
290.269091 236.672674 l
326.341818 235.086674 l
362.414545 235.220278 l
398.487273 233.204092 l
stroke
grestore
0.839 0.153 0.157 setrgbcolor
gsave
357.1 266.1 57.6 38.02 clipbox
73.832727 187.451961 m
109.905455 184.554507 l
145.978182 176.860284 l
182.050909 179.335804 l
218.123636 179.852604 l
254.196364 185.072337 l
290.269091 180.102017 l
326.341818 185.472799 l
362.414545 183.45778 l
398.487273 181.01366 l
stroke
grestore
0.580 0.404 0.741 setrgbcolor
gsave
357.1 266.1 57.6 38.02 clipbox
73.832727 58.161372 m
109.905455 67.552702 l
145.978182 72.48927 l
182.050909 74.988048 l
218.123636 87.005294 l
254.196364 93.963155 l
290.269091 94.914733 l
326.341818 102.426173 l
362.414545 115.516171 l
398.487273 116.611348 l
stroke
grestore
0.800 setlinewidth
0 setlinejoin
[] 0 setdash
0.000 setgray
gsave
57.6 38.016 m
57.6 304.128 l
stroke
grestore
gsave
414.72 38.016 m
414.72 304.128 l
stroke
grestore
gsave
57.6 38.016 m
414.72 38.016 l
stroke
grestore
gsave
57.6 304.128 m
414.72 304.128 l
stroke
grestore
1.000 setlinewidth
0 setlinecap
0.800 setgray
gsave
334.079375 43.016 m
407.72 43.016 l
409.053333 43.016 409.72 43.682667 409.72 45.016 c
409.72 117.375375 l
409.72 118.708708 409.053333 119.375375 407.72 119.375375 c
334.079375 119.375375 l
332.746042 119.375375 332.079375 118.708708 332.079375 117.375375 c
332.079375 45.016 l
332.079375 43.682667 332.746042 43.016 334.079375 43.016 c
cl
gsave
1.000 setgray
fill
grestore
stroke
grestore
1.500 setlinewidth
1 setlinejoin
[] 0 setdash
0.122 0.467 0.706 setrgbcolor
gsave
346.079375 106.281625 m
346.079375 116.281625 l
stroke
grestore
2 setlinecap
gsave
336.079375 111.281625 m
356.079375 111.281625 l
stroke
grestore
0.000 setgray
/DejaVuSans findfont
10.000 scalefont
setfont
gsave
364.079375 107.781625 translate
0.000000 rotate
0.000000 0.000000 m /O glyphshow
7.871094 0.000000 m /r glyphshow
11.982422 0.000000 m /a glyphshow
18.110352 0.000000 m /c glyphshow
23.608398 0.000000 m /l glyphshow
26.386719 0.000000 m /e glyphshow
grestore
0 setlinecap
1.000 0.498 0.055 setrgbcolor
gsave
346.079375 91.60975 m
346.079375 101.60975 l
stroke
grestore
2 setlinecap
gsave
336.079375 96.60975 m
356.079375 96.60975 l
stroke
grestore
0.000 setgray
gsave
364.079375 93.109750 translate
0.000000 rotate
0.000000 0.000000 m /O glyphshow
7.871094 0.000000 m /u glyphshow
14.208984 0.000000 m /r glyphshow
18.320312 0.000000 m /s glyphshow
grestore
0 setlinecap
0.173 0.627 0.173 setrgbcolor
gsave
346.079375 76.937875 m
346.079375 86.937875 l
stroke
grestore
2 setlinecap
gsave
336.079375 81.937875 m
356.079375 81.937875 l
stroke
grestore
0.000 setgray
gsave
364.079375 78.437875 translate
0.000000 rotate
0.000000 0.000000 m /C glyphshow
6.982422 0.000000 m /M glyphshow
grestore
0 setlinecap
0.839 0.153 0.157 setrgbcolor
gsave
346.079375 62.266 m
346.079375 72.266 l
stroke
grestore
2 setlinecap
gsave
336.079375 67.266 m
356.079375 67.266 l
stroke
grestore
0.000 setgray
gsave
364.079375 63.766000 translate
0.000000 rotate
0.000000 0.000000 m /C glyphshow
6.982422 0.000000 m /S glyphshow
13.330078 0.000000 m /P glyphshow
grestore
0 setlinecap
0.580 0.404 0.741 setrgbcolor
gsave
346.079375 47.594125 m
346.079375 57.594125 l
stroke
grestore
2 setlinecap
gsave
336.079375 52.594125 m
356.079375 52.594125 l
stroke
grestore
0.000 setgray
gsave
364.079375 49.094125 translate
0.000000 rotate
0.000000 0.000000 m /R glyphshow
6.948242 0.000000 m /a glyphshow
13.076172 0.000000 m /n glyphshow
19.414062 0.000000 m /d glyphshow
25.761719 0.000000 m /o glyphshow
31.879883 0.000000 m /m glyphshow
grestore

end
showpage
