%!PS-Adobe-3.0 EPSF-3.0
%%Title: figures/world.eps
%%Creator: matplotlib version 2.2.5, http://matplotlib.org/
%%CreationDate: Wed May 20 12:13:41 2020
%%Orientation: portrait
%%BoundingBox: 75 223 536 568
%%EndComments
%%BeginProlog
/mpldict 8 dict def
mpldict begin
/m { moveto } bind def
/l { lineto } bind def
/r { rlineto } bind def
/c { curveto } bind def
/cl { closepath } bind def
/box {
m
1 index 0 r
0 exch r
neg 0 r
cl
} bind def
/clipbox {
box
clip
newpath
} bind def
%!PS-Adobe-3.0 Resource-Font
%%Title: DejaVu Sans
%%Copyright: Copyright (c) 2003 by Bitstream, Inc. All Rights Reserved. Copyright (c) 2006 by Tavmjong Bah. All Rights Reserved. DejaVu changes are in public domain 
%%Creator: Converted from TrueType to type 3 by PPR
25 dict begin
/_d{bind def}bind def
/_m{moveto}_d
/_l{lineto}_d
/_cl{closepath eofill}_d
/_c{curveto}_d
/_sc{7 -1 roll{setcachedevice}{pop pop pop pop pop pop}ifelse}_d
/_e{exec}_d
/FontName /DejaVuSans def
/PaintType 0 def
/FontMatrix[.001 0 0 .001 0 0]def
/FontBBox[-1021 -463 1793 1232]def
/FontType 3 def
/Encoding [ /X /Y ] def
/FontInfo 10 dict dup begin
/FamilyName (DejaVu Sans) def
/FullName (DejaVu Sans) def
/Notice (Copyright (c) 2003 by Bitstream, Inc. All Rights Reserved. Copyright (c) 2006 by Tavmjong Bah. All Rights Reserved. DejaVu changes are in public domain ) def
/Weight (Book) def
/Version (Version 2.35) def
/ItalicAngle 0.0 def
/isFixedPitch false def
/UnderlinePosition -130 def
/UnderlineThickness 90 def
end readonly def
/CharStrings 3 dict dup begin
/.notdef 0 def
/X{685 0 30 0 654 729 _sc
63 729 _m
169 729 _l
350 458 _l
532 729 _l
638 729 _l
404 379 _l
654 0 _l
548 0 _l
343 310 _l
136 0 _l
30 0 _l
290 389 _l
63 729 _l
_cl}_d
/Y{611 0 -1 0 613 729 _sc
-1 729 _m
104 729 _l
306 429 _l
507 729 _l
613 729 _l
355 347 _l
355 0 _l
256 0 _l
256 347 _l
-1 729 _l
_cl}_d
end readonly def

/BuildGlyph
 {exch begin
 CharStrings exch
 2 copy known not{pop /.notdef}if
 true 3 1 roll get exec
 end}_d

/BuildChar {
 1 index /Encoding get exch get
 1 index /BuildGlyph get exec
}_d

FontName currentdict end definefont pop
end
%%EndProlog
mpldict begin
75.6 223.2 translate
460.8 345.6 0 0 clipbox
gsave
0 0 m
460.8 0 l
460.8 345.6 l
0 345.6 l
cl
1.000 setgray
fill
grestore
gsave
101.898458 38.016 m
370.421542 38.016 l
370.421542 304.128 l
101.898458 304.128 l
cl
1.000 setgray
fill
grestore
1.000 setlinewidth
0 setlinejoin
0 setlinecap
[] 0 setdash
0.000 0.000 1.000 setrgbcolor
gsave
268.5 266.1 101.9 38.02 clipbox
136.914517 62.789233 m
139.537574 62.789233 142.053551 63.831385 143.908332 65.686166 c
145.763114 67.540948 146.805266 70.056924 146.805266 72.679982 c
146.805266 75.303039 145.763114 77.819015 143.908332 79.673797 c
142.053551 81.528578 139.537574 82.57073 136.914517 82.57073 c
134.29146 82.57073 131.775483 81.528578 129.920702 79.673797 c
128.06592 77.819015 127.023769 75.303039 127.023769 72.679982 c
127.023769 70.056924 128.06592 67.540948 129.920702 65.686166 c
131.775483 63.831385 134.29146 62.789233 136.914517 62.789233 c
cl
stroke
grestore
gsave
268.5 266.1 101.9 38.02 clipbox
136.914517 84.219188 m
139.537574 84.219188 142.053551 85.26134 143.908332 87.116121 c
145.763114 88.970903 146.805266 91.48688 146.805266 94.109937 c
146.805266 96.732994 145.763114 99.248971 143.908332 101.103752 c
142.053551 102.958534 139.537574 104.000685 136.914517 104.000685 c
134.29146 104.000685 131.775483 102.958534 129.920702 101.103752 c
128.06592 99.248971 127.023769 96.732994 127.023769 94.109937 c
127.023769 91.48688 128.06592 88.970903 129.920702 87.116121 c
131.775483 85.26134 134.29146 84.219188 136.914517 84.219188 c
cl
stroke
grestore
gsave
268.5 266.1 101.9 38.02 clipbox
136.914517 105.649143 m
139.537574 105.649143 142.053551 106.691295 143.908332 108.546077 c
145.763114 110.400858 146.805266 112.916835 146.805266 115.539892 c
146.805266 118.162949 145.763114 120.678926 143.908332 122.533707 c
142.053551 124.388489 139.537574 125.43064 136.914517 125.43064 c
134.29146 125.43064 131.775483 124.388489 129.920702 122.533707 c
128.06592 120.678926 127.023769 118.162949 127.023769 115.539892 c
127.023769 112.916835 128.06592 110.400858 129.920702 108.546077 c
131.775483 106.691295 134.29146 105.649143 136.914517 105.649143 c
cl
stroke
grestore
gsave
268.5 266.1 101.9 38.02 clipbox
136.914517 127.079099 m
139.537574 127.079099 142.053551 128.12125 143.908332 129.976032 c
145.763114 131.830813 146.805266 134.34679 146.805266 136.969847 c
146.805266 139.592904 145.763114 142.108881 143.908332 143.963662 c
142.053551 145.818444 139.537574 146.860596 136.914517 146.860596 c
134.29146 146.860596 131.775483 145.818444 129.920702 143.963662 c
128.06592 142.108881 127.023769 139.592904 127.023769 136.969847 c
127.023769 134.34679 128.06592 131.830813 129.920702 129.976032 c
131.775483 128.12125 134.29146 127.079099 136.914517 127.079099 c
cl
stroke
grestore
gsave
268.5 266.1 101.9 38.02 clipbox
136.914517 148.509054 m
139.537574 148.509054 142.053551 149.551205 143.908332 151.405987 c
145.763114 153.260768 146.805266 155.776745 146.805266 158.399802 c
146.805266 161.022859 145.763114 163.538836 143.908332 165.393618 c
142.053551 167.248399 139.537574 168.290551 136.914517 168.290551 c
134.29146 168.290551 131.775483 167.248399 129.920702 165.393618 c
128.06592 163.538836 127.023769 161.022859 127.023769 158.399802 c
127.023769 155.776745 128.06592 153.260768 129.920702 151.405987 c
131.775483 149.551205 134.29146 148.509054 136.914517 148.509054 c
cl
stroke
grestore
gsave
268.5 266.1 101.9 38.02 clipbox
136.914517 169.939009 m
139.537574 169.939009 142.053551 170.981161 143.908332 172.835942 c
145.763114 174.690724 146.805266 177.2067 146.805266 179.829757 c
146.805266 182.452815 145.763114 184.968791 143.908332 186.823573 c
142.053551 188.678354 139.537574 189.720506 136.914517 189.720506 c
134.29146 189.720506 131.775483 188.678354 129.920702 186.823573 c
128.06592 184.968791 127.023769 182.452815 127.023769 179.829757 c
127.023769 177.2067 128.06592 174.690724 129.920702 172.835942 c
131.775483 170.981161 134.29146 169.939009 136.914517 169.939009 c
cl
stroke
grestore
gsave
268.5 266.1 101.9 38.02 clipbox
136.914517 191.368964 m
139.537574 191.368964 142.053551 192.411116 143.908332 194.265897 c
145.763114 196.120679 146.805266 198.636655 146.805266 201.259713 c
146.805266 203.88277 145.763114 206.398746 143.908332 208.253528 c
142.053551 210.108309 139.537574 211.150461 136.914517 211.150461 c
134.29146 211.150461 131.775483 210.108309 129.920702 208.253528 c
128.06592 206.398746 127.023769 203.88277 127.023769 201.259713 c
127.023769 198.636655 128.06592 196.120679 129.920702 194.265897 c
131.775483 192.411116 134.29146 191.368964 136.914517 191.368964 c
cl
stroke
grestore
gsave
268.5 266.1 101.9 38.02 clipbox
136.914517 212.798919 m
139.537574 212.798919 142.053551 213.841071 143.908332 215.695852 c
145.763114 217.550634 146.805266 220.066611 146.805266 222.689668 c
146.805266 225.312725 145.763114 227.828702 143.908332 229.683483 c
142.053551 231.538265 139.537574 232.580416 136.914517 232.580416 c
134.29146 232.580416 131.775483 231.538265 129.920702 229.683483 c
128.06592 227.828702 127.023769 225.312725 127.023769 222.689668 c
127.023769 220.066611 128.06592 217.550634 129.920702 215.695852 c
131.775483 213.841071 134.29146 212.798919 136.914517 212.798919 c
cl
stroke
grestore
gsave
268.5 266.1 101.9 38.02 clipbox
136.914517 234.228874 m
139.537574 234.228874 142.053551 235.271026 143.908332 237.125808 c
145.763114 238.980589 146.805266 241.496566 146.805266 244.119623 c
146.805266 246.74268 145.763114 249.258657 143.908332 251.113438 c
142.053551 252.96822 139.537574 254.010372 136.914517 254.010372 c
134.29146 254.010372 131.775483 252.96822 129.920702 251.113438 c
128.06592 249.258657 127.023769 246.74268 127.023769 244.119623 c
127.023769 241.496566 128.06592 238.980589 129.920702 237.125808 c
131.775483 235.271026 134.29146 234.228874 136.914517 234.228874 c
cl
stroke
grestore
gsave
268.5 266.1 101.9 38.02 clipbox
136.914517 255.65883 m
139.537574 255.65883 142.053551 256.700981 143.908332 258.555763 c
145.763114 260.410544 146.805266 262.926521 146.805266 265.549578 c
146.805266 268.172635 145.763114 270.688612 143.908332 272.543394 c
142.053551 274.398175 139.537574 275.440327 136.914517 275.440327 c
134.29146 275.440327 131.775483 274.398175 129.920702 272.543394 c
128.06592 270.688612 127.023769 268.172635 127.023769 265.549578 c
127.023769 262.926521 128.06592 260.410544 129.920702 258.555763 c
131.775483 256.700981 134.29146 255.65883 136.914517 255.65883 c
cl
stroke
grestore
gsave
268.5 266.1 101.9 38.02 clipbox
136.914517 277.088785 m
139.537574 277.088785 142.053551 278.130936 143.908332 279.985718 c
145.763114 281.840499 146.805266 284.356476 146.805266 286.979533 c
146.805266 289.602591 145.763114 292.118567 143.908332 293.973349 c
142.053551 295.82813 139.537574 296.870282 136.914517 296.870282 c
134.29146 296.870282 131.775483 295.82813 129.920702 293.973349 c
128.06592 292.118567 127.023769 289.602591 127.023769 286.979533 c
127.023769 284.356476 128.06592 281.840499 129.920702 279.985718 c
131.775483 278.130936 134.29146 277.088785 136.914517 277.088785 c
cl
stroke
grestore
gsave
268.5 266.1 101.9 38.02 clipbox
158.344472 277.088785 m
160.967529 277.088785 163.483506 278.130936 165.338288 279.985718 c
167.193069 281.840499 168.235221 284.356476 168.235221 286.979533 c
168.235221 289.602591 167.193069 292.118567 165.338288 293.973349 c
163.483506 295.82813 160.967529 296.870282 158.344472 296.870282 c
155.721415 296.870282 153.205438 295.82813 151.350657 293.973349 c
149.495875 292.118567 148.453724 289.602591 148.453724 286.979533 c
148.453724 284.356476 149.495875 281.840499 151.350657 279.985718 c
153.205438 278.130936 155.721415 277.088785 158.344472 277.088785 c
cl
stroke
grestore
gsave
268.5 266.1 101.9 38.02 clipbox
179.774427 277.088785 m
182.397485 277.088785 184.913461 278.130936 186.768243 279.985718 c
188.623024 281.840499 189.665176 284.356476 189.665176 286.979533 c
189.665176 289.602591 188.623024 292.118567 186.768243 293.973349 c
184.913461 295.82813 182.397485 296.870282 179.774427 296.870282 c
177.15137 296.870282 174.635394 295.82813 172.780612 293.973349 c
170.925831 292.118567 169.883679 289.602591 169.883679 286.979533 c
169.883679 284.356476 170.925831 281.840499 172.780612 279.985718 c
174.635394 278.130936 177.15137 277.088785 179.774427 277.088785 c
cl
stroke
grestore
gsave
268.5 266.1 101.9 38.02 clipbox
179.774427 255.65883 m
182.397485 255.65883 184.913461 256.700981 186.768243 258.555763 c
188.623024 260.410544 189.665176 262.926521 189.665176 265.549578 c
189.665176 268.172635 188.623024 270.688612 186.768243 272.543394 c
184.913461 274.398175 182.397485 275.440327 179.774427 275.440327 c
177.15137 275.440327 174.635394 274.398175 172.780612 272.543394 c
170.925831 270.688612 169.883679 268.172635 169.883679 265.549578 c
169.883679 262.926521 170.925831 260.410544 172.780612 258.555763 c
174.635394 256.700981 177.15137 255.65883 179.774427 255.65883 c
cl
stroke
grestore
gsave
268.5 266.1 101.9 38.02 clipbox
179.774427 234.228874 m
182.397485 234.228874 184.913461 235.271026 186.768243 237.125808 c
188.623024 238.980589 189.665176 241.496566 189.665176 244.119623 c
189.665176 246.74268 188.623024 249.258657 186.768243 251.113438 c
184.913461 252.96822 182.397485 254.010372 179.774427 254.010372 c
177.15137 254.010372 174.635394 252.96822 172.780612 251.113438 c
170.925831 249.258657 169.883679 246.74268 169.883679 244.119623 c
169.883679 241.496566 170.925831 238.980589 172.780612 237.125808 c
174.635394 235.271026 177.15137 234.228874 179.774427 234.228874 c
cl
stroke
grestore
gsave
268.5 266.1 101.9 38.02 clipbox
179.774427 212.798919 m
182.397485 212.798919 184.913461 213.841071 186.768243 215.695852 c
188.623024 217.550634 189.665176 220.066611 189.665176 222.689668 c
189.665176 225.312725 188.623024 227.828702 186.768243 229.683483 c
184.913461 231.538265 182.397485 232.580416 179.774427 232.580416 c
177.15137 232.580416 174.635394 231.538265 172.780612 229.683483 c
170.925831 227.828702 169.883679 225.312725 169.883679 222.689668 c
169.883679 220.066611 170.925831 217.550634 172.780612 215.695852 c
174.635394 213.841071 177.15137 212.798919 179.774427 212.798919 c
cl
stroke
grestore
gsave
268.5 266.1 101.9 38.02 clipbox
179.774427 191.368964 m
182.397485 191.368964 184.913461 192.411116 186.768243 194.265897 c
188.623024 196.120679 189.665176 198.636655 189.665176 201.259713 c
189.665176 203.88277 188.623024 206.398746 186.768243 208.253528 c
184.913461 210.108309 182.397485 211.150461 179.774427 211.150461 c
177.15137 211.150461 174.635394 210.108309 172.780612 208.253528 c
170.925831 206.398746 169.883679 203.88277 169.883679 201.259713 c
169.883679 198.636655 170.925831 196.120679 172.780612 194.265897 c
174.635394 192.411116 177.15137 191.368964 179.774427 191.368964 c
cl
stroke
grestore
gsave
268.5 266.1 101.9 38.02 clipbox
179.774427 169.939009 m
182.397485 169.939009 184.913461 170.981161 186.768243 172.835942 c
188.623024 174.690724 189.665176 177.2067 189.665176 179.829757 c
189.665176 182.452815 188.623024 184.968791 186.768243 186.823573 c
184.913461 188.678354 182.397485 189.720506 179.774427 189.720506 c
177.15137 189.720506 174.635394 188.678354 172.780612 186.823573 c
170.925831 184.968791 169.883679 182.452815 169.883679 179.829757 c
169.883679 177.2067 170.925831 174.690724 172.780612 172.835942 c
174.635394 170.981161 177.15137 169.939009 179.774427 169.939009 c
cl
stroke
grestore
gsave
268.5 266.1 101.9 38.02 clipbox
179.774427 148.509054 m
182.397485 148.509054 184.913461 149.551205 186.768243 151.405987 c
188.623024 153.260768 189.665176 155.776745 189.665176 158.399802 c
189.665176 161.022859 188.623024 163.538836 186.768243 165.393618 c
184.913461 167.248399 182.397485 168.290551 179.774427 168.290551 c
177.15137 168.290551 174.635394 167.248399 172.780612 165.393618 c
170.925831 163.538836 169.883679 161.022859 169.883679 158.399802 c
169.883679 155.776745 170.925831 153.260768 172.780612 151.405987 c
174.635394 149.551205 177.15137 148.509054 179.774427 148.509054 c
cl
stroke
grestore
gsave
268.5 266.1 101.9 38.02 clipbox
179.774427 127.079099 m
182.397485 127.079099 184.913461 128.12125 186.768243 129.976032 c
188.623024 131.830813 189.665176 134.34679 189.665176 136.969847 c
189.665176 139.592904 188.623024 142.108881 186.768243 143.963662 c
184.913461 145.818444 182.397485 146.860596 179.774427 146.860596 c
177.15137 146.860596 174.635394 145.818444 172.780612 143.963662 c
170.925831 142.108881 169.883679 139.592904 169.883679 136.969847 c
169.883679 134.34679 170.925831 131.830813 172.780612 129.976032 c
174.635394 128.12125 177.15137 127.079099 179.774427 127.079099 c
cl
stroke
grestore
0.000 0.500 0.000 setrgbcolor
gsave
268.5 266.1 101.9 38.02 clipbox
179.774427 105.649143 m
182.397485 105.649143 184.913461 106.691295 186.768243 108.546077 c
188.623024 110.400858 189.665176 112.916835 189.665176 115.539892 c
189.665176 118.162949 188.623024 120.678926 186.768243 122.533707 c
184.913461 124.388489 182.397485 125.43064 179.774427 125.43064 c
177.15137 125.43064 174.635394 124.388489 172.780612 122.533707 c
170.925831 120.678926 169.883679 118.162949 169.883679 115.539892 c
169.883679 112.916835 170.925831 110.400858 172.780612 108.546077 c
174.635394 106.691295 177.15137 105.649143 179.774427 105.649143 c
cl
stroke
grestore
gsave
268.5 266.1 101.9 38.02 clipbox
201.204383 105.649143 m
203.82744 105.649143 206.343417 106.691295 208.198198 108.546077 c
210.05298 110.400858 211.095131 112.916835 211.095131 115.539892 c
211.095131 118.162949 210.05298 120.678926 208.198198 122.533707 c
206.343417 124.388489 203.82744 125.43064 201.204383 125.43064 c
198.581325 125.43064 196.065349 124.388489 194.210567 122.533707 c
192.355786 120.678926 191.313634 118.162949 191.313634 115.539892 c
191.313634 112.916835 192.355786 110.400858 194.210567 108.546077 c
196.065349 106.691295 198.581325 105.649143 201.204383 105.649143 c
cl
stroke
grestore
gsave
268.5 266.1 101.9 38.02 clipbox
222.634338 105.649143 m
225.257395 105.649143 227.773372 106.691295 229.628153 108.546077 c
231.482935 110.400858 232.525086 112.916835 232.525086 115.539892 c
232.525086 118.162949 231.482935 120.678926 229.628153 122.533707 c
227.773372 124.388489 225.257395 125.43064 222.634338 125.43064 c
220.011281 125.43064 217.495304 124.388489 215.640522 122.533707 c
213.785741 120.678926 212.743589 118.162949 212.743589 115.539892 c
212.743589 112.916835 213.785741 110.400858 215.640522 108.546077 c
217.495304 106.691295 220.011281 105.649143 222.634338 105.649143 c
cl
stroke
grestore
gsave
268.5 266.1 101.9 38.02 clipbox
222.634338 127.079099 m
225.257395 127.079099 227.773372 128.12125 229.628153 129.976032 c
231.482935 131.830813 232.525086 134.34679 232.525086 136.969847 c
232.525086 139.592904 231.482935 142.108881 229.628153 143.963662 c
227.773372 145.818444 225.257395 146.860596 222.634338 146.860596 c
220.011281 146.860596 217.495304 145.818444 215.640522 143.963662 c
213.785741 142.108881 212.743589 139.592904 212.743589 136.969847 c
212.743589 134.34679 213.785741 131.830813 215.640522 129.976032 c
217.495304 128.12125 220.011281 127.079099 222.634338 127.079099 c
cl
stroke
grestore
gsave
268.5 266.1 101.9 38.02 clipbox
222.634338 148.509054 m
225.257395 148.509054 227.773372 149.551205 229.628153 151.405987 c
231.482935 153.260768 232.525086 155.776745 232.525086 158.399802 c
232.525086 161.022859 231.482935 163.538836 229.628153 165.393618 c
227.773372 167.248399 225.257395 168.290551 222.634338 168.290551 c
220.011281 168.290551 217.495304 167.248399 215.640522 165.393618 c
213.785741 163.538836 212.743589 161.022859 212.743589 158.399802 c
212.743589 155.776745 213.785741 153.260768 215.640522 151.405987 c
217.495304 149.551205 220.011281 148.509054 222.634338 148.509054 c
cl
stroke
grestore
gsave
268.5 266.1 101.9 38.02 clipbox
222.634338 169.939009 m
225.257395 169.939009 227.773372 170.981161 229.628153 172.835942 c
231.482935 174.690724 232.525086 177.2067 232.525086 179.829757 c
232.525086 182.452815 231.482935 184.968791 229.628153 186.823573 c
227.773372 188.678354 225.257395 189.720506 222.634338 189.720506 c
220.011281 189.720506 217.495304 188.678354 215.640522 186.823573 c
213.785741 184.968791 212.743589 182.452815 212.743589 179.829757 c
212.743589 177.2067 213.785741 174.690724 215.640522 172.835942 c
217.495304 170.981161 220.011281 169.939009 222.634338 169.939009 c
cl
stroke
grestore
gsave
268.5 266.1 101.9 38.02 clipbox
222.634338 191.368964 m
225.257395 191.368964 227.773372 192.411116 229.628153 194.265897 c
231.482935 196.120679 232.525086 198.636655 232.525086 201.259713 c
232.525086 203.88277 231.482935 206.398746 229.628153 208.253528 c
227.773372 210.108309 225.257395 211.150461 222.634338 211.150461 c
220.011281 211.150461 217.495304 210.108309 215.640522 208.253528 c
213.785741 206.398746 212.743589 203.88277 212.743589 201.259713 c
212.743589 198.636655 213.785741 196.120679 215.640522 194.265897 c
217.495304 192.411116 220.011281 191.368964 222.634338 191.368964 c
cl
stroke
grestore
gsave
268.5 266.1 101.9 38.02 clipbox
222.634338 212.798919 m
225.257395 212.798919 227.773372 213.841071 229.628153 215.695852 c
231.482935 217.550634 232.525086 220.066611 232.525086 222.689668 c
232.525086 225.312725 231.482935 227.828702 229.628153 229.683483 c
227.773372 231.538265 225.257395 232.580416 222.634338 232.580416 c
220.011281 232.580416 217.495304 231.538265 215.640522 229.683483 c
213.785741 227.828702 212.743589 225.312725 212.743589 222.689668 c
212.743589 220.066611 213.785741 217.550634 215.640522 215.695852 c
217.495304 213.841071 220.011281 212.798919 222.634338 212.798919 c
cl
stroke
grestore
gsave
268.5 266.1 101.9 38.02 clipbox
222.634338 234.228874 m
225.257395 234.228874 227.773372 235.271026 229.628153 237.125808 c
231.482935 238.980589 232.525086 241.496566 232.525086 244.119623 c
232.525086 246.74268 231.482935 249.258657 229.628153 251.113438 c
227.773372 252.96822 225.257395 254.010372 222.634338 254.010372 c
220.011281 254.010372 217.495304 252.96822 215.640522 251.113438 c
213.785741 249.258657 212.743589 246.74268 212.743589 244.119623 c
212.743589 241.496566 213.785741 238.980589 215.640522 237.125808 c
217.495304 235.271026 220.011281 234.228874 222.634338 234.228874 c
cl
stroke
grestore
gsave
268.5 266.1 101.9 38.02 clipbox
222.634338 255.65883 m
225.257395 255.65883 227.773372 256.700981 229.628153 258.555763 c
231.482935 260.410544 232.525086 262.926521 232.525086 265.549578 c
232.525086 268.172635 231.482935 270.688612 229.628153 272.543394 c
227.773372 274.398175 225.257395 275.440327 222.634338 275.440327 c
220.011281 275.440327 217.495304 274.398175 215.640522 272.543394 c
213.785741 270.688612 212.743589 268.172635 212.743589 265.549578 c
212.743589 262.926521 213.785741 260.410544 215.640522 258.555763 c
217.495304 256.700981 220.011281 255.65883 222.634338 255.65883 c
cl
stroke
grestore
gsave
268.5 266.1 101.9 38.02 clipbox
222.634338 277.088785 m
225.257395 277.088785 227.773372 278.130936 229.628153 279.985718 c
231.482935 281.840499 232.525086 284.356476 232.525086 286.979533 c
232.525086 289.602591 231.482935 292.118567 229.628153 293.973349 c
227.773372 295.82813 225.257395 296.870282 222.634338 296.870282 c
220.011281 296.870282 217.495304 295.82813 215.640522 293.973349 c
213.785741 292.118567 212.743589 289.602591 212.743589 286.979533 c
212.743589 284.356476 213.785741 281.840499 215.640522 279.985718 c
217.495304 278.130936 220.011281 277.088785 222.634338 277.088785 c
cl
stroke
grestore
gsave
268.5 266.1 101.9 38.02 clipbox
244.064293 277.088785 m
246.68735 277.088785 249.203327 278.130936 251.058108 279.985718 c
252.91289 281.840499 253.955042 284.356476 253.955042 286.979533 c
253.955042 289.602591 252.91289 292.118567 251.058108 293.973349 c
249.203327 295.82813 246.68735 296.870282 244.064293 296.870282 c
241.441236 296.870282 238.925259 295.82813 237.070478 293.973349 c
235.215696 292.118567 234.173544 289.602591 234.173544 286.979533 c
234.173544 284.356476 235.215696 281.840499 237.070478 279.985718 c
238.925259 278.130936 241.441236 277.088785 244.064293 277.088785 c
cl
stroke
grestore
gsave
268.5 266.1 101.9 38.02 clipbox
265.494248 277.088785 m
268.117305 277.088785 270.633282 278.130936 272.488064 279.985718 c
274.342845 281.840499 275.384997 284.356476 275.384997 286.979533 c
275.384997 289.602591 274.342845 292.118567 272.488064 293.973349 c
270.633282 295.82813 268.117305 296.870282 265.494248 296.870282 c
262.871191 296.870282 260.355214 295.82813 258.500433 293.973349 c
256.645651 292.118567 255.6035 289.602591 255.6035 286.979533 c
255.6035 284.356476 256.645651 281.840499 258.500433 279.985718 c
260.355214 278.130936 262.871191 277.088785 265.494248 277.088785 c
cl
stroke
grestore
gsave
268.5 266.1 101.9 38.02 clipbox
265.494248 255.65883 m
268.117305 255.65883 270.633282 256.700981 272.488064 258.555763 c
274.342845 260.410544 275.384997 262.926521 275.384997 265.549578 c
275.384997 268.172635 274.342845 270.688612 272.488064 272.543394 c
270.633282 274.398175 268.117305 275.440327 265.494248 275.440327 c
262.871191 275.440327 260.355214 274.398175 258.500433 272.543394 c
256.645651 270.688612 255.6035 268.172635 255.6035 265.549578 c
255.6035 262.926521 256.645651 260.410544 258.500433 258.555763 c
260.355214 256.700981 262.871191 255.65883 265.494248 255.65883 c
cl
stroke
grestore
gsave
268.5 266.1 101.9 38.02 clipbox
265.494248 234.228874 m
268.117305 234.228874 270.633282 235.271026 272.488064 237.125808 c
274.342845 238.980589 275.384997 241.496566 275.384997 244.119623 c
275.384997 246.74268 274.342845 249.258657 272.488064 251.113438 c
270.633282 252.96822 268.117305 254.010372 265.494248 254.010372 c
262.871191 254.010372 260.355214 252.96822 258.500433 251.113438 c
256.645651 249.258657 255.6035 246.74268 255.6035 244.119623 c
255.6035 241.496566 256.645651 238.980589 258.500433 237.125808 c
260.355214 235.271026 262.871191 234.228874 265.494248 234.228874 c
cl
stroke
grestore
gsave
268.5 266.1 101.9 38.02 clipbox
265.494248 212.798919 m
268.117305 212.798919 270.633282 213.841071 272.488064 215.695852 c
274.342845 217.550634 275.384997 220.066611 275.384997 222.689668 c
275.384997 225.312725 274.342845 227.828702 272.488064 229.683483 c
270.633282 231.538265 268.117305 232.580416 265.494248 232.580416 c
262.871191 232.580416 260.355214 231.538265 258.500433 229.683483 c
256.645651 227.828702 255.6035 225.312725 255.6035 222.689668 c
255.6035 220.066611 256.645651 217.550634 258.500433 215.695852 c
260.355214 213.841071 262.871191 212.798919 265.494248 212.798919 c
cl
stroke
grestore
gsave
268.5 266.1 101.9 38.02 clipbox
265.494248 191.368964 m
268.117305 191.368964 270.633282 192.411116 272.488064 194.265897 c
274.342845 196.120679 275.384997 198.636655 275.384997 201.259713 c
275.384997 203.88277 274.342845 206.398746 272.488064 208.253528 c
270.633282 210.108309 268.117305 211.150461 265.494248 211.150461 c
262.871191 211.150461 260.355214 210.108309 258.500433 208.253528 c
256.645651 206.398746 255.6035 203.88277 255.6035 201.259713 c
255.6035 198.636655 256.645651 196.120679 258.500433 194.265897 c
260.355214 192.411116 262.871191 191.368964 265.494248 191.368964 c
cl
stroke
grestore
gsave
268.5 266.1 101.9 38.02 clipbox
265.494248 169.939009 m
268.117305 169.939009 270.633282 170.981161 272.488064 172.835942 c
274.342845 174.690724 275.384997 177.2067 275.384997 179.829757 c
275.384997 182.452815 274.342845 184.968791 272.488064 186.823573 c
270.633282 188.678354 268.117305 189.720506 265.494248 189.720506 c
262.871191 189.720506 260.355214 188.678354 258.500433 186.823573 c
256.645651 184.968791 255.6035 182.452815 255.6035 179.829757 c
255.6035 177.2067 256.645651 174.690724 258.500433 172.835942 c
260.355214 170.981161 262.871191 169.939009 265.494248 169.939009 c
cl
stroke
grestore
gsave
268.5 266.1 101.9 38.02 clipbox
265.494248 148.509054 m
268.117305 148.509054 270.633282 149.551205 272.488064 151.405987 c
274.342845 153.260768 275.384997 155.776745 275.384997 158.399802 c
275.384997 161.022859 274.342845 163.538836 272.488064 165.393618 c
270.633282 167.248399 268.117305 168.290551 265.494248 168.290551 c
262.871191 168.290551 260.355214 167.248399 258.500433 165.393618 c
256.645651 163.538836 255.6035 161.022859 255.6035 158.399802 c
255.6035 155.776745 256.645651 153.260768 258.500433 151.405987 c
260.355214 149.551205 262.871191 148.509054 265.494248 148.509054 c
cl
stroke
grestore
gsave
268.5 266.1 101.9 38.02 clipbox
265.494248 127.079099 m
268.117305 127.079099 270.633282 128.12125 272.488064 129.976032 c
274.342845 131.830813 275.384997 134.34679 275.384997 136.969847 c
275.384997 139.592904 274.342845 142.108881 272.488064 143.963662 c
270.633282 145.818444 268.117305 146.860596 265.494248 146.860596 c
262.871191 146.860596 260.355214 145.818444 258.500433 143.963662 c
256.645651 142.108881 255.6035 139.592904 255.6035 136.969847 c
255.6035 134.34679 256.645651 131.830813 258.500433 129.976032 c
260.355214 128.12125 262.871191 127.079099 265.494248 127.079099 c
cl
stroke
grestore
0.000 setgray
gsave
268.5 266.1 101.9 38.02 clipbox
265.494248 105.649143 m
268.117305 105.649143 270.633282 106.691295 272.488064 108.546077 c
274.342845 110.400858 275.384997 112.916835 275.384997 115.539892 c
275.384997 118.162949 274.342845 120.678926 272.488064 122.533707 c
270.633282 124.388489 268.117305 125.43064 265.494248 125.43064 c
262.871191 125.43064 260.355214 124.388489 258.500433 122.533707 c
256.645651 120.678926 255.6035 118.162949 255.6035 115.539892 c
255.6035 112.916835 256.645651 110.400858 258.500433 108.546077 c
260.355214 106.691295 262.871191 105.649143 265.494248 105.649143 c
cl
stroke
grestore
gsave
268.5 266.1 101.9 38.02 clipbox
286.924203 105.649143 m
289.547261 105.649143 292.063237 106.691295 293.918019 108.546077 c
295.7728 110.400858 296.814952 112.916835 296.814952 115.539892 c
296.814952 118.162949 295.7728 120.678926 293.918019 122.533707 c
292.063237 124.388489 289.547261 125.43064 286.924203 125.43064 c
284.301146 125.43064 281.78517 124.388489 279.930388 122.533707 c
278.075606 120.678926 277.033455 118.162949 277.033455 115.539892 c
277.033455 112.916835 278.075606 110.400858 279.930388 108.546077 c
281.78517 106.691295 284.301146 105.649143 286.924203 105.649143 c
cl
stroke
grestore
gsave
268.5 266.1 101.9 38.02 clipbox
308.354159 105.649143 m
310.977216 105.649143 313.493192 106.691295 315.347974 108.546077 c
317.202755 110.400858 318.244907 112.916835 318.244907 115.539892 c
318.244907 118.162949 317.202755 120.678926 315.347974 122.533707 c
313.493192 124.388489 310.977216 125.43064 308.354159 125.43064 c
305.731101 125.43064 303.215125 124.388489 301.360343 122.533707 c
299.505562 120.678926 298.46341 118.162949 298.46341 115.539892 c
298.46341 112.916835 299.505562 110.400858 301.360343 108.546077 c
303.215125 106.691295 305.731101 105.649143 308.354159 105.649143 c
cl
stroke
grestore
gsave
268.5 266.1 101.9 38.02 clipbox
308.354159 127.079099 m
310.977216 127.079099 313.493192 128.12125 315.347974 129.976032 c
317.202755 131.830813 318.244907 134.34679 318.244907 136.969847 c
318.244907 139.592904 317.202755 142.108881 315.347974 143.963662 c
313.493192 145.818444 310.977216 146.860596 308.354159 146.860596 c
305.731101 146.860596 303.215125 145.818444 301.360343 143.963662 c
299.505562 142.108881 298.46341 139.592904 298.46341 136.969847 c
298.46341 134.34679 299.505562 131.830813 301.360343 129.976032 c
303.215125 128.12125 305.731101 127.079099 308.354159 127.079099 c
cl
stroke
grestore
gsave
268.5 266.1 101.9 38.02 clipbox
308.354159 148.509054 m
310.977216 148.509054 313.493192 149.551205 315.347974 151.405987 c
317.202755 153.260768 318.244907 155.776745 318.244907 158.399802 c
318.244907 161.022859 317.202755 163.538836 315.347974 165.393618 c
313.493192 167.248399 310.977216 168.290551 308.354159 168.290551 c
305.731101 168.290551 303.215125 167.248399 301.360343 165.393618 c
299.505562 163.538836 298.46341 161.022859 298.46341 158.399802 c
298.46341 155.776745 299.505562 153.260768 301.360343 151.405987 c
303.215125 149.551205 305.731101 148.509054 308.354159 148.509054 c
cl
stroke
grestore
gsave
268.5 266.1 101.9 38.02 clipbox
308.354159 169.939009 m
310.977216 169.939009 313.493192 170.981161 315.347974 172.835942 c
317.202755 174.690724 318.244907 177.2067 318.244907 179.829757 c
318.244907 182.452815 317.202755 184.968791 315.347974 186.823573 c
313.493192 188.678354 310.977216 189.720506 308.354159 189.720506 c
305.731101 189.720506 303.215125 188.678354 301.360343 186.823573 c
299.505562 184.968791 298.46341 182.452815 298.46341 179.829757 c
298.46341 177.2067 299.505562 174.690724 301.360343 172.835942 c
303.215125 170.981161 305.731101 169.939009 308.354159 169.939009 c
cl
stroke
grestore
gsave
268.5 266.1 101.9 38.02 clipbox
308.354159 191.368964 m
310.977216 191.368964 313.493192 192.411116 315.347974 194.265897 c
317.202755 196.120679 318.244907 198.636655 318.244907 201.259713 c
318.244907 203.88277 317.202755 206.398746 315.347974 208.253528 c
313.493192 210.108309 310.977216 211.150461 308.354159 211.150461 c
305.731101 211.150461 303.215125 210.108309 301.360343 208.253528 c
299.505562 206.398746 298.46341 203.88277 298.46341 201.259713 c
298.46341 198.636655 299.505562 196.120679 301.360343 194.265897 c
303.215125 192.411116 305.731101 191.368964 308.354159 191.368964 c
cl
stroke
grestore
gsave
268.5 266.1 101.9 38.02 clipbox
308.354159 212.798919 m
310.977216 212.798919 313.493192 213.841071 315.347974 215.695852 c
317.202755 217.550634 318.244907 220.066611 318.244907 222.689668 c
318.244907 225.312725 317.202755 227.828702 315.347974 229.683483 c
313.493192 231.538265 310.977216 232.580416 308.354159 232.580416 c
305.731101 232.580416 303.215125 231.538265 301.360343 229.683483 c
299.505562 227.828702 298.46341 225.312725 298.46341 222.689668 c
298.46341 220.066611 299.505562 217.550634 301.360343 215.695852 c
303.215125 213.841071 305.731101 212.798919 308.354159 212.798919 c
cl
stroke
grestore
gsave
268.5 266.1 101.9 38.02 clipbox
308.354159 234.228874 m
310.977216 234.228874 313.493192 235.271026 315.347974 237.125808 c
317.202755 238.980589 318.244907 241.496566 318.244907 244.119623 c
318.244907 246.74268 317.202755 249.258657 315.347974 251.113438 c
313.493192 252.96822 310.977216 254.010372 308.354159 254.010372 c
305.731101 254.010372 303.215125 252.96822 301.360343 251.113438 c
299.505562 249.258657 298.46341 246.74268 298.46341 244.119623 c
298.46341 241.496566 299.505562 238.980589 301.360343 237.125808 c
303.215125 235.271026 305.731101 234.228874 308.354159 234.228874 c
cl
stroke
grestore
gsave
268.5 266.1 101.9 38.02 clipbox
308.354159 255.65883 m
310.977216 255.65883 313.493192 256.700981 315.347974 258.555763 c
317.202755 260.410544 318.244907 262.926521 318.244907 265.549578 c
318.244907 268.172635 317.202755 270.688612 315.347974 272.543394 c
313.493192 274.398175 310.977216 275.440327 308.354159 275.440327 c
305.731101 275.440327 303.215125 274.398175 301.360343 272.543394 c
299.505562 270.688612 298.46341 268.172635 298.46341 265.549578 c
298.46341 262.926521 299.505562 260.410544 301.360343 258.555763 c
303.215125 256.700981 305.731101 255.65883 308.354159 255.65883 c
cl
stroke
grestore
gsave
268.5 266.1 101.9 38.02 clipbox
308.354159 277.088785 m
310.977216 277.088785 313.493192 278.130936 315.347974 279.985718 c
317.202755 281.840499 318.244907 284.356476 318.244907 286.979533 c
318.244907 289.602591 317.202755 292.118567 315.347974 293.973349 c
313.493192 295.82813 310.977216 296.870282 308.354159 296.870282 c
305.731101 296.870282 303.215125 295.82813 301.360343 293.973349 c
299.505562 292.118567 298.46341 289.602591 298.46341 286.979533 c
298.46341 284.356476 299.505562 281.840499 301.360343 279.985718 c
303.215125 278.130936 305.731101 277.088785 308.354159 277.088785 c
cl
stroke
grestore
gsave
268.5 266.1 101.9 38.02 clipbox
329.784114 277.088785 m
332.407171 277.088785 334.923148 278.130936 336.777929 279.985718 c
338.632711 281.840499 339.674862 284.356476 339.674862 286.979533 c
339.674862 289.602591 338.632711 292.118567 336.777929 293.973349 c
334.923148 295.82813 332.407171 296.870282 329.784114 296.870282 c
327.161057 296.870282 324.64508 295.82813 322.790298 293.973349 c
320.935517 292.118567 319.893365 289.602591 319.893365 286.979533 c
319.893365 284.356476 320.935517 281.840499 322.790298 279.985718 c
324.64508 278.130936 327.161057 277.088785 329.784114 277.088785 c
cl
stroke
grestore
gsave
268.5 266.1 101.9 38.02 clipbox
351.214069 277.088785 m
353.837126 277.088785 356.353103 278.130936 358.207884 279.985718 c
360.062666 281.840499 361.104817 284.356476 361.104817 286.979533 c
361.104817 289.602591 360.062666 292.118567 358.207884 293.973349 c
356.353103 295.82813 353.837126 296.870282 351.214069 296.870282 c
348.591012 296.870282 346.075035 295.82813 344.220254 293.973349 c
342.365472 292.118567 341.32332 289.602591 341.32332 286.979533 c
341.32332 284.356476 342.365472 281.840499 344.220254 279.985718 c
346.075035 278.130936 348.591012 277.088785 351.214069 277.088785 c
cl
stroke
grestore
gsave
268.5 266.1 101.9 38.02 clipbox
351.214069 255.65883 m
353.837126 255.65883 356.353103 256.700981 358.207884 258.555763 c
360.062666 260.410544 361.104817 262.926521 361.104817 265.549578 c
361.104817 268.172635 360.062666 270.688612 358.207884 272.543394 c
356.353103 274.398175 353.837126 275.440327 351.214069 275.440327 c
348.591012 275.440327 346.075035 274.398175 344.220254 272.543394 c
342.365472 270.688612 341.32332 268.172635 341.32332 265.549578 c
341.32332 262.926521 342.365472 260.410544 344.220254 258.555763 c
346.075035 256.700981 348.591012 255.65883 351.214069 255.65883 c
cl
stroke
grestore
gsave
268.5 266.1 101.9 38.02 clipbox
351.214069 234.228874 m
353.837126 234.228874 356.353103 235.271026 358.207884 237.125808 c
360.062666 238.980589 361.104817 241.496566 361.104817 244.119623 c
361.104817 246.74268 360.062666 249.258657 358.207884 251.113438 c
356.353103 252.96822 353.837126 254.010372 351.214069 254.010372 c
348.591012 254.010372 346.075035 252.96822 344.220254 251.113438 c
342.365472 249.258657 341.32332 246.74268 341.32332 244.119623 c
341.32332 241.496566 342.365472 238.980589 344.220254 237.125808 c
346.075035 235.271026 348.591012 234.228874 351.214069 234.228874 c
cl
stroke
grestore
gsave
268.5 266.1 101.9 38.02 clipbox
351.214069 212.798919 m
353.837126 212.798919 356.353103 213.841071 358.207884 215.695852 c
360.062666 217.550634 361.104817 220.066611 361.104817 222.689668 c
361.104817 225.312725 360.062666 227.828702 358.207884 229.683483 c
356.353103 231.538265 353.837126 232.580416 351.214069 232.580416 c
348.591012 232.580416 346.075035 231.538265 344.220254 229.683483 c
342.365472 227.828702 341.32332 225.312725 341.32332 222.689668 c
341.32332 220.066611 342.365472 217.550634 344.220254 215.695852 c
346.075035 213.841071 348.591012 212.798919 351.214069 212.798919 c
cl
stroke
grestore
gsave
268.5 266.1 101.9 38.02 clipbox
351.214069 191.368964 m
353.837126 191.368964 356.353103 192.411116 358.207884 194.265897 c
360.062666 196.120679 361.104817 198.636655 361.104817 201.259713 c
361.104817 203.88277 360.062666 206.398746 358.207884 208.253528 c
356.353103 210.108309 353.837126 211.150461 351.214069 211.150461 c
348.591012 211.150461 346.075035 210.108309 344.220254 208.253528 c
342.365472 206.398746 341.32332 203.88277 341.32332 201.259713 c
341.32332 198.636655 342.365472 196.120679 344.220254 194.265897 c
346.075035 192.411116 348.591012 191.368964 351.214069 191.368964 c
cl
stroke
grestore
gsave
268.5 266.1 101.9 38.02 clipbox
351.214069 169.939009 m
353.837126 169.939009 356.353103 170.981161 358.207884 172.835942 c
360.062666 174.690724 361.104817 177.2067 361.104817 179.829757 c
361.104817 182.452815 360.062666 184.968791 358.207884 186.823573 c
356.353103 188.678354 353.837126 189.720506 351.214069 189.720506 c
348.591012 189.720506 346.075035 188.678354 344.220254 186.823573 c
342.365472 184.968791 341.32332 182.452815 341.32332 179.829757 c
341.32332 177.2067 342.365472 174.690724 344.220254 172.835942 c
346.075035 170.981161 348.591012 169.939009 351.214069 169.939009 c
cl
stroke
grestore
gsave
268.5 266.1 101.9 38.02 clipbox
351.214069 148.509054 m
353.837126 148.509054 356.353103 149.551205 358.207884 151.405987 c
360.062666 153.260768 361.104817 155.776745 361.104817 158.399802 c
361.104817 161.022859 360.062666 163.538836 358.207884 165.393618 c
356.353103 167.248399 353.837126 168.290551 351.214069 168.290551 c
348.591012 168.290551 346.075035 167.248399 344.220254 165.393618 c
342.365472 163.538836 341.32332 161.022859 341.32332 158.399802 c
341.32332 155.776745 342.365472 153.260768 344.220254 151.405987 c
346.075035 149.551205 348.591012 148.509054 351.214069 148.509054 c
cl
stroke
grestore
gsave
268.5 266.1 101.9 38.02 clipbox
351.214069 127.079099 m
353.837126 127.079099 356.353103 128.12125 358.207884 129.976032 c
360.062666 131.830813 361.104817 134.34679 361.104817 136.969847 c
361.104817 139.592904 360.062666 142.108881 358.207884 143.963662 c
356.353103 145.818444 353.837126 146.860596 351.214069 146.860596 c
348.591012 146.860596 346.075035 145.818444 344.220254 143.963662 c
342.365472 142.108881 341.32332 139.592904 341.32332 136.969847 c
341.32332 134.34679 342.365472 131.830813 344.220254 129.976032 c
346.075035 128.12125 348.591012 127.079099 351.214069 127.079099 c
cl
stroke
grestore
/DejaVuSans findfont
10.000 scalefont
setfont
gsave
232.730312 26.422250 translate
0.000000 rotate
0.000000 0.000000 m /X glyphshow
grestore
gsave
95.820333 168.017312 translate
90.000000 rotate
0.000000 0.000000 m /Y glyphshow
grestore
1 setlinejoin
[] 0 setdash
1.000 0.000 0.000 setrgbcolor
gsave
268.5 266.1 101.9 38.02 clipbox
/o {
gsave
newpath
translate
1.0 setlinewidth
1 setlinejoin
0 setlinecap
0 -1.5 m
0.397805 -1.5 0.77937 -1.341951 1.06066 -1.06066 c
1.341951 -0.77937 1.5 -0.397805 1.5 0 c
1.5 0.397805 1.341951 0.77937 1.06066 1.06066 c
0.77937 1.341951 0.397805 1.5 0 1.5 c
-0.397805 1.5 -0.77937 1.341951 -1.06066 1.06066 c
-1.341951 0.77937 -1.5 0.397805 -1.5 0 c
-1.5 -0.397805 -1.341951 -0.77937 -1.06066 -1.06066 c
-0.77937 -1.341951 -0.397805 -1.5 0 -1.5 c
cl

gsave
1.000 0.000 0.000 setrgbcolor
fill
grestore
stroke
grestore
} bind def
162.931 91.2276 o
116.295 170.444 o
254.975 198.902 o
242.049 96.1814 o
310.912 171.064 o
357.893 197.052 o
299.157 83.7349 o
140.963 291.419 o
240.565 242.068 o
242.831 244.063 o
287.631 52.6724 o
124.852 68.3227 o
301.278 267.587 o
223.606 58.8682 o
197.651 182.524 o
285.266 190.49 o
225.202 156.816 o
198.92 206.991 o
345.654 206.776 o
343.055 282.906 o
267.409 206.769 o
276.411 121.727 o
254.342 66.772 o
280.263 109.994 o
175.804 235.24 o
158.166 179.633 o
163.658 242.321 o
190.198 127.922 o
285.117 141.462 o
324.853 263.687 o
132.424 72.4677 o
131.956 72.2084 o
180.518 250.062 o
326.663 63.1808 o
116.298 58.1606 o
351.722 55.7987 o
248.521 162.061 o
277.306 102.699 o
317.472 271.198 o
197.834 50.112 o
258.254 86.2349 o
340.439 278.443 o
128.686 156.246 o
339.307 107.297 o
251.255 73.6464 o
257.554 90.7253 o
283.321 255.549 o
354.699 187.148 o
213.169 129.23 o
303.339 170.848 o
279.552 63.5548 o
274.176 167.939 o
246.444 174.262 o
130.106 225.509 o
269.353 170.068 o
209.007 101.708 o
167.811 269.005 o
156.325 120.16 o
165.196 61.7074 o
313.506 68.5303 o
249.803 80.0337 o
289.251 59.8123 o
314.223 117.747 o
132.06 142.193 o
153.885 84.6723 o
174.847 92.9797 o
299.434 64.5978 o
303.854 156.143 o
277.983 171.286 o
357.544 274.274 o
203.051 143.007 o
177.833 275.873 o
159.866 174.947 o
177.016 109.595 o
178.174 184.561 o
129.561 244.479 o
226.673 96.9081 o
233.148 240.656 o
308.625 131.074 o
185.766 191.2 o
124.102 188.25 o
301.742 285.907 o
350.289 284.835 o
262.972 192.557 o
299.983 72.3169 o
285.523 177.39 o
272.638 128.898 o
256.461 219.447 o
253.34 146.886 o
202.237 213.235 o
168.618 222.084 o
166.38 285.3 o
194.419 120.758 o
237.52 205.669 o
291.823 227.374 o
358.216 231.908 o
254.852 292.032 o
241.681 88.7148 o
181.023 258.89 o
339.151 72.5779 o
203.589 70.5437 o
173.172 153.668 o
215.757 254.136 o
329.089 142.486 o
165.902 128.714 o
286.331 151.848 o
357.483 268.59 o
115.146 258.83 o
346.091 252.629 o
295.842 102.64 o
136.462 112.329 o
285.402 79.9311 o
199.613 220.715 o
150.605 245.884 o
213.371 171.743 o
118.633 166.211 o
347.676 152.526 o
158.358 55.0366 o
243.677 173.854 o
222.347 207.529 o
353.697 237.804 o
320.933 211.639 o
288.951 279.488 o
273.854 122.882 o
294.813 134.382 o
198.256 287.386 o
315.308 210.623 o
122.886 195.703 o
305.143 266.156 o
114.104 198.774 o
180.481 191.079 o
152.755 54.7014 o
271.719 100.503 o
270.048 81.1805 o
121.708 84.6314 o
343.182 89.2616 o
182.916 76.6852 o
285.842 53.9706 o
263.673 62.4714 o
220.163 148.333 o
147.896 146.643 o
346.605 174.878 o
308.232 71.7278 o
121.46 61.0888 o
162.969 281.338 o
237.955 277.747 o
286.209 289.476 o
188.101 280.256 o
236.322 195.875 o
124.991 118.953 o
253.381 118.442 o
218.659 210.368 o
117.397 174.685 o
293.939 282.408 o
325.218 90.8925 o
135.699 56.5561 o
152.078 115.383 o
173.044 217.751 o
165.927 109.61 o
322.811 180.736 o
144.17 265.116 o
276.716 63.3758 o
316.846 223.516 o
326.706 126.602 o
217.932 99.9708 o
230.358 259.39 o
194.102 129.091 o
336.582 73.6176 o
260.238 143.447 o
188.287 251.461 o
303.343 196.961 o
141.662 164.237 o
189.912 77.5176 o
258.924 88.404 o
118.808 139.018 o
263.6 66.0666 o
322.266 157.71 o
154.375 89.0761 o
212.237 126.774 o
275.764 257.821 o
217.447 59.2018 o
224.707 78.3373 o
205.719 213.876 o
334.189 259.912 o
262.714 267.506 o
187.652 194.106 o
138.177 141.102 o
337.885 132.906 o
277.5 266.052 o
126.238 276.101 o
223.036 139.771 o
321.584 173.706 o
189.108 267.483 o
215.416 177.914 o
188.432 168.133 o
235.336 196.084 o
230.177 74.8596 o
255.9 208.797 o
240.317 155.539 o
209.674 243.741 o
grestore
0.800 setlinewidth
0 setlinejoin
2 setlinecap
[] 0 setdash
0.000 setgray
gsave
101.898458 38.016 m
101.898458 304.128 l
stroke
grestore
gsave
370.421542 38.016 m
370.421542 304.128 l
stroke
grestore
gsave
101.898458 38.016 m
370.421542 38.016 l
stroke
grestore
gsave
101.898458 304.128 m
370.421542 304.128 l
stroke
grestore

end
showpage
