0:1044
1:975
2:1166
3:1421
4:1199
5:1421
6:2695
7:3627
8:5815
9:4966
10:6999
11:7548
12:9344
13:8273
14:5702
15:8273
16:7448
17:5285
18:5762
19:4353
20:7131
21:8965
22:9439
23:7854
24:7851
25:5670
26:4050
27:7854
28:6607
29:9098
30:8659
31:6969
32:5555
33:3813
34:7119
35:9382
36:8948
37:10702
38:7653
39:5182
40:4531
41:5238
42:6623
