0:1026
1:1057
2:1179
3:1217
4:1740
5:1386
6:2349
7:4438
8:6053
9:4883
10:4065
11:7656
12:8344
13:9436
14:5192
15:6919
16:7188
17:6406
18:6295
19:9599
20:7077
21:7752
22:10096
23:7983
24:11100
25:8384
26:6737
27:7738
28:5684
29:8767
30:10877
31:7718
32:6675
33:4804
34:6202
35:9142
36:8083
37:5006
38:6893
39:7169
40:11890
41:8583
