%!PS-Adobe-3.0 EPSF-3.0
%%Title: /home/chris/ssap_ws/results.eps
%%Creator: matplotlib version 2.2.5, http://matplotlib.org/
%%CreationDate: Sat Oct 10 12:15:47 2020
%%Orientation: portrait
%%BoundingBox: 75 223 536 568
%%EndComments
%%BeginProlog
/mpldict 8 dict def
mpldict begin
/m { moveto } bind def
/l { lineto } bind def
/r { rlineto } bind def
/c { curveto } bind def
/cl { closepath } bind def
/box {
m
1 index 0 r
0 exch r
neg 0 r
cl
} bind def
/clipbox {
box
clip
newpath
} bind def
%!PS-Adobe-3.0 Resource-Font
%%Title: DejaVu Sans
%%Copyright: Copyright (c) 2003 by Bitstream, Inc. All Rights Reserved. Copyright (c) 2006 by Tavmjong Bah. All Rights Reserved. DejaVu changes are in public domain 
%%Creator: Converted from TrueType to type 3 by PPR
25 dict begin
/_d{bind def}bind def
/_m{moveto}_d
/_l{lineto}_d
/_cl{closepath eofill}_d
/_c{curveto}_d
/_sc{7 -1 roll{setcachedevice}{pop pop pop pop pop pop}ifelse}_d
/_e{exec}_d
/FontName /DejaVuSans def
/PaintType 0 def
/FontMatrix[.001 0 0 .001 0 0]def
/FontBBox[-1021 -463 1793 1232]def
/FontType 3 def
/Encoding [ /space /parenleft /parenright /hyphen /period /zero /one /two /four /six /eight /A /C /F /H /M /N /O /P /R /S /a /c /d /e /i /l /m /n /o /p /r /s /t /u /z ] def
/FontInfo 10 dict dup begin
/FamilyName (DejaVu Sans) def
/FullName (DejaVu Sans) def
/Notice (Copyright (c) 2003 by Bitstream, Inc. All Rights Reserved. Copyright (c) 2006 by Tavmjong Bah. All Rights Reserved. DejaVu changes are in public domain ) def
/Weight (Book) def
/Version (Version 2.35) def
/ItalicAngle 0.0 def
/isFixedPitch false def
/UnderlinePosition -130 def
/UnderlineThickness 90 def
end readonly def
/CharStrings 37 dict dup begin
/.notdef 0 def
/space{318 0 0 0 0 0 _sc
}_d
/parenleft{390 0 86 -131 310 759 _sc
310 759 _m
266 683 234 609 213 536 _c
191 463 181 389 181 314 _c
181 238 191 164 213 91 _c
234 17 266 -56 310 -131 _c
232 -131 _l
183 -54 146 20 122 94 _c
98 168 86 241 86 314 _c
86 386 98 459 122 533 _c
146 607 182 682 232 759 _c
310 759 _l
_cl}_d
/parenright{390 0 80 -131 304 759 _sc
80 759 _m
158 759 _l
206 682 243 607 267 533 _c
291 459 304 386 304 314 _c
304 241 291 168 267 94 _c
243 20 206 -54 158 -131 _c
80 -131 _l
123 -56 155 17 177 91 _c
198 164 209 238 209 314 _c
209 389 198 463 177 536 _c
155 609 123 683 80 759 _c
_cl}_d
/hyphen{361 0 49 234 312 314 _sc
49 314 _m
312 314 _l
312 234 _l
49 234 _l
49 314 _l
_cl}_d
/period{318 0 107 0 210 124 _sc
107 124 _m
210 124 _l
210 0 _l
107 0 _l
107 124 _l
_cl}_d
/zero{636 0 66 -13 570 742 _sc
318 664 _m
267 664 229 639 203 589 _c
177 539 165 464 165 364 _c
165 264 177 189 203 139 _c
229 89 267 64 318 64 _c
369 64 407 89 433 139 _c
458 189 471 264 471 364 _c
471 464 458 539 433 589 _c
407 639 369 664 318 664 _c
318 742 _m
399 742 461 709 505 645 _c
548 580 570 486 570 364 _c
570 241 548 147 505 83 _c
461 19 399 -13 318 -13 _c
236 -13 173 19 130 83 _c
87 147 66 241 66 364 _c
66 486 87 580 130 645 _c
173 709 236 742 318 742 _c
_cl}_d
/one{636 0 110 0 544 729 _sc
124 83 _m
285 83 _l
285 639 _l
110 604 _l
110 694 _l
284 729 _l
383 729 _l
383 83 _l
544 83 _l
544 0 _l
124 0 _l
124 83 _l
_cl}_d
/two{{636 0 73 0 536 742 _sc
192 83 _m
536 83 _l
536 0 _l
73 0 _l
73 83 _l
110 121 161 173 226 239 _c
290 304 331 346 348 365 _c
380 400 402 430 414 455 _c
426 479 433 504 433 528 _c
433 566 419 598 392 622 _c
365 646 330 659 286 659 _c
255 659 222 653 188 643 _c
154 632 117 616 78 594 _c
78 694 _l
118 710 155 722 189 730 _c
223 738 255 742 284 742 _c
}_e{359 742 419 723 464 685 _c
509 647 532 597 532 534 _c
532 504 526 475 515 449 _c
504 422 484 390 454 354 _c
446 344 420 317 376 272 _c
332 227 271 164 192 83 _c
_cl}_e}_d
/four{636 0 49 0 580 729 _sc
378 643 _m
129 254 _l
378 254 _l
378 643 _l
352 729 _m
476 729 _l
476 254 _l
580 254 _l
580 172 _l
476 172 _l
476 0 _l
378 0 _l
378 172 _l
49 172 _l
49 267 _l
352 729 _l
_cl}_d
/six{{636 0 70 -13 573 742 _sc
330 404 _m
286 404 251 388 225 358 _c
199 328 186 286 186 234 _c
186 181 199 139 225 109 _c
251 79 286 64 330 64 _c
374 64 409 79 435 109 _c
461 139 474 181 474 234 _c
474 286 461 328 435 358 _c
409 388 374 404 330 404 _c
526 713 _m
526 623 _l
501 635 476 644 451 650 _c
425 656 400 659 376 659 _c
310 659 260 637 226 593 _c
}_e{192 549 172 482 168 394 _c
187 422 211 444 240 459 _c
269 474 301 482 336 482 _c
409 482 467 459 509 415 _c
551 371 573 310 573 234 _c
573 159 550 99 506 54 _c
462 9 403 -13 330 -13 _c
246 -13 181 19 137 83 _c
92 147 70 241 70 364 _c
70 479 97 571 152 639 _c
206 707 280 742 372 742 _c
396 742 421 739 447 735 _c
472 730 498 723 526 713 _c
_cl}_e}_d
/eight{{636 0 68 -13 568 742 _sc
318 346 _m
271 346 234 333 207 308 _c
180 283 167 249 167 205 _c
167 161 180 126 207 101 _c
234 76 271 64 318 64 _c
364 64 401 76 428 102 _c
455 127 469 161 469 205 _c
469 249 455 283 429 308 _c
402 333 365 346 318 346 _c
219 388 _m
177 398 144 418 120 447 _c
96 476 85 511 85 553 _c
85 611 105 657 147 691 _c
188 725 245 742 318 742 _c
}_e{390 742 447 725 489 691 _c
530 657 551 611 551 553 _c
551 511 539 476 515 447 _c
491 418 459 398 417 388 _c
464 377 501 355 528 323 _c
554 291 568 251 568 205 _c
568 134 546 80 503 43 _c
459 5 398 -13 318 -13 _c
237 -13 175 5 132 43 _c
89 80 68 134 68 205 _c
68 251 81 291 108 323 _c
134 355 171 377 219 388 _c
183 544 _m
183 506 194 476 218 455 _c
}_e{242 434 275 424 318 424 _c
360 424 393 434 417 455 _c
441 476 453 506 453 544 _c
453 582 441 611 417 632 _c
393 653 360 664 318 664 _c
275 664 242 653 218 632 _c
194 611 183 582 183 544 _c
_cl}_e}_d
/A{684 0 8 0 676 729 _sc
342 632 _m
208 269 _l
476 269 _l
342 632 _l
286 729 _m
398 729 _l
676 0 _l
573 0 _l
507 187 _l
178 187 _l
112 0 _l
8 0 _l
286 729 _l
_cl}_d
/C{{698 0 56 -13 644 742 _sc
644 673 _m
644 569 _l
610 599 575 622 537 638 _c
499 653 460 661 418 661 _c
334 661 270 635 226 584 _c
182 533 160 460 160 364 _c
160 268 182 194 226 143 _c
270 92 334 67 418 67 _c
460 67 499 74 537 90 _c
575 105 610 128 644 159 _c
644 56 _l
609 32 572 15 534 4 _c
496 -7 455 -13 412 -13 _c
302 -13 215 20 151 87 _c
}_e{87 154 56 246 56 364 _c
56 481 87 573 151 641 _c
215 708 302 742 412 742 _c
456 742 497 736 535 725 _c
573 713 610 696 644 673 _c
_cl}_e}_d
/F{575 0 98 0 517 729 _sc
98 729 _m
517 729 _l
517 646 _l
197 646 _l
197 431 _l
486 431 _l
486 348 _l
197 348 _l
197 0 _l
98 0 _l
98 729 _l
_cl}_d
/H{752 0 98 0 654 729 _sc
98 729 _m
197 729 _l
197 430 _l
555 430 _l
555 729 _l
654 729 _l
654 0 _l
555 0 _l
555 347 _l
197 347 _l
197 0 _l
98 0 _l
98 729 _l
_cl}_d
/M{863 0 98 0 765 729 _sc
98 729 _m
245 729 _l
431 233 _l
618 729 _l
765 729 _l
765 0 _l
669 0 _l
669 640 _l
481 140 _l
382 140 _l
194 640 _l
194 0 _l
98 0 _l
98 729 _l
_cl}_d
/N{748 0 98 0 650 729 _sc
98 729 _m
231 729 _l
554 119 _l
554 729 _l
650 729 _l
650 0 _l
517 0 _l
194 610 _l
194 0 _l
98 0 _l
98 729 _l
_cl}_d
/O{787 0 56 -13 731 742 _sc
394 662 _m
322 662 265 635 223 582 _c
181 528 160 456 160 364 _c
160 272 181 199 223 146 _c
265 92 322 66 394 66 _c
465 66 522 92 564 146 _c
606 199 627 272 627 364 _c
627 456 606 528 564 582 _c
522 635 465 662 394 662 _c
394 742 _m
496 742 577 707 639 639 _c
700 571 731 479 731 364 _c
731 248 700 157 639 89 _c
577 21 496 -13 394 -13 _c
291 -13 209 21 148 89 _c
86 157 56 248 56 364 _c
56 479 86 571 148 639 _c
209 707 291 742 394 742 _c
_cl}_d
/P{603 0 98 0 569 729 _sc
197 648 _m
197 374 _l
321 374 _l
367 374 402 385 427 409 _c
452 433 465 467 465 511 _c
465 555 452 588 427 612 _c
402 636 367 648 321 648 _c
197 648 _l
98 729 _m
321 729 _l
402 729 464 710 506 673 _c
548 636 569 582 569 511 _c
569 439 548 384 506 348 _c
464 311 402 293 321 293 _c
197 293 _l
197 0 _l
98 0 _l
98 729 _l
_cl}_d
/R{{695 0 98 0 666 729 _sc
444 342 _m
465 334 486 319 506 296 _c
526 272 546 240 566 199 _c
666 0 _l
560 0 _l
467 187 _l
443 235 419 268 397 284 _c
374 300 343 308 304 308 _c
197 308 _l
197 0 _l
98 0 _l
98 729 _l
321 729 _l
404 729 466 711 507 677 _c
548 642 569 589 569 519 _c
569 473 558 434 537 404 _c
515 374 484 353 444 342 _c
197 648 _m
197 389 _l
321 389 _l
}_e{368 389 404 400 428 422 _c
452 444 465 476 465 519 _c
465 561 452 593 428 615 _c
404 637 368 648 321 648 _c
197 648 _l
_cl}_e}_d
/S{{635 0 66 -13 579 742 _sc
535 705 _m
535 609 _l
497 627 462 640 429 649 _c
395 657 363 662 333 662 _c
279 662 237 651 208 631 _c
179 610 165 580 165 542 _c
165 510 174 485 194 469 _c
213 452 250 439 304 429 _c
364 417 _l
437 403 491 378 526 343 _c
561 307 579 260 579 201 _c
579 130 555 77 508 41 _c
460 5 391 -13 300 -13 _c
265 -13 228 -9 189 -2 _c
}_e{150 5 110 16 69 32 _c
69 134 _l
109 111 148 94 186 83 _c
224 71 262 66 300 66 _c
356 66 399 77 430 99 _c
460 121 476 152 476 194 _c
476 230 465 258 443 278 _c
421 298 385 313 335 323 _c
275 335 _l
201 349 148 372 115 404 _c
82 435 66 478 66 534 _c
66 598 88 649 134 686 _c
179 723 242 742 322 742 _c
356 742 390 739 426 733 _c
461 727 497 717 535 705 _c
}_e{_cl}_e}_d
/a{{613 0 60 -13 522 560 _sc
343 275 _m
270 275 220 266 192 250 _c
164 233 150 205 150 165 _c
150 133 160 107 181 89 _c
202 70 231 61 267 61 _c
317 61 357 78 387 114 _c
417 149 432 196 432 255 _c
432 275 _l
343 275 _l
522 312 _m
522 0 _l
432 0 _l
432 83 _l
411 49 385 25 355 10 _c
325 -5 287 -13 243 -13 _c
187 -13 142 2 109 33 _c
76 64 60 106 60 159 _c
}_e{60 220 80 266 122 298 _c
163 329 224 345 306 345 _c
432 345 _l
432 354 _l
432 395 418 427 391 450 _c
364 472 326 484 277 484 _c
245 484 215 480 185 472 _c
155 464 127 453 100 439 _c
100 522 _l
132 534 164 544 195 550 _c
226 556 256 560 286 560 _c
365 560 424 539 463 498 _c
502 457 522 395 522 312 _c
_cl}_e}_d
/c{{550 0 55 -13 488 560 _sc
488 526 _m
488 442 _l
462 456 437 466 411 473 _c
385 480 360 484 334 484 _c
276 484 230 465 198 428 _c
166 391 150 339 150 273 _c
150 206 166 154 198 117 _c
230 80 276 62 334 62 _c
360 62 385 65 411 72 _c
437 79 462 90 488 104 _c
488 21 _l
462 9 436 0 410 -5 _c
383 -10 354 -13 324 -13 _c
242 -13 176 12 128 64 _c
}_e{79 115 55 185 55 273 _c
55 362 79 432 128 483 _c
177 534 244 560 330 560 _c
358 560 385 557 411 551 _c
437 545 463 537 488 526 _c
_cl}_e}_d
/d{{635 0 55 -13 544 760 _sc
454 464 _m
454 760 _l
544 760 _l
544 0 _l
454 0 _l
454 82 _l
435 49 411 25 382 10 _c
353 -5 319 -13 279 -13 _c
213 -13 159 13 117 65 _c
75 117 55 187 55 273 _c
55 359 75 428 117 481 _c
159 533 213 560 279 560 _c
319 560 353 552 382 536 _c
411 520 435 496 454 464 _c
148 273 _m
148 207 161 155 188 117 _c
215 79 253 61 301 61 _c
}_e{348 61 385 79 413 117 _c
440 155 454 207 454 273 _c
454 339 440 390 413 428 _c
385 466 348 485 301 485 _c
253 485 215 466 188 428 _c
161 390 148 339 148 273 _c
_cl}_e}_d
/e{{615 0 55 -13 562 560 _sc
562 296 _m
562 252 _l
149 252 _l
153 190 171 142 205 110 _c
238 78 284 62 344 62 _c
378 62 412 66 444 74 _c
476 82 509 95 541 113 _c
541 28 _l
509 14 476 3 442 -3 _c
408 -9 373 -13 339 -13 _c
251 -13 182 12 131 62 _c
80 112 55 181 55 268 _c
55 357 79 428 127 481 _c
175 533 241 560 323 560 _c
397 560 455 536 498 489 _c
}_e{540 441 562 377 562 296 _c
472 322 _m
471 371 457 410 431 440 _c
404 469 368 484 324 484 _c
274 484 234 469 204 441 _c
174 413 156 373 152 322 _c
472 322 _l
_cl}_e}_d
/i{278 0 94 0 184 760 _sc
94 547 _m
184 547 _l
184 0 _l
94 0 _l
94 547 _l
94 760 _m
184 760 _l
184 646 _l
94 646 _l
94 760 _l
_cl}_d
/l{278 0 94 0 184 760 _sc
94 760 _m
184 760 _l
184 0 _l
94 0 _l
94 760 _l
_cl}_d
/m{{974 0 91 0 889 560 _sc
520 442 _m
542 482 569 511 600 531 _c
631 550 668 560 711 560 _c
767 560 811 540 842 500 _c
873 460 889 403 889 330 _c
889 0 _l
799 0 _l
799 327 _l
799 379 789 418 771 444 _c
752 469 724 482 686 482 _c
639 482 602 466 575 435 _c
548 404 535 362 535 309 _c
535 0 _l
445 0 _l
445 327 _l
445 379 435 418 417 444 _c
398 469 369 482 331 482 _c
}_e{285 482 248 466 221 435 _c
194 404 181 362 181 309 _c
181 0 _l
91 0 _l
91 547 _l
181 547 _l
181 462 _l
201 495 226 520 255 536 _c
283 552 317 560 357 560 _c
397 560 430 550 458 530 _c
486 510 506 480 520 442 _c
_cl}_e}_d
/n{634 0 91 0 549 560 _sc
549 330 _m
549 0 _l
459 0 _l
459 327 _l
459 379 448 417 428 443 _c
408 469 378 482 338 482 _c
289 482 251 466 223 435 _c
195 404 181 362 181 309 _c
181 0 _l
91 0 _l
91 547 _l
181 547 _l
181 462 _l
202 494 227 519 257 535 _c
286 551 320 560 358 560 _c
420 560 468 540 500 501 _c
532 462 549 405 549 330 _c
_cl}_d
/o{612 0 55 -13 557 560 _sc
306 484 _m
258 484 220 465 192 427 _c
164 389 150 338 150 273 _c
150 207 163 156 191 118 _c
219 80 257 62 306 62 _c
354 62 392 80 420 118 _c
448 156 462 207 462 273 _c
462 337 448 389 420 427 _c
392 465 354 484 306 484 _c
306 560 _m
384 560 445 534 490 484 _c
534 433 557 363 557 273 _c
557 183 534 113 490 63 _c
445 12 384 -13 306 -13 _c
227 -13 165 12 121 63 _c
77 113 55 183 55 273 _c
55 363 77 433 121 484 _c
165 534 227 560 306 560 _c
_cl}_d
/p{{635 0 91 -207 580 560 _sc
181 82 _m
181 -207 _l
91 -207 _l
91 547 _l
181 547 _l
181 464 _l
199 496 223 520 252 536 _c
281 552 316 560 356 560 _c
422 560 476 533 518 481 _c
559 428 580 359 580 273 _c
580 187 559 117 518 65 _c
476 13 422 -13 356 -13 _c
316 -13 281 -5 252 10 _c
223 25 199 49 181 82 _c
487 273 _m
487 339 473 390 446 428 _c
418 466 381 485 334 485 _c
}_e{286 485 249 466 222 428 _c
194 390 181 339 181 273 _c
181 207 194 155 222 117 _c
249 79 286 61 334 61 _c
381 61 418 79 446 117 _c
473 155 487 207 487 273 _c
_cl}_e}_d
/r{411 0 91 0 411 560 _sc
411 463 _m
401 469 390 473 378 476 _c
366 478 353 480 339 480 _c
288 480 249 463 222 430 _c
194 397 181 350 181 288 _c
181 0 _l
91 0 _l
91 547 _l
181 547 _l
181 462 _l
199 495 224 520 254 536 _c
284 552 321 560 365 560 _c
371 560 378 559 386 559 _c
393 558 401 557 411 555 _c
411 463 _l
_cl}_d
/s{{521 0 54 -13 472 560 _sc
443 531 _m
443 446 _l
417 458 391 468 364 475 _c
336 481 308 485 279 485 _c
234 485 200 478 178 464 _c
156 450 145 430 145 403 _c
145 382 153 366 169 354 _c
185 342 217 330 265 320 _c
296 313 _l
360 299 405 279 432 255 _c
458 230 472 195 472 151 _c
472 100 452 60 412 31 _c
372 1 316 -13 246 -13 _c
216 -13 186 -10 154 -5 _c
}_e{122 0 89 8 54 20 _c
54 113 _l
87 95 120 82 152 74 _c
184 65 216 61 248 61 _c
290 61 323 68 346 82 _c
368 96 380 117 380 144 _c
380 168 371 187 355 200 _c
339 213 303 226 247 238 _c
216 245 _l
160 257 119 275 95 299 _c
70 323 58 356 58 399 _c
58 450 76 490 112 518 _c
148 546 200 560 268 560 _c
301 560 332 557 362 552 _c
391 547 418 540 443 531 _c
}_e{_cl}_e}_d
/t{392 0 27 0 368 702 _sc
183 702 _m
183 547 _l
368 547 _l
368 477 _l
183 477 _l
183 180 _l
183 135 189 106 201 94 _c
213 81 238 75 276 75 _c
368 75 _l
368 0 _l
276 0 _l
206 0 158 13 132 39 _c
106 65 93 112 93 180 _c
93 477 _l
27 477 _l
27 547 _l
93 547 _l
93 702 _l
183 702 _l
_cl}_d
/u{634 0 85 -13 543 560 _sc
85 216 _m
85 547 _l
175 547 _l
175 219 _l
175 167 185 129 205 103 _c
225 77 255 64 296 64 _c
344 64 383 79 411 110 _c
439 141 453 183 453 237 _c
453 547 _l
543 547 _l
543 0 _l
453 0 _l
453 84 _l
431 50 405 26 377 10 _c
348 -5 315 -13 277 -13 _c
214 -13 166 6 134 45 _c
101 83 85 140 85 216 _c
311 560 _m
311 560 _l
_cl}_d
/z{525 0 43 0 482 547 _sc
55 547 _m
482 547 _l
482 465 _l
144 72 _l
482 72 _l
482 0 _l
43 0 _l
43 82 _l
381 475 _l
55 475 _l
55 547 _l
_cl}_d
end readonly def

/BuildGlyph
 {exch begin
 CharStrings exch
 2 copy known not{pop /.notdef}if
 true 3 1 roll get exec
 end}_d

/BuildChar {
 1 index /Encoding get exch get
 1 index /BuildGlyph get exec
}_d

FontName currentdict end definefont pop
end
%%EndProlog
mpldict begin
75.6 223.2 translate
460.8 345.6 0 0 clipbox
gsave
0 0 m
460.8 0 l
460.8 345.6 l
0 345.6 l
cl
1.000 setgray
fill
grestore
gsave
60.95 68.690362 m
440.56214 68.690362 l
440.56214 332.28 l
60.95 332.28 l
cl
1.000 setgray
fill
grestore
0.800 setlinewidth
1 setlinejoin
0 setlinecap
[] 0 setdash
0.000 setgray
gsave
/o {
gsave
newpath
translate
0.8 setlinewidth
1 setlinejoin
0 setlinecap
0 0 m
0 -3.5 l

gsave
0.000 setgray
fill
grestore
stroke
grestore
} bind def
82.0396 68.6904 o
grestore
/DejaVuSans findfont
14.000 scalefont
setfont
gsave
56.923667 27.098996 translate
25.000000 rotate
0.000000 0.000000 m /O glyphshow
11.019531 0.000000 m /r glyphshow
16.775391 0.000000 m /a glyphshow
25.354492 0.000000 m /c glyphshow
33.051758 0.000000 m /l glyphshow
36.941406 0.000000 m /e glyphshow
45.554688 0.000000 m /hyphen glyphshow
50.606445 0.000000 m /P glyphshow
grestore
gsave
/o {
gsave
newpath
translate
0.8 setlinewidth
1 setlinejoin
0 setlinecap
0 0 m
0 -3.5 l

gsave
0.000 setgray
fill
grestore
stroke
grestore
} bind def
124.219 68.6904 o
grestore
gsave
109.631541 36.918267 translate
25.000000 rotate
0.000000 0.000000 m /S glyphshow
8.886719 0.000000 m /S glyphshow
17.773438 0.000000 m /A glyphshow
27.350586 0.000000 m /P glyphshow
grestore
gsave
/o {
gsave
newpath
translate
0.8 setlinewidth
1 setlinejoin
0 setlinecap
0 0 m
0 -3.5 l

gsave
0.000 setgray
fill
grestore
stroke
grestore
} bind def
166.398 68.6904 o
grestore
gsave
137.465514 23.539758 translate
25.000000 rotate
0.000000 0.000000 m /S glyphshow
8.886719 0.000000 m /S glyphshow
17.773438 0.000000 m /A glyphshow
27.350586 0.000000 m /P glyphshow
35.792969 0.000000 m /space glyphshow
40.243164 0.000000 m /H glyphshow
50.770508 0.000000 m /i glyphshow
54.660156 0.000000 m /s glyphshow
61.954102 0.000000 m /t glyphshow
grestore
gsave
/o {
gsave
newpath
translate
0.8 setlinewidth
1 setlinejoin
0 setlinecap
0 0 m
0 -3.5 l

gsave
0.000 setgray
fill
grestore
stroke
grestore
} bind def
208.577 68.6904 o
grestore
gsave
169.038008 13.647849 translate
25.000000 rotate
0.000000 0.000000 m /S glyphshow
8.886719 0.000000 m /S glyphshow
17.773438 0.000000 m /A glyphshow
27.350586 0.000000 m /P glyphshow
35.792969 0.000000 m /space glyphshow
40.243164 0.000000 m /H glyphshow
50.770508 0.000000 m /i glyphshow
54.660156 0.000000 m /s glyphshow
61.954102 0.000000 m /t glyphshow
67.443359 0.000000 m /space glyphshow
71.893555 0.000000 m /A glyphshow
81.470703 0.000000 m /l glyphshow
85.360352 0.000000 m /t glyphshow
grestore
gsave
/o {
gsave
newpath
translate
0.8 setlinewidth
1 setlinejoin
0 setlinecap
0 0 m
0 -3.5 l

gsave
0.000 setgray
fill
grestore
stroke
grestore
} bind def
250.756 68.6904 o
grestore
gsave
220.421823 22.232283 translate
25.000000 rotate
0.000000 0.000000 m /S glyphshow
8.886719 0.000000 m /S glyphshow
17.773438 0.000000 m /A glyphshow
27.350586 0.000000 m /P glyphshow
35.792969 0.000000 m /space glyphshow
40.243164 0.000000 m /C glyphshow
50.018555 0.000000 m /M glyphshow
62.097656 0.000000 m /P glyphshow
grestore
gsave
/o {
gsave
newpath
translate
0.8 setlinewidth
1 setlinejoin
0 setlinecap
0 0 m
0 -3.5 l

gsave
0.000 setgray
fill
grestore
stroke
grestore
} bind def
292.935 68.6904 o
grestore
gsave
284.663880 42.808509 translate
25.000000 rotate
0.000000 0.000000 m /C glyphshow
9.775391 0.000000 m /M glyphshow
grestore
gsave
/o {
gsave
newpath
translate
0.8 setlinewidth
1 setlinejoin
0 setlinecap
0 0 m
0 -3.5 l

gsave
0.000 setgray
fill
grestore
stroke
grestore
} bind def
335.114 68.6904 o
grestore
gsave
312.497853 29.430000 translate
25.000000 rotate
0.000000 0.000000 m /C glyphshow
9.775391 0.000000 m /M glyphshow
21.854492 0.000000 m /space glyphshow
26.304688 0.000000 m /H glyphshow
36.832031 0.000000 m /i glyphshow
40.721680 0.000000 m /s glyphshow
48.015625 0.000000 m /t glyphshow
grestore
gsave
/o {
gsave
newpath
translate
0.8 setlinewidth
1 setlinejoin
0 setlinecap
0 0 m
0 -3.5 l

gsave
0.000 setgray
fill
grestore
stroke
grestore
} bind def
377.293 68.6904 o
grestore
gsave
366.643075 40.589764 translate
25.000000 rotate
0.000000 0.000000 m /C glyphshow
9.775391 0.000000 m /S glyphshow
18.662109 0.000000 m /P glyphshow
grestore
gsave
/o {
gsave
newpath
translate
0.8 setlinewidth
1 setlinejoin
0 setlinecap
0 0 m
0 -3.5 l

gsave
0.000 setgray
fill
grestore
stroke
grestore
} bind def
419.473 68.6904 o
grestore
gsave
394.696545 27.415960 translate
25.000000 rotate
0.000000 0.000000 m /R glyphshow
9.727539 0.000000 m /a glyphshow
18.306641 0.000000 m /n glyphshow
27.179688 0.000000 m /d glyphshow
36.066406 0.000000 m /o glyphshow
44.631836 0.000000 m /m glyphshow
grestore
gsave
/o {
gsave
newpath
translate
0.8 setlinewidth
1 setlinejoin
0 setlinecap
0 0 m
-3.5 0 l

gsave
0.000 setgray
fill
grestore
stroke
grestore
} bind def
60.95 97.0333 o
grestore
/DejaVuSans findfont
16.000 scalefont
setfont
gsave
28.481250 90.955209 translate
0.000000 rotate
0.000000 0.000000 m /zero glyphshow
10.179688 0.000000 m /period glyphshow
15.265625 0.000000 m /two glyphshow
grestore
gsave
/o {
gsave
newpath
translate
0.8 setlinewidth
1 setlinejoin
0 setlinecap
0 0 m
-3.5 0 l

gsave
0.000 setgray
fill
grestore
stroke
grestore
} bind def
60.95 153.719 o
grestore
gsave
28.481250 147.641152 translate
0.000000 rotate
0.000000 0.000000 m /zero glyphshow
10.179688 0.000000 m /period glyphshow
15.265625 0.000000 m /four glyphshow
grestore
gsave
/o {
gsave
newpath
translate
0.8 setlinewidth
1 setlinejoin
0 setlinecap
0 0 m
-3.5 0 l

gsave
0.000 setgray
fill
grestore
stroke
grestore
} bind def
60.95 210.405 o
grestore
gsave
28.481250 204.327096 translate
0.000000 rotate
0.000000 0.000000 m /zero glyphshow
10.179688 0.000000 m /period glyphshow
15.265625 0.000000 m /six glyphshow
grestore
gsave
/o {
gsave
newpath
translate
0.8 setlinewidth
1 setlinejoin
0 setlinecap
0 0 m
-3.5 0 l

gsave
0.000 setgray
fill
grestore
stroke
grestore
} bind def
60.95 267.091 o
grestore
gsave
28.481250 261.013040 translate
0.000000 rotate
0.000000 0.000000 m /zero glyphshow
10.179688 0.000000 m /period glyphshow
15.265625 0.000000 m /eight glyphshow
grestore
gsave
/o {
gsave
newpath
translate
0.8 setlinewidth
1 setlinejoin
0 setlinecap
0 0 m
-3.5 0 l

gsave
0.000 setgray
fill
grestore
stroke
grestore
} bind def
60.95 323.777 o
grestore
gsave
28.481250 317.698983 translate
0.000000 rotate
0.000000 0.000000 m /one glyphshow
10.179688 0.000000 m /period glyphshow
15.265625 0.000000 m /zero glyphshow
grestore
/DejaVuSans findfont
14.000 scalefont
setfont
gsave
21.575000 87.696118 translate
90.000000 rotate
0.000000 0.000000 m /F glyphshow
8.052734 0.000000 m /e glyphshow
16.666016 0.000000 m /a glyphshow
25.245117 0.000000 m /t glyphshow
30.734375 0.000000 m /u glyphshow
39.607422 0.000000 m /r glyphshow
45.363281 0.000000 m /e glyphshow
53.976562 0.000000 m /s glyphshow
61.270508 0.000000 m /space glyphshow
65.720703 0.000000 m /C glyphshow
75.496094 0.000000 m /a glyphshow
84.075195 0.000000 m /p glyphshow
92.961914 0.000000 m /t glyphshow
98.451172 0.000000 m /u glyphshow
107.324219 0.000000 m /r glyphshow
113.080078 0.000000 m /e glyphshow
121.693359 0.000000 m /d glyphshow
130.580078 0.000000 m /space glyphshow
135.030273 0.000000 m /parenleft glyphshow
140.492188 0.000000 m /N glyphshow
150.964844 0.000000 m /o glyphshow
159.530273 0.000000 m /r glyphshow
165.286133 0.000000 m /m glyphshow
178.923828 0.000000 m /a glyphshow
187.502930 0.000000 m /l glyphshow
191.392578 0.000000 m /i glyphshow
195.282227 0.000000 m /z glyphshow
202.630859 0.000000 m /e glyphshow
211.244141 0.000000 m /d glyphshow
220.130859 0.000000 m /parenright glyphshow
grestore
1.000 setlinewidth
2 setlinecap
0.122 0.467 0.706 setrgbcolor
gsave
379.6 263.6 60.95 68.69 clipbox
71.494782 289.279058 m
92.584345 289.279058 l
92.584345 308.744195 l
71.494782 308.744195 l
71.494782 289.279058 l
stroke
grestore
gsave
379.6 263.6 60.95 68.69 clipbox
82.039563 289.279058 m
82.039563 263.434007 l
stroke
grestore
gsave
379.6 263.6 60.95 68.69 clipbox
82.039563 308.744195 m
82.039563 323.777108 l
stroke
grestore
0.000 setgray
gsave
379.6 263.6 60.95 68.69 clipbox
76.767172 263.434007 m
87.311954 263.434007 l
stroke
grestore
gsave
379.6 263.6 60.95 68.69 clipbox
76.767172 323.777108 m
87.311954 323.777108 l
stroke
grestore
0 setlinecap
gsave
379.6 263.6 60.95 68.69 clipbox
/o {
gsave
newpath
translate
1.0 setlinewidth
1 setlinejoin
0 setlinecap
0 -3 m
0.795609 -3 1.55874 -2.683901 2.12132 -2.12132 c
2.683901 -1.55874 3 -0.795609 3 0 c
3 0.795609 2.683901 1.55874 2.12132 2.12132 c
1.55874 2.683901 0.795609 3 0 3 c
-0.795609 3 -1.55874 2.683901 -2.12132 2.12132 c
-2.683901 1.55874 -3 0.795609 -3 0 c
-3 -0.795609 -2.683901 -1.55874 -2.12132 -2.12132 c
-1.55874 -2.683901 -0.795609 -3 0 -3 c
cl

gsave
grestore
stroke
grestore
} bind def
82.0396 258.787 o
grestore
2 setlinecap
0.122 0.467 0.706 setrgbcolor
gsave
379.6 263.6 60.95 68.69 clipbox
113.673908 237.244628 m
134.763472 237.244628 l
134.763472 280.694709 l
113.673908 280.694709 l
113.673908 237.244628 l
stroke
grestore
gsave
379.6 263.6 60.95 68.69 clipbox
124.21869 237.244628 m
124.21869 201.262327 l
stroke
grestore
gsave
379.6 263.6 60.95 68.69 clipbox
124.21869 280.694709 m
124.21869 323.777108 l
stroke
grestore
0.000 setgray
gsave
379.6 263.6 60.95 68.69 clipbox
118.946299 201.262327 m
129.491081 201.262327 l
stroke
grestore
gsave
379.6 263.6 60.95 68.69 clipbox
118.946299 323.777108 m
129.491081 323.777108 l
stroke
grestore
0.122 0.467 0.706 setrgbcolor
gsave
379.6 263.6 60.95 68.69 clipbox
155.853035 288.055352 m
176.942598 288.055352 l
176.942598 318.448518 l
155.853035 318.448518 l
155.853035 288.055352 l
stroke
grestore
gsave
379.6 263.6 60.95 68.69 clipbox
166.397817 288.055352 m
166.397817 245.731244 l
stroke
grestore
gsave
379.6 263.6 60.95 68.69 clipbox
166.397817 318.448518 m
166.397817 323.777108 l
stroke
grestore
0.000 setgray
gsave
379.6 263.6 60.95 68.69 clipbox
161.125426 245.731244 m
171.670207 245.731244 l
stroke
grestore
gsave
379.6 263.6 60.95 68.69 clipbox
161.125426 323.777108 m
171.670207 323.777108 l
stroke
grestore
0 setlinecap
gsave
379.6 263.6 60.95 68.69 clipbox
/o {
gsave
newpath
translate
1.0 setlinewidth
1 setlinejoin
0 setlinecap
0 -3 m
0.795609 -3 1.55874 -2.683901 2.12132 -2.12132 c
2.683901 -1.55874 3 -0.795609 3 0 c
3 0.795609 2.683901 1.55874 2.12132 2.12132 c
1.55874 2.683901 0.795609 3 0 3 c
-0.795609 3 -1.55874 2.683901 -2.12132 2.12132 c
-2.683901 1.55874 -3 0.795609 -3 0 c
-3 -0.795609 -2.683901 -1.55874 -2.12132 -2.12132 c
-1.55874 -2.683901 -0.795609 -3 0 -3 c
cl

gsave
grestore
stroke
grestore
} bind def
166.398 222.552 o
166.398 233.321 o
grestore
2 setlinecap
0.122 0.467 0.706 setrgbcolor
gsave
379.6 263.6 60.95 68.69 clipbox
198.032162 283.704153 m
219.121725 283.704153 l
219.121725 317.186566 l
198.032162 317.186566 l
198.032162 283.704153 l
stroke
grestore
gsave
379.6 263.6 60.95 68.69 clipbox
208.576943 283.704153 m
208.576943 238.136474 l
stroke
grestore
gsave
379.6 263.6 60.95 68.69 clipbox
208.576943 317.186566 m
208.576943 323.777108 l
stroke
grestore
0.000 setgray
gsave
379.6 263.6 60.95 68.69 clipbox
203.304552 238.136474 m
213.849334 238.136474 l
stroke
grestore
gsave
379.6 263.6 60.95 68.69 clipbox
203.304552 323.777108 m
213.849334 323.777108 l
stroke
grestore
0 setlinecap
gsave
379.6 263.6 60.95 68.69 clipbox
/o {
gsave
newpath
translate
1.0 setlinewidth
1 setlinejoin
0 setlinecap
0 -3 m
0.795609 -3 1.55874 -2.683901 2.12132 -2.12132 c
2.683901 -1.55874 3 -0.795609 3 0 c
3 0.795609 2.683901 1.55874 2.12132 2.12132 c
1.55874 2.683901 0.795609 3 0 3 c
-0.795609 3 -1.55874 2.683901 -2.12132 2.12132 c
-2.683901 1.55874 -3 0.795609 -3 0 c
-3 -0.795609 -2.683901 -1.55874 -2.12132 -2.12132 c
-1.55874 -2.683901 -0.795609 -3 0 -3 c
cl

gsave
grestore
stroke
grestore
} bind def
208.577 220.712 o
208.577 233.321 o
208.577 233.321 o
grestore
2 setlinecap
0.122 0.467 0.706 setrgbcolor
gsave
379.6 263.6 60.95 68.69 clipbox
240.211288 276.717514 m
261.300852 276.717514 l
261.300852 313.919716 l
240.211288 313.919716 l
240.211288 276.717514 l
stroke
grestore
gsave
379.6 263.6 60.95 68.69 clipbox
250.75607 276.717514 m
250.75607 228.073567 l
stroke
grestore
gsave
379.6 263.6 60.95 68.69 clipbox
250.75607 313.919716 m
250.75607 323.777108 l
stroke
grestore
0.000 setgray
gsave
379.6 263.6 60.95 68.69 clipbox
245.483679 228.073567 m
256.028461 228.073567 l
stroke
grestore
gsave
379.6 263.6 60.95 68.69 clipbox
245.483679 323.777108 m
256.028461 323.777108 l
stroke
grestore
0 setlinecap
gsave
379.6 263.6 60.95 68.69 clipbox
/o {
gsave
newpath
translate
1.0 setlinewidth
1 setlinejoin
0 setlinecap
0 -3 m
0.795609 -3 1.55874 -2.683901 2.12132 -2.12132 c
2.683901 -1.55874 3 -0.795609 3 0 c
3 0.795609 2.683901 1.55874 2.12132 2.12132 c
1.55874 2.683901 0.795609 3 0 3 c
-0.795609 3 -1.55874 2.683901 -2.12132 2.12132 c
-2.683901 1.55874 -3 0.795609 -3 0 c
-3 -0.795609 -2.683901 -1.55874 -2.12132 -2.12132 c
-1.55874 -2.683901 -0.795609 -3 0 -3 c
cl

gsave
grestore
stroke
grestore
} bind def
250.756 219.071 o
grestore
2 setlinecap
0.122 0.467 0.706 setrgbcolor
gsave
379.6 263.6 60.95 68.69 clipbox
282.390415 236.705164 m
303.479978 236.705164 l
303.479978 285.345287 l
282.390415 285.345287 l
282.390415 236.705164 l
stroke
grestore
gsave
379.6 263.6 60.95 68.69 clipbox
292.935197 236.705164 m
292.935197 195.77659 l
stroke
grestore
gsave
379.6 263.6 60.95 68.69 clipbox
292.935197 285.345287 m
292.935197 313.081647 l
stroke
grestore
0.000 setgray
gsave
379.6 263.6 60.95 68.69 clipbox
287.662806 195.77659 m
298.207587 195.77659 l
stroke
grestore
gsave
379.6 263.6 60.95 68.69 clipbox
287.662806 313.081647 m
298.207587 313.081647 l
stroke
grestore
0.122 0.467 0.706 setrgbcolor
gsave
379.6 263.6 60.95 68.69 clipbox
324.569542 250.677082 m
345.659105 250.677082 l
345.659105 283.29293 l
324.569542 283.29293 l
324.569542 250.677082 l
stroke
grestore
gsave
379.6 263.6 60.95 68.69 clipbox
335.114323 250.677082 m
335.114323 204.556671 l
stroke
grestore
gsave
379.6 263.6 60.95 68.69 clipbox
335.114323 283.29293 m
335.114323 323.777108 l
stroke
grestore
0.000 setgray
gsave
379.6 263.6 60.95 68.69 clipbox
329.841932 204.556671 m
340.386714 204.556671 l
stroke
grestore
gsave
379.6 263.6 60.95 68.69 clipbox
329.841932 323.777108 m
340.386714 323.777108 l
stroke
grestore
0.122 0.467 0.706 setrgbcolor
gsave
379.6 263.6 60.95 68.69 clipbox
366.748668 210.546621 m
387.838232 210.546621 l
387.838232 254.051386 l
366.748668 254.051386 l
366.748668 210.546621 l
stroke
grestore
gsave
379.6 263.6 60.95 68.69 clipbox
377.29345 210.546621 m
377.29345 166.9862 l
stroke
grestore
gsave
379.6 263.6 60.95 68.69 clipbox
377.29345 254.051386 m
377.29345 308.632009 l
stroke
grestore
0.000 setgray
gsave
379.6 263.6 60.95 68.69 clipbox
372.021059 166.9862 m
382.565841 166.9862 l
stroke
grestore
gsave
379.6 263.6 60.95 68.69 clipbox
372.021059 308.632009 m
382.565841 308.632009 l
stroke
grestore
0.122 0.467 0.706 setrgbcolor
gsave
379.6 263.6 60.95 68.69 clipbox
408.927795 163.285584 m
430.017358 163.285584 l
430.017358 210.619026 l
408.927795 210.619026 l
408.927795 163.285584 l
stroke
grestore
gsave
379.6 263.6 60.95 68.69 clipbox
419.472577 163.285584 m
419.472577 102.661725 l
stroke
grestore
gsave
379.6 263.6 60.95 68.69 clipbox
419.472577 210.619026 m
419.472577 280.172536 l
stroke
grestore
0.000 setgray
gsave
379.6 263.6 60.95 68.69 clipbox
414.200186 102.661725 m
424.744967 102.661725 l
stroke
grestore
gsave
379.6 263.6 60.95 68.69 clipbox
414.200186 280.172536 m
424.744967 280.172536 l
stroke
grestore
0.173 0.627 0.173 setrgbcolor
gsave
379.6 263.6 60.95 68.69 clipbox
71.494782 300.575239 m
92.584345 300.575239 l
stroke
grestore
gsave
379.6 263.6 60.95 68.69 clipbox
113.673908 259.95742 m
134.763472 259.95742 l
stroke
grestore
gsave
379.6 263.6 60.95 68.69 clipbox
155.853035 307.599262 m
176.942598 307.599262 l
stroke
grestore
gsave
379.6 263.6 60.95 68.69 clipbox
198.032162 306.619874 m
219.121725 306.619874 l
stroke
grestore
gsave
379.6 263.6 60.95 68.69 clipbox
240.211288 299.691768 m
261.300852 299.691768 l
stroke
grestore
gsave
379.6 263.6 60.95 68.69 clipbox
282.390415 263.46988 m
303.479978 263.46988 l
stroke
grestore
gsave
379.6 263.6 60.95 68.69 clipbox
324.569542 263.913039 m
345.659105 263.913039 l
stroke
grestore
gsave
379.6 263.6 60.95 68.69 clipbox
366.748668 234.801971 m
387.838232 234.801971 l
stroke
grestore
gsave
379.6 263.6 60.95 68.69 clipbox
408.927795 188.393348 m
430.017358 188.393348 l
stroke
grestore
0.800 setlinewidth
0 setlinejoin
[] 0 setdash
0.000 setgray
gsave
60.95 68.690362 m
60.95 332.28 l
stroke
grestore
gsave
440.56214 68.690362 m
440.56214 332.28 l
stroke
grestore
gsave
60.95 68.690362 m
440.56214 68.690362 l
stroke
grestore
gsave
60.95 332.28 m
440.56214 332.28 l
stroke
grestore

end
showpage
