0:2563
1:1471
2:7107
3:9238
4:9018
5:9856
6:8611
7:9131
8:5754
9:4497
10:6359
11:9247
12:8236
13:4945
14:2971
15:3543
16:4138
17:3889
18:5152
19:6398
20:5113
21:8854
22:7517
23:9491
24:16110
25:8622
26:8025
27:7082
28:6329
29:4909
30:6704
31:4349
32:9321
33:8222
34:8250
35:9929
36:11033
37:5274
38:5993
39:9277
40:6529
41:4380
42:4206
43:4201
44:2117
45:10587
46:12822
47:8972
48:9523
49:6817
50:5130
51:12590
52:15401
53:7432
54:3215
55:6498
56:3839
57:5852
58:9128
