0:2540
1:2286
2:6228
3:7642
4:8105
5:8839
6:5571
7:4269
8:5284
9:7992
10:8188
11:6748
12:3243
13:4372
14:4256
15:5889
16:3287
17:4885
18:5999
19:5372
20:9326
21:8577
22:12489
23:9255
24:15214
25:8390
26:7413
27:6409
28:9778
29:7084
30:8538
31:8010
32:7743
33:9857
34:11513
35:8437
36:7560
37:10271
38:8091
39:4894
40:3750
41:8734
42:4585
43:3456
44:4347
45:10615
46:8955
47:8564
48:7611
49:6561
50:5322
51:6117
52:11676
53:12516
54:12398
55:6508
56:5113
57:7224
58:3713
