0:2540
1:2528
2:5196
3:8030
4:8815
5:9300
6:7424
7:5001
8:4440
9:6051
10:9252
11:7749
12:6015
13:3397
14:4045
15:4071
16:4679
17:3687
18:2730
19:4585
20:6275
21:8341
22:7931
23:13750
24:8980
25:16107
26:7640
27:7827
28:6563
29:5253
30:7201
31:4818
32:6809
33:9019
34:8024
35:10561
36:12272
37:8839
38:7833
39:10570
40:8209
41:4865
42:3820
43:8869
44:3900
45:15585
46:14593
47:9622
48:8980
49:5993
50:6706
51:5886
52:7340
53:14935
54:8156
55:4913
56:7993
57:6909
58:4251
