0:2563
1:2436
2:4102
3:9205
4:8872
5:9701
6:8826
7:6722
8:5221
9:6141
10:7735
11:9640
12:8447
13:5124
14:3965
15:3950
16:4139
17:5333
18:3002
19:4324
20:6461
21:5108
22:8393
23:8332
24:8479
25:7427
26:6009
27:4971
28:8651
29:7684
30:8622
31:7090
32:9627
33:11482
34:6656
35:9564
36:5605
37:1475
38:6634
39:3968
40:3534
41:11383
42:14146
43:10564
44:8669
45:3904
46:4799
47:5274
48:10322
49:12415
50:3277
51:4609
52:5095
53:4649
