0:2540
1:2395
2:3248
3:7473
4:8464
5:8874
6:5783
7:4864
8:5831
9:8192
10:8901
11:7558
12:3315
13:4235
14:4110
15:5437
16:3574
17:4899
18:6385
19:5431
20:9174
21:8373
22:12215
23:9316
24:15134
25:7467
26:4680
27:7671
28:10347
29:8775
30:9534
31:10341
32:9237
33:7846
34:11946
35:9543
36:8303
37:9065
38:7363
39:4084
40:3217
41:7689
42:3840
43:7594
44:12073
45:7165
46:7419
47:5368
48:8062
49:6932
50:7884
51:15265
52:15080
53:8513
54:4188
55:6847
56:5827
57:3029
