0:2540
1:2538
2:4623
3:7536
4:8291
5:8813
6:6265
7:5518
8:7965
9:7740
10:8890
11:9165
12:8361
13:2303
14:3482
15:7047
16:3167
17:4033
18:4003
19:6389
20:5088
21:8401
22:8362
23:11872
24:8972
25:14861
26:8308
27:4613
28:7793
29:12776
30:6679
31:8162
32:8916
33:8715
34:9833
35:10969
36:7046
37:7192
38:9745
39:8363
40:5001
41:3699
42:8035
43:3823
44:7275
45:9199
46:7534
47:6821
48:6768
49:6675
50:5633
51:12725
52:14689
53:8159
54:4569
55:7569
56:7967
57:4202
