0:2563
1:2617
2:3264
3:9694
4:9175
5:9860
6:8576
7:5933
8:5595
9:6116
10:9750
11:8716
12:5308
13:2972
14:4048
15:4103
16:5330
17:4558
18:3398
19:4960
20:6414
21:9124
22:8696
23:10070
24:9288
25:8582
26:4549
27:5902
28:3322
29:6323
30:8816
31:5913
32:5443
33:8529
34:10367
35:5712
36:4318
37:3086
38:3307
39:13045
40:15728
41:7604
42:5368
43:6696
44:6890
45:10694
46:15600
47:6596
48:3992
49:6928
50:3145
51:6789
52:9875
53:14153
