0:2563
1:2541
2:7076
3:9156
4:8560
5:8639
6:10199
7:6643
8:4585
9:5391
10:7124
11:10596
12:8914
13:3804
14:3877
15:4060
16:4349
17:3149
18:4340
19:6550
20:7222
21:8352
22:9048
23:9356
24:14472
25:6207
26:5588
27:9473
28:7886
29:8597
30:10026
31:7960
32:9704
33:11307
34:7235
35:7081
36:9627
37:6822
38:3411
39:8417
40:3462
41:3964
42:11815
43:14428
44:8368
45:6031
46:7450
47:5349
48:10592
49:13209
50:5068
51:3257
52:6755
53:3451
54:5569
55:7518
