0:2540
1:1511
2:5194
3:7087
4:9063
5:8498
6:7745
7:4849
8:4511
9:6064
10:9565
11:8118
12:6744
13:3167
14:4212
15:4174
16:5029
17:3427
18:4224
19:4175
20:6320
21:5453
22:8888
23:8313
24:14151
25:8974
26:15429
27:7643
28:7870
29:6666
30:6131
31:10203
32:8350
33:8790
34:11638
35:9313
36:10440
37:11892
38:7152
39:6580
40:9715
41:7679
42:4651
43:4136
44:8181
45:3243
46:4100
47:7297
48:12075
49:7351
50:6598
51:5968
52:6729
53:6258
54:6523
55:10839
56:12222
57:12153
58:5112
59:4190
60:6236
61:5102
