0:2497
1:2311
2:7927
3:9662
4:8752
5:7749
6:5740
7:6021
8:7289
9:8403
10:8753
11:2652
12:3503
13:6894
14:3494
15:3760
16:4474
17:6298
18:5043
19:8883
20:7978
21:9994
22:9505
23:15173
24:7894
25:7212
26:6945
27:7453
28:7682
29:8466
30:5102
31:6734
32:8078
33:8095
34:7401
35:9518
36:10814
37:8712
38:8316
39:5846
40:3968
41:4771
42:15514
43:14737
44:9838
45:9049
46:6765
47:8387
48:6210
49:7803
50:9052
51:10095
52:7759
53:5431
54:8144
55:4669
56:6184
57:9240
