0:2540
1:2286
2:3249
3:10854
4:9095
5:9205
6:6086
7:5320
8:5391
9:7708
10:8122
11:6756
12:3246
13:4342
14:4257
15:5759
16:3332
17:4476
18:6028
19:5345
20:9106
21:8308
22:12347
23:9304
24:15047
25:8484
26:6308
27:4960
28:7545
29:4864
30:6712
31:7541
32:7494
33:9873
34:11034
35:8759
36:7355
37:10509
38:7682
39:5018
40:3835
41:8307
42:4023
43:4314
44:16078
45:14431
46:8176
47:7975
48:5578
49:8141
50:6961
51:7603
52:15075
53:15200
54:8076
55:4534
56:6145
57:3597
