0:2497
1:2157
2:6859
3:10160
4:9650
5:8322
6:9135
7:6390
8:5706
9:6426
10:10035
11:8714
12:8858
13:3012
14:3263
15:3322
16:3520
17:6690
18:3729
19:3422
20:5292
21:6601
22:8524
23:10069
24:9317
25:7046
26:4387
27:5333
28:7523
29:5085
30:6756
31:10579
32:8067
33:7141
34:9113
35:7719
36:9555
37:10816
38:5377
39:3747
40:1917
41:3715
42:5091
43:10918
44:8056
45:7544
46:5732
47:7751
48:5559
49:10610
50:12845
51:13643
52:7907
53:4681
54:2912
55:3848
56:7225
57:8223
