0:2490
1:2919
2:2920
3:3203
4:3370
5:7368
6:8290
7:8132
8:8856
9:9582
10:8318
11:6270
12:6502
13:4440
14:4829
15:5799
16:7928
17:10539
18:8343
19:9553
20:8000
21:7545
22:10869
23:9931
24:7955
25:3804
26:2290
27:3260
28:8081
29:5974
30:9374
31:10316
32:8582
33:6873
34:8515
35:7937
36:8081
37:7774
38:4376
39:5687
40:7263
41:5120
42:11736
43:9818
44:8607
