Oracle-P,Oracle-P Stages,SSAP,SSAP Stages,SSAP CDF,SSAP CDF Stages,SSAP CMP,SSAP CMP Stages,CM,CM Stages,CM CDF,CM CDF Stages,CSP,CSP Stages,Random,Random Stages
89.14728682170544,"[8, 23, 31]",85.27131782945736,"[17, 19, 23]",82.17054263565892,"[17, 18, 23]",91.47286821705426,"[19, 23, 24]",85.27131782945736,"[11, 19, 31]",84.49612403100775,"[10, 19, 31]",57.36434108527132,"[5, 19, 41]",67.44186046511628,"[7, 30, 33]"
92.4812030075188,"[7, 21, 41]",81.203007518797,"[7, 15, 20]",81.203007518797,"[7, 15, 20]",90.22556390977444,"[18, 20, 21]",81.203007518797,"[7, 16, 28]",80.45112781954887,"[6, 18, 28]",87.21804511278195,"[6, 20, 35]",51.127819548872175,"[11, 14, 22]"
88.57142857142857,"[7, 17, 36]",80.0,"[16, 17, 19]",81.42857142857143,"[15, 17, 21]",85.0,"[17, 19, 21]",77.85714285714286,"[8, 17, 28]",80.0,"[7, 17, 29]",67.14285714285714,"[5, 27, 36]",43.57142857142857,"[3, 6, 11]"
94.48818897637796,"[9, 21, 40]",88.9763779527559,"[16, 18, 21]",88.9763779527559,"[16, 18, 21]",91.33858267716536,"[16, 21, 31]",66.92913385826772,"[13, 16, 30]",83.46456692913385,"[9, 16, 31]",85.8267716535433,"[5, 21, 40]",48.818897637795274,"[5, 6, 37]"
92.4812030075188,"[8, 22, 29]",77.44360902255639,"[8, 16, 19]",82.70676691729322,"[8, 16, 21]",91.72932330827066,"[16, 21, 22]",81.203007518797,"[8, 16, 28]",80.45112781954887,"[7, 16, 28]",81.95488721804512,"[5, 21, 41]",72.93233082706767,"[8, 10, 27]"
86.7132867132867,"[9, 21, 41]",81.11888111888112,"[9, 21, 29]",81.11888111888112,"[9, 21, 29]",87.41258741258741,"[21, 29, 30]",81.11888111888112,"[9, 21, 29]",81.11888111888112,"[9, 21, 29]",80.41958041958041,"[5, 21, 41]",61.53846153846154,"[2, 37, 41]"
90.9090909090909,"[8, 19, 41]",84.0909090909091,"[15, 19, 20]",84.0909090909091,"[15, 19, 27]",84.0909090909091,"[15, 19, 27]",78.78787878787878,"[8, 15, 28]",78.78787878787878,"[8, 15, 28]",88.63636363636364,"[5, 19, 41]",59.09090909090909,"[25, 29, 36]"
88.54961832061069,"[9, 22, 41]",87.78625954198473,"[17, 18, 20]",83.96946564885496,"[16, 17, 20]",87.78625954198473,"[17, 18, 20]",67.17557251908397,"[13, 17, 29]",79.38931297709924,"[9, 17, 29]",77.86259541984732,"[5, 20, 41]",67.93893129770993,"[0, 22, 31]"
96.18320610687023,"[9, 21, 41]",87.78625954198473,"[16, 21, 22]",87.78625954198473,"[16, 21, 22]",87.78625954198473,"[16, 21, 22]",79.38931297709924,"[9, 16, 30]",79.38931297709924,"[9, 16, 30]",87.02290076335878,"[5, 21, 41]",54.961832061068705,"[10, 26, 40]"
97.14285714285714,"[9, 22, 31]",100.0,"[17, 22, 31]",100.0,"[17, 22, 31]",83.80952380952381,"[17, 22, 41]",96.19047619047619,"[9, 17, 31]",96.19047619047619,"[9, 17, 31]",74.28571428571429,"[5, 22, 41]",45.714285714285715,"[13, 21, 26]"
87.32394366197182,"[7, 21, 35]",75.35211267605634,"[7, 15, 21]",75.35211267605634,"[7, 15, 21]",80.28169014084507,"[20, 21, 27]",78.87323943661971,"[7, 16, 28]",78.16901408450704,"[6, 20, 28]",86.61971830985915,"[6, 21, 35]",66.19718309859155,"[18, 20, 32]"
90.37037037037037,"[6, 27, 39]",80.0,"[15, 19, 20]",80.0,"[15, 19, 20]",85.92592592592592,"[19, 20, 27]",74.81481481481481,"[13, 19, 28]",80.74074074074075,"[6, 19, 28]",88.88888888888889,"[6, 20, 39]",74.07407407407408,"[12, 27, 41]"
89.14728682170544,"[7, 21, 28]",86.04651162790698,"[16, 20, 21]",82.17054263565892,"[15, 16, 21]",86.04651162790698,"[16, 20, 21]",86.04651162790698,"[8, 16, 28]",86.04651162790698,"[7, 16, 28]",79.84496124031007,"[5, 20, 41]",59.68992248062015,"[17, 19, 23]"
92.24806201550388,"[9, 22, 31]",86.82170542635659,"[17, 18, 22]",86.82170542635659,"[17, 18, 22]",90.69767441860465,"[18, 22, 23]",81.3953488372093,"[9, 18, 29]",80.62015503875969,"[8, 18, 29]",58.91472868217055,"[5, 22, 41]",62.01550387596899,"[20, 26, 34]"
92.43697478991596,"[9, 18, 39]",99.15966386554622,"[18, 22, 31]",99.15966386554622,"[18, 22, 31]",99.15966386554622,"[18, 22, 31]",85.71428571428571,"[13, 18, 31]",91.59663865546219,"[9, 18, 31]",72.26890756302521,"[5, 27, 39]",65.54621848739495,"[4, 8, 18]"
91.72932330827066,"[6, 27, 40]",82.70676691729322,"[15, 19, 20]",79.69924812030075,"[14, 15, 20]",82.70676691729322,"[15, 19, 20]",75.93984962406014,"[13, 15, 28]",82.70676691729322,"[6, 15, 28]",85.71428571428571,"[6, 20, 40]",52.63157894736842,"[2, 26, 32]"
88.63636363636364,"[9, 22, 29]",87.87878787878788,"[17, 18, 20]",79.54545454545455,"[16, 17, 18]",87.87878787878788,"[17, 18, 20]",71.21212121212122,"[13, 17, 29]",71.21212121212122,"[13, 17, 29]",79.54545454545455,"[5, 20, 41]",53.03030303030303,"[8, 11, 19]"
91.53846153846153,"[8, 17, 29]",86.15384615384616,"[17, 18, 19]",86.92307692307692,"[16, 17, 22]",90.0,"[17, 21, 22]",91.53846153846153,"[8, 17, 29]",91.53846153846153,"[8, 17, 29]",66.15384615384615,"[5, 27, 41]",50.76923076923077,"[0, 10, 31]"
95.08196721311475,"[10, 22, 39]",94.26229508196722,"[17, 19, 22]",94.26229508196722,"[17, 19, 22]",96.72131147540983,"[19, 22, 23]",81.14754098360656,"[10, 17, 30]",82.78688524590164,"[10, 17, 31]",73.77049180327869,"[5, 19, 39]",68.0327868852459,"[7, 34, 40]"
89.0625,"[7, 21, 28]",85.9375,"[16, 20, 21]",82.8125,"[10, 16, 21]",85.9375,"[16, 20, 21]",85.9375,"[8, 16, 28]",85.9375,"[7, 16, 28]",80.46875,"[5, 20, 41]",52.34375,"[12, 16, 31]"
90.14084507042254,"[5, 20, 40]",77.46478873239437,"[15, 17, 19]",77.46478873239437,"[15, 17, 19]",85.91549295774648,"[17, 19, 20]",71.83098591549296,"[13, 17, 28]",76.76056338028168,"[6, 17, 28]",83.80281690140845,"[5, 19, 39]",57.74647887323944,"[2, 29, 39]"
93.54838709677419,"[8, 17, 29]",91.93548387096774,"[16, 17, 18]",91.12903225806451,"[15, 17, 28]",95.16129032258065,"[17, 18, 28]",91.12903225806451,"[8, 17, 28]",91.12903225806451,"[8, 17, 28]",57.25806451612904,"[5, 27, 41]",54.03225806451613,"[1, 16, 34]"
90.84507042253522,"[7, 20, 39]",76.05633802816901,"[7, 15, 19]",76.05633802816901,"[7, 15, 19]",85.91549295774648,"[17, 19, 20]",77.46478873239437,"[7, 17, 28]",77.46478873239437,"[7, 17, 28]",80.98591549295774,"[5, 19, 38]",65.49295774647888,"[7, 8, 16]"
90.20979020979021,"[7, 20, 39]",71.32867132867133,"[7, 15, 18]",76.22377622377621,"[7, 15, 19]",86.01398601398601,"[17, 19, 20]",76.22377622377621,"[7, 17, 28]",75.52447552447552,"[6, 17, 28]",84.61538461538461,"[6, 19, 38]",88.11188811188812,"[18, 28, 39]"
95.53571428571429,"[5, 17, 32]",95.53571428571429,"[16, 17, 19]",94.64285714285714,"[16, 17, 30]",98.21428571428571,"[17, 19, 30]",93.75,"[9, 17, 30]",93.75,"[9, 17, 30]",73.21428571428571,"[5, 27, 41]",61.60714285714286,"[6, 13, 33]"
91.40625,"[8, 21, 31]",96.875,"[18, 21, 22]",96.875,"[18, 21, 22]",96.875,"[18, 21, 22]",81.25,"[8, 18, 31]",81.25,"[8, 18, 31]",71.09375,"[5, 21, 41]",52.34375,"[4, 18, 26]"
91.04477611940298,"[8, 18, 37]",89.55223880597015,"[18, 19, 20]",85.07462686567165,"[17, 18, 20]",89.55223880597015,"[18, 19, 20]",82.08955223880598,"[11, 18, 30]",81.34328358208955,"[10, 18, 30]",63.43283582089553,"[5, 27, 37]",54.47761194029851,"[7, 11, 15]"
97.34513274336283,"[10, 17, 38]",91.1504424778761,"[17, 19, 32]",89.38053097345133,"[10, 17, 32]",100.0,"[19, 32, 38]",89.38053097345133,"[10, 17, 32]",89.38053097345133,"[10, 17, 32]",70.79646017699115,"[5, 27, 38]",83.1858407079646,"[23, 25, 38]"
92.36641221374046,"[9, 21, 41]",88.54961832061069,"[17, 18, 19]",85.49618320610686,"[16, 17, 18]",95.41984732824427,"[17, 18, 21]",83.96946564885496,"[9, 17, 31]",83.96946564885496,"[9, 17, 31]",83.20610687022901,"[5, 21, 41]",54.961832061068705,"[2, 8, 30]"
90.83969465648855,"[9, 21, 29]",87.02290076335878,"[16, 18, 21]",87.02290076335878,"[16, 18, 21]",90.07633587786259,"[18, 21, 22]",71.7557251908397,"[13, 16, 29]",86.25954198473282,"[9, 18, 29]",67.17557251908397,"[5, 21, 41]",31.297709923664126,"[0, 1, 24]"
86.92307692307692,"[9, 21, 29]",87.6923076923077,"[16, 17, 18]",87.6923076923077,"[16, 17, 18]",87.6923076923077,"[16, 17, 18]",66.15384615384615,"[13, 16, 29]",78.46153846153847,"[9, 16, 29]",68.46153846153847,"[5, 20, 41]",51.53846153846153,"[0, 17, 28]"
91.26984126984127,"[7, 21, 28]",81.74603174603175,"[7, 15, 20]",84.12698412698413,"[7, 15, 21]",93.65079365079364,"[20, 21, 28]",87.3015873015873,"[7, 16, 28]",88.09523809523809,"[6, 20, 28]",85.71428571428571,"[6, 20, 41]",54.761904761904766,"[3, 12, 22]"
90.37037037037037,"[4, 20, 40]",85.92592592592592,"[15, 16, 18]",91.11111111111111,"[15, 16, 19]",91.11111111111111,"[15, 16, 19]",73.33333333333333,"[13, 15, 28]",73.33333333333333,"[13, 15, 28]",77.77777777777779,"[13, 19, 40]",65.92592592592592,"[14, 24, 27]"
89.47368421052632,"[9, 21, 29]",79.69924812030075,"[16, 17, 18]",83.45864661654136,"[16, 17, 21]",86.46616541353383,"[17, 18, 21]",84.9624060150376,"[9, 17, 29]",84.9624060150376,"[9, 17, 29]",64.66165413533834,"[5, 21, 41]",77.44360902255639,"[9, 21, 35]"
90.15151515151516,"[8, 15, 39]",91.66666666666666,"[15, 16, 18]",91.66666666666666,"[15, 16, 18]",91.66666666666666,"[15, 16, 18]",75.0,"[13, 15, 28]",75.0,"[13, 15, 28]",82.57575757575758,"[5, 27, 39]",56.060606060606055,"[3, 5, 27]"
88.54961832061069,"[10, 21, 31]",95.41984732824427,"[16, 18, 21]",84.7328244274809,"[10, 16, 18]",95.41984732824427,"[16, 18, 21]",81.67938931297711,"[10, 16, 31]",80.1526717557252,"[9, 16, 31]",75.57251908396947,"[5, 21, 41]",41.221374045801525,"[4, 11, 14]"
92.98245614035088,"[6, 22, 41]",93.85964912280701,"[17, 18, 19]",93.85964912280701,"[16, 17, 22]",97.36842105263158,"[17, 18, 22]",72.80701754385966,"[13, 17, 31]",72.80701754385966,"[13, 17, 31]",90.35087719298247,"[5, 22, 41]",69.2982456140351,"[8, 16, 28]"
87.85714285714286,"[8, 19, 38]",82.14285714285714,"[18, 19, 20]",82.14285714285714,"[18, 19, 20]",87.14285714285714,"[19, 20, 21]",76.42857142857142,"[11, 19, 30]",77.85714285714286,"[10, 19, 31]",78.57142857142857,"[5, 19, 38]",59.285714285714285,"[8, 12, 34]"
93.96551724137932,"[9, 21, 40]",97.41379310344827,"[20, 21, 22]",96.55172413793103,"[20, 21, 30]",100.0,"[20, 21, 40]",75.0,"[13, 20, 30]",89.65517241379311,"[9, 20, 30]",85.34482758620689,"[5, 20, 40]",83.62068965517241,"[20, 21, 28]"
90.20979020979021,"[7, 21, 40]",75.52447552447552,"[7, 16, 20]",75.52447552447552,"[7, 16, 20]",83.91608391608392,"[18, 20, 21]",75.52447552447552,"[7, 16, 28]",74.82517482517483,"[6, 18, 28]",83.91608391608392,"[6, 20, 39]",51.048951048951054,"[8, 11, 30]"
