Diff Time,Stage,Count,X Pos,Y Pos,Z Pos,Actual Time
0,0,2497,9.53675,3.75438,0.0976849,1582750854.11
2,1,2540,9.39776,3.70743,0.0960549,1582750856.13
4,2,2563,9.40293,3.69395,0.0960492,1582750858.15
6,3,2563,9.40401,3.69422,0.0952782,1582750860.1
8,4,2563,9.40294,3.69261,0.0959401,1582750862.125
10,5,2563,9.4043,3.69345,0.0936747,1582750864.105
12,6,2563,9.40435,3.69347,0.0945657,1582750866.12
14,7,2642,9.4748,4.41763,0.0901049,1582750868.12
16,8,2640,9.59193,6.33922,0.0865568,1582750870.12
18,9,2681,9.47391,8.13466,0.0832086,1582750872.145
20,10,2806,9.24289,9.94067,0.0870977,1582750874.09
22,11,4719,9.01129,11.9116,0.0764083,1582750876.085
24,12,4883,8.79676,13.8871,0.0716268,1582750878.105
26,13,6041,8.54525,15.7484,0.079821,1582750880.16
28,14,7818,8.21075,17.5867,0.0801416,1582750882.115
30,15,8707,7.73595,19.3218,0.0986417,1582750884.125
32,16,8503,7.16754,21.1255,0.0891923,1582750886.145
34,17,8514,7.0153,22.5269,0.0970346,1582750888.145
36,18,8296,7.06006,24.1978,0.0934905,1582750890.11
38,19,8432,7.54198,23.8163,0.0858584,1582750892.15
40,NA,NA,NA,NA,NA,NA
42,NA,NA,NA,NA,NA,NA
44,NA,NA,NA,NA,NA,NA
46,NA,NA,NA,NA,NA,NA
48,NA,NA,NA,NA,NA,NA
50,NA,NA,NA,NA,NA,NA
52,NA,NA,NA,NA,NA,NA
54,NA,NA,NA,NA,NA,NA
56,NA,NA,NA,NA,NA,NA
58,NA,NA,NA,NA,NA,NA
60,NA,NA,NA,NA,NA,NA
62,NA,NA,NA,NA,NA,NA
64,NA,NA,NA,NA,NA,NA
66,NA,NA,NA,NA,NA,NA
68,34,7551,6.50764,21.6325,0.0959874,1582750922.1
70,35,7580,6.67292,21.5511,0.0937515,1582750924.145
72,36,7633,6.72915,21.4261,0.0931519,1582750926.1
74,37,7551,6.73118,21.273,0.0921106,1582750928.11
76,38,7536,6.72527,21.1163,0.0888143,1582750930.11
78,39,7493,6.73938,20.9498,0.0894947,1582750932.115
80,40,7758,7.01736,21.1108,0.0821502,1582750934.13
82,41,7450,7.03472,21.3349,0.0909702,1582750935.88
84,42,8380,7.93341,22.5264,0.0966152,1582750938.17
86,43,8440,8.4812,22.3919,0.103027,1582750940.105
88,44,8809,9.54333,22.4548,0.101221,1582750942.135
90,45,8600,10.4795,22.1742,0.0940742,1582750944.15
92,46,8536,11.2993,21.5927,0.0928739,1582750946.105
94,47,9489,12.6487,20.5956,0.0968574,1582750948.105
96,48,10084,13.9566,19.7517,0.0977712,1582750950.13
98,49,9710,14.5815,19.9281,0.102258,1582750952.12
100,50,9309,15.2949,20.2186,0.112254,1582750954.135
102,51,9476,15.3163,20.6828,0.098074,1582750956.15
104,52,9459,15.2952,21.1166,0.0915018,1582750958.115
106,53,8844,15.1658,21.6161,0.0878989,1582750960.11
108,54,8887,15.0986,21.5388,0.0985012,1582750962.12
110,55,8899,14.681,22.2066,0.102531,1582750964.16
112,56,8278,13.9024,23.5438,0.103194,1582750966.125
114,57,7626,12.9213,25.0078,0.0975193,1582750968.105
116,58,7418,11.7226,26.5808,0.100361,1582750970.105
118,59,6144,10.5507,28.0819,0.099884,1582750972.095
120,60,6413,9.45091,29.4463,0.100235,1582750974.095
122,61,5479,8.35429,30.9157,0.102549,1582750976.095
124,62,5314,7.57209,32.4232,0.101348,1582750978.15
126,63,5188,7.29029,33.6272,0.0998267,1582750980.115
128,64,5298,7.13274,35.436,0.106151,1582750982.135
130,65,4930,7.09732,36.9843,0.186139,1582750984.13
132,66,6280,6.57911,38.7934,0.261801,1582750986.16
134,67,6568,5.95082,39.6033,0.348849,1582750988.165
136,68,7105,5.32657,40.2308,0.324603,1582750990.135
138,69,7183,5.15349,40.0998,0.276993,1582750992.13
140,70,6793,5.02413,40.1537,0.137665,1582750994.09
142,71,7434,5.39893,40.5079,0.496639,1582750996.12
144,72,7065,5.61691,41.0343,0.280926,1582750998.12
146,73,9767,5.19104,41.484,0.750962,1582751000.115
148,74,9242,5.18575,41.6155,0.405772,1582751002.16
150,75,7623,4.72854,41.3532,0.1132,1582751004.08
152,76,8266,4.97884,41.4311,0.688016,1582751006.14
154,77,8032,5.2324,41.1569,0.453488,1582751008.095
156,78,7990,5.54201,41.2235,0.405846,1582751010.085
158,79,8102,5.78917,41.1228,0.404979,1582751012.115
160,80,7555,6.00116,41.777,0.232718,1582751014.085
162,81,8089,6.09901,41.3894,0.449713,1582751016.085
164,82,7973,6.39823,41.5705,0.842561,1582751018.095
166,83,8927,6.79724,42.5799,0.752513,1582751020.105
168,84,8927,6.73543,42.5091,0.753119,1582751022.12
170,85,9065,6.72832,42.4951,0.747922,1582751024.105
172,86,9065,6.73623,42.4925,0.750351,1582751026.105
174,87,8974,6.84423,42.8739,0.719982,1582751028.175
176,88,9170,7.42346,44.3046,0.647149,1582751030.11
178,89,10147,6.85788,44.106,0.682422,1582751032.11
180,90,10308,6.77256,43.5472,0.6673,1582751034.135
182,91,10308,6.7836,43.5334,0.642207,1582751036.16
184,92,9870,6.80533,43.0334,0.655841,1582751038.125
186,93,9524,6.7619,41.2202,0.54564,1582751040.085
188,94,10441,6.7817,39.95,0.664085,1582751042.125
190,95,10255,6.54644,40.2015,0.406804,1582751044.1
192,96,10638,6.85151,41.2385,0.562291,1582751046.1
194,97,10897,6.68724,41.9017,0.626191,1582751048.09
196,98,10640,7.00598,41.9972,0.588716,1582751050.095
198,99,10640,7.03116,41.9399,0.581447,1582751052.16
200,100,10660,7.24468,42.0637,0.623078,1582751054.14
202,101,10540,6.5956,42.488,0.631748,1582751056.105
204,102,10279,6.3376,42.9799,0.582689,1582751058.155
206,103,10256,5.84228,43.1524,0.580091,1582751060.095
208,104,9780,5.55635,43.665,0.606981,1582751062.09
210,105,9853,5.4946,43.2789,0.548119,1582751064.12
212,106,9580,5.15545,43.8169,0.57026,1582751066.1
214,107,9546,5.2201,43.9674,0.518576,1582751068.14
216,108,9405,4.78164,43.8057,0.672802,1582751070.13
218,109,9457,4.82632,43.8123,0.662589,1582751072.125
220,110,9457,4.83993,43.8165,0.665109,1582751074.105
222,111,9457,4.84277,43.817,0.667847,1582751076.1
224,112,9546,4.86077,43.7836,0.626237,1582751078.115
226,113,9545,5.24255,43.4925,0.58136,1582751080.13
228,114,9378,5.51492,43.4155,0.441586,1582751082.115
230,115,9410,5.03611,43.5668,0.560495,1582751084.165
232,116,9068,4.4449,44.2073,0.581513,1582751086.095
234,117,8750,3.07621,45.6484,0.564289,1582751088.15
236,118,8765,3.17013,45.8011,0.579853,1582751090.145
238,119,9123,4.02621,45.9424,0.590329,1582751092.105
240,120,8955,3.64698,45.8726,0.576591,1582751094.1
242,121,7592,1.71723,45.506,0.577364,1582751096.095
244,122,6310,-0.161652,45.3571,0.580997,1582751098.1
246,123,5045,-2.01964,45.2431,0.644896,1582751100.09
248,124,4723,-4.04564,45.2709,0.537706,1582751102.115
250,125,3951,-6.00503,45.339,0.530254,1582751104.155
252,126,3450,-7.90355,45.5012,0.574616,1582751106.145
254,127,2802,-9.72342,45.7768,0.558705,1582751108.09
256,128,2629,-10.107,45.8733,0.541151,1582751110.14
258,129,3242,-7.94613,45.4773,0.578831,1582751112.09
260,130,3249,-7.6875,45.1623,0.573724,1582751114.085
262,131,3195,-7.90186,44.9628,0.597603,1582751116.12
264,132,3277,-7.67972,44.2941,0.585712,1582751118.125
266,133,3639,-7.42645,43.4194,0.58844,1582751120.105
268,134,3598,-7.17876,42.5675,0.578988,1582751122.095
270,135,3732,-6.65939,40.8522,0.573949,1582751124.105
272,136,4140,-6.06586,39.4456,0.583732,1582751126.15
274,137,4553,-5.34444,37.934,0.580867,1582751128.155
276,138,4200,-5.99211,39.2882,0.586237,1582751130.12
278,139,4091,-6.84823,41.0111,0.573891,1582751132.165
280,140,3940,-7.26352,42.268,0.577079,1582751134.13
282,141,3884,-7.30238,42.8667,0.579204,1582751136.145
284,142,3825,-7.36355,43.4946,0.578584,1582751138.155
286,143,3943,-6.24642,44.4901,0.580275,1582751140.13
288,144,3997,-5.94521,44.6539,0.57544,1582751142.11
290,145,4845,-4.05632,44.9515,0.575257,1582751144.11
292,146,5748,-2.33965,45.1073,0.58214,1582751146.125
294,147,6556,-1.05308,45.0842,0.578905,1582751148.11
296,148,6570,-0.51273,45.4114,0.578905,1582751150.09
298,149,6604,-0.682457,45.4251,0.585701,1582751152.12
300,150,6162,-1.76996,45.1476,0.567102,1582751154.13
302,151,5555,-2.89421,45.0843,0.567877,1582751156.125
304,152,4351,-4.81519,44.9917,0.551737,1582751158.16
306,153,3842,-6.20096,44.7451,0.556057,1582751160.12
308,154,3879,-6.3192,44.2924,0.564994,1582751162.08
310,155,3860,-7.47038,42.8428,0.566566,1582751164.125
312,156,3953,-7.25582,42.5656,0.565206,1582751166.105
314,157,4090,-7.27342,40.8046,0.556108,1582751168.085
316,158,4132,-6.77589,40.1015,0.555387,1582751170.125
318,159,4352,-5.92088,39.3883,0.57181,1582751172.15
320,160,4552,-4.97364,38.1559,0.584742,1582751174.1
322,161,4414,-5.07451,37.6577,0.581817,1582751176.12
324,162,4250,-5.04544,36.8968,0.57147,1582751178.125
326,163,3895,-5.00885,35.4932,0.574838,1582751180.12
328,164,3621,-5.0998,34.6656,0.576614,1582751182.1
330,165,3453,-5.11959,33.6459,0.561626,1582751184.115
332,166,4367,-5.09053,32.2155,0.548462,1582751186.125
334,167,4465,-5.34983,30.9548,0.57344,1582751188.165
336,168,4254,-5.80475,31.2322,0.581986,1582751190.095
338,169,3987,-6.67749,30.9329,0.568851,1582751192.11
340,170,4291,-5.98948,31.0841,0.576406,1582751194.11
342,171,4624,-5.67151,31.0052,0.574691,1582751196.11
344,172,4684,-5.377,30.6469,0.578008,1582751198.115
346,173,4848,-5.04796,29.5871,0.59109,1582751200.15
348,174,5141,-4.45563,27.8789,0.587925,1582751202.14
350,175,4562,-4.66765,27.233,0.58577,1582751204.19
352,176,4661,-4.11052,27.0731,0.595206,1582751206.11
354,177,4741,-4.01242,27.0848,0.598669,1582751208.145
356,178,4890,-3.89129,27.0984,0.596835,1582751210.145
358,179,4257,-3.98608,26.7718,0.600762,1582751212.095
360,180,4431,-3.76656,26.8707,0.609079,1582751214.125
362,181,4499,-3.74449,27.0213,0.607018,1582751216.13
364,182,4415,-3.94191,27.15,0.603065,1582751218.12
366,183,4560,-3.82424,27.3144,0.614089,1582751220.155
368,184,4618,-3.77982,27.4687,0.60712,1582751222.145
370,185,4503,-4.12898,28.0576,0.605751,1582751224.16
372,186,4667,-4.11972,28.5774,0.609885,1582751226.105
374,187,4611,-4.35926,28.3618,0.601196,1582751228.095
376,188,4702,-4.32418,28.7093,0.614702,1582751230.095
378,189,4640,-4.63165,29.2799,0.60714,1582751232.085
380,190,5106,-4.6811,29.5042,0.596812,1582751234.15
382,191,5285,-4.36444,29.3519,0.595944,1582751236.135
384,192,4979,-3.86859,29.2846,0.608669,1582751238.12
386,193,4970,-3.94282,29.0022,0.61393,1582751240.115
388,194,5441,-2.84321,28.3127,0.621115,1582751242.105
390,195,5843,-1.94519,27.9839,0.610884,1582751244.125
392,196,6679,-0.628275,27.428,0.612335,1582751246.13
394,197,6518,-0.850513,27.4357,0.622745,1582751248.145
396,198,6491,-0.93488,27.3208,0.623375,1582751250.13
398,199,6604,-0.933201,27.8106,0.615447,1582751252.095
400,200,6972,-0.486379,27.9342,0.617821,1582751254.1
402,201,6859,-0.686069,28.2444,0.617067,1582751256.15
404,202,6903,-0.51551,27.7464,0.621948,1582751258.1
406,203,6460,-1.13316,27.8625,0.617277,1582751260.09
408,204,6425,-1.37173,28.2036,0.61468,1582751262.1
410,205,5490,-2.88991,28.4174,0.623318,1582751264.12
412,206,4782,-4.1607,28.5181,0.612581,1582751266.135
414,207,5183,-3.38477,28.2441,0.622044,1582751268.135
416,208,4793,-4.58029,28.9445,0.618618,1582751270.12
418,209,4555,-4.7832,28.4807,0.614615,1582751272.1
420,210,4702,-4.89647,29.1033,0.614284,1582751274.14
422,211,5167,-4.99663,30.2743,0.594868,1582751276.09
424,212,5167,-5.21106,31.6855,0.590651,1582751278.1
426,213,5152,-5.31795,31.882,0.580433,1582751280.12
428,214,5228,-5.20524,32.3998,0.597775,1582751282.125
430,215,5194,-5.12607,32.9644,0.577229,1582751284.09
432,216,5040,-5.07416,34.6765,0.571343,1582751286.135
434,217,4982,-5.08042,34.5251,0.583528,1582751288.115
436,218,4982,-5.07863,34.5087,0.582145,1582751290.135
438,219,4982,-5.07766,34.5072,0.588189,1582751292.15
440,220,4982,-5.07769,34.5049,0.588163,1582751294.165
442,221,4982,-5.07806,34.5053,0.5875,1582751296.165
444,222,4982,-5.07849,34.5043,0.587494,1582751298.17
446,223,4982,-5.07834,34.503,0.585552,1582751300.165
448,224,4982,-5.07706,34.5039,0.590582,1582751302.12
450,225,4982,-5.07666,34.5031,0.586475,1582751304.11
452,226,4982,-5.0773,34.5013,0.589082,1582751306.14
454,227,4982,-5.07747,34.5004,0.585448,1582751308.12
456,228,4982,-5.07876,34.5039,0.590902,1582751310.14
458,229,4982,-5.0783,34.5024,0.589457,1582751312.125
460,230,4982,-5.07746,34.503,0.588095,1582751314.135
462,231,4982,-5.0765,34.5035,0.588521,1582751316.105
464,232,4982,-5.07799,34.5031,0.588324,1582751318.14
466,233,4982,-5.07821,34.5021,0.588857,1582751320.155
468,234,4982,-5.07817,34.5026,0.586646,1582751322.135
470,235,4982,-5.07829,34.5032,0.587036,1582751324.155
472,236,4982,-5.07611,34.5036,0.589262,1582751326.095
474,237,4982,-5.07699,34.5013,0.58885,1582751328.09
476,238,4982,-5.07693,34.5054,0.587811,1582751330.105
478,239,4982,-5.0779,34.5029,0.589092,1582751332.155
480,240,4982,-5.07801,34.5016,0.589485,1582751334.155
482,241,4982,-5.07731,34.5017,0.588492,1582751336.095
484,242,4982,-5.07669,34.5028,0.587531,1582751338.105
486,243,4982,-5.07715,34.5036,0.589673,1582751340.135
488,244,4982,-5.07612,34.5036,0.591621,1582751342.14
490,245,4982,-5.07953,34.5016,0.588556,1582751344.18
492,246,4982,-5.07935,34.5024,0.589636,1582751346.13
494,247,4982,-5.0789,34.503,0.587836,1582751348.13
496,248,4982,-5.07875,34.5028,0.592699,1582751350.09
498,249,4982,-5.07558,34.5033,0.59047,1582751352.135
500,250,4982,-5.07727,34.5024,0.586757,1582751354.1
502,251,4982,-5.07904,34.5036,0.590309,1582751356.145
504,252,4982,-5.07833,34.5039,0.589172,1582751358.1
506,253,4982,-5.07791,34.5039,0.590394,1582751360.1
508,254,4982,-5.07689,34.5022,0.590886,1582751362.12
510,255,4982,-5.07727,34.5023,0.591105,1582751364.125
512,256,4982,-5.07712,34.5045,0.58954,1582751366.13
514,257,4982,-5.07697,34.5027,0.590782,1582751368.125
516,258,4982,-5.07812,34.5051,0.589168,1582751370.1
518,259,4982,-5.07797,34.5037,0.589859,1582751372.13
520,260,4982,-5.07754,34.5027,0.588585,1582751374.125
522,261,4982,-5.07732,34.5025,0.588472,1582751376.11
524,262,4982,-5.07756,34.5048,0.589586,1582751378.1
526,263,4982,-5.0788,34.5021,0.587685,1582751380.14
528,264,4982,-5.07757,34.5021,0.589134,1582751382.095
530,265,4982,-5.07678,34.5038,0.586714,1582751384.11
532,266,4982,-5.07619,34.5006,0.590635,1582751386.005
534,267,4982,-5.07634,34.5029,0.58973,1582751388.175
536,268,4982,-5.07647,34.5023,0.589421,1582751390.095
538,269,4982,-5.07785,34.502,0.590019,1582751392.16
540,270,4982,-5.07881,34.5034,0.591538,1582751394.13
542,271,4982,-5.07719,34.5011,0.589257,1582751396.14
544,272,4982,-5.07706,34.5015,0.586642,1582751398.12
546,273,4982,-5.07734,34.5009,0.588372,1582751400.16
548,274,4982,-5.07851,34.5009,0.589287,1582751402.17
550,275,4982,-5.07906,34.5003,0.587328,1582751404.155
552,276,4982,-5.07826,34.5016,0.591276,1582751406.115
554,277,4982,-5.07777,34.5003,0.588681,1582751408.12
556,278,4982,-5.07797,34.5018,0.588894,1582751410.11
558,279,4982,-5.07791,34.502,0.589593,1582751412.145
560,280,4982,-5.08007,34.5013,0.588487,1582751414.13
562,281,5037,-5.07905,34.4986,0.587299,1582751416.11
564,282,4982,-5.07936,34.5014,0.589187,1582751418.105
566,283,4982,-5.07957,34.5005,0.587339,1582751420.13
568,284,5037,-5.07759,34.4997,0.589254,1582751422.135
570,285,4982,-5.07782,34.5005,0.588999,1582751424.105
572,286,4982,-5.07993,34.5014,0.591386,1582751426.14
574,287,4982,-5.07923,34.5021,0.588396,1582751428.13
576,288,4982,-5.08009,34.5007,0.588503,1582751430.145
578,289,5029,-5.05859,34.8437,0.592081,1582751432.16
580,290,5135,-4.87177,35.3817,0.593567,1582751434.11
582,291,4947,-5.11092,36.6562,0.59087,1582751436.125
584,292,4985,-5.18003,37.4782,0.582062,1582751438.13
586,293,5117,-5.06853,38.4728,0.592517,1582751440.125
588,294,4599,-5.79128,39.8786,0.573401,1582751442.125
590,295,4193,-6.82126,41.4941,0.57375,1582751444.115
592,296,4104,-7.08807,41.804,0.570651,1582751446.15
594,297,3913,-7.31645,43.0793,0.590738,1582751448.125
596,298,3859,-6.93175,44.1941,0.588181,1582751450.13
598,299,3869,-6.51197,44.7126,0.586029,1582751452.16
600,300,4004,-5.79967,45.359,0.590922,1582751454.125
602,301,4285,-4.87011,45.6379,0.572924,1582751456.13
604,302,5180,-3.20577,45.7713,0.56961,1582751458.105
606,303,6218,-1.36708,45.5845,0.589492,1582751460.12
608,304,7086,0.39642,45.4215,0.581455,1582751462.16
610,305,7881,2.21904,45.3665,0.575274,1582751464.1
612,306,8310,4.18638,45.2331,0.552385,1582751466.09
614,307,8281,4.16603,45.2259,0.563737,1582751468.14
616,308,8313,4.0851,45.1886,0.576353,1582751470.125
618,309,8363,4.09691,45.0724,0.573111,1582751472.135
620,310,8337,4.11934,45.0071,0.595619,1582751474.13
622,311,8337,4.12157,45.0178,0.576861,1582751476.17
624,312,8367,4.73244,45.3319,0.573041,1582751478.205
626,313,8424,5.49385,45.6853,0.561904,1582751480.095
628,314,8424,5.42602,45.6703,0.563908,1582751482.145
630,315,8355,5.39955,45.6557,0.56657,1582751484.135
632,316,8355,5.39076,45.6511,0.567268,1582751486.125
634,317,8355,5.38096,45.6473,0.567736,1582751488.175
636,318,8355,5.37068,45.6438,0.567619,1582751490.095
638,319,8355,5.35982,45.6406,0.567675,1582751492.105
640,320,8355,5.35188,45.6331,0.569502,1582751494.1
642,321,8355,5.34258,45.6295,0.569127,1582751496.095
644,322,8355,5.33098,45.6249,0.570097,1582751498.14
646,323,8355,5.31994,45.6215,0.569603,1582751500.135
648,324,8355,5.31258,45.6176,0.569721,1582751502.135
650,325,8355,5.30283,45.613,0.569185,1582751504.13
652,326,8365,5.29389,45.6086,0.5713,1582751506.125
654,327,8439,5.51098,45.7144,0.556341,1582751508.135
656,328,8662,5.50441,45.6743,0.560094,1582751510.12
658,329,8792,5.85043,45.4982,0.56625,1582751512.13
660,330,8756,6.12786,45.8405,0.533698,1582751514.12
662,331,8676,6.13461,46.0716,0.528775,1582751516.17
664,332,8572,6.12712,46.2534,0.576184,1582751518.125
666,333,8486,6.05815,46.4616,0.572929,1582751520.14
668,334,8441,5.93832,46.6086,0.56493,1582751522.175
670,335,8441,5.91108,46.6453,0.568744,1582751524.155
672,336,8441,5.92132,46.6406,0.57042,1582751526.13
674,337,8441,5.92202,46.6398,0.570102,1582751528.125
676,338,8441,5.92422,46.6403,0.569752,1582751530.165
678,339,8441,5.92526,46.6423,0.569504,1582751532.12
680,340,8441,5.92561,46.6416,0.570099,1582751534.135
682,341,8441,5.92683,46.6402,0.570863,1582751536.165
684,342,8441,5.92614,46.639,0.570695,1582751538.13
686,343,8441,5.92447,46.6389,0.570864,1582751540.16
688,344,8441,5.92481,46.639,0.571307,1582751542.155
690,345,8441,5.92435,46.6406,0.571362,1582751544.145
692,346,8441,5.92587,46.6401,0.571451,1582751546.11
694,347,8441,5.92638,46.6394,0.571063,1582751548.115
696,348,8441,5.92647,46.639,0.571686,1582751550.13
698,349,8441,5.92439,46.6386,0.571231,1582751552.15
700,350,8441,5.92508,46.6386,0.571767,1582751554.15
702,351,8441,5.92522,46.6403,0.572157,1582751556.135
704,352,8441,5.92512,46.6406,0.572394,1582751558.085
706,353,8441,5.92689,46.6398,0.571122,1582751560.165
708,354,8441,5.92614,46.6395,0.571085,1582751562.135
710,355,8441,5.92546,46.6395,0.571413,1582751564.105
712,356,8441,5.92629,46.64,0.570168,1582751566.095
714,357,8441,5.92625,46.6408,0.569603,1582751568.15
716,358,8441,5.92717,46.6402,0.568374,1582751570.165
718,359,8441,5.92759,46.6397,0.568094,1582751572.125
720,360,8441,5.92686,46.6389,0.568456,1582751574.17
722,361,8441,5.92637,46.6391,0.56843,1582751576.115
724,362,8441,5.92535,46.6399,0.568619,1582751578.135
726,363,8441,5.92569,46.6402,0.568074,1582751580.17
728,364,8441,5.92702,46.6399,0.568183,1582751582.12
730,365,8441,5.92802,46.6396,0.568071,1582751584.165
732,366,8441,5.92579,46.6386,0.568344,1582751586.165
734,367,8441,5.92555,46.6381,0.568424,1582751588.13
736,368,8441,5.92589,46.64,0.568105,1582751590.115
738,369,8441,5.92543,46.6404,0.567383,1582751592.16
740,370,8441,5.92702,46.6394,0.568588,1582751594.11
742,371,8441,5.92688,46.6391,0.568533,1582751596.13
744,372,8441,5.92609,46.6386,0.569213,1582751598.135
746,373,8441,5.92613,46.639,0.56913,1582751600.14
748,374,8441,5.92669,46.6406,0.56905,1582751602.13
750,375,8441,5.92713,46.6404,0.56861,1582751604.13
752,376,8441,5.92864,46.6399,0.56905,1582751606.16
754,377,8441,5.92754,46.6393,0.568926,1582751608.16
756,378,8441,5.9262,46.6389,0.570125,1582751610.125
758,379,8441,5.927,46.6401,0.56965,1582751612.105
760,380,8441,5.92714,46.641,0.569809,1582751614.105
762,381,8441,5.92855,46.641,0.569192,1582751616.14
764,382,8441,5.92909,46.6404,0.569083,1582751618.135
766,383,8441,5.92893,46.6393,0.569366,1582751620.125
768,384,8441,5.92732,46.6389,0.568871,1582751622.15
770,385,8441,5.92803,46.6398,0.569391,1582751624.135
772,386,8441,5.92764,46.6407,0.569804,1582751626.14
774,387,8441,5.92784,46.6407,0.569432,1582751628.155
776,388,8441,5.92914,46.6404,0.569311,1582751630.145
778,389,8441,5.92835,46.6397,0.569313,1582751632.135
780,390,8441,5.92773,46.639,0.568806,1582751634.165
782,391,8441,5.92628,46.6401,0.569535,1582751636.12
784,392,8441,5.9271,46.6406,0.568681,1582751638.11
786,393,8441,5.92793,46.64,0.568176,1582751640.12
788,394,8441,5.92835,46.6398,0.568946,1582751642.135
790,395,8441,5.92745,46.6388,0.569214,1582751644.13
792,396,8441,5.92648,46.6386,0.567774,1582751646.105
794,397,8441,5.92675,46.6392,0.56782,1582751648.1
796,398,8441,5.928,46.6397,0.566604,1582751650.09
798,399,8441,5.92851,46.6396,0.567532,1582751652.17
800,400,8441,5.92943,46.6394,0.566004,1582751654.09
802,401,8441,5.92755,46.6386,0.568621,1582751656.105
804,402,8441,5.92563,46.6385,0.568273,1582751658.13
806,403,8441,5.927,46.6395,0.567953,1582751660.12
808,404,8441,5.92708,46.6391,0.567262,1582751662.13
810,405,8441,5.92831,46.639,0.568404,1582751664.12
812,406,8441,5.92745,46.6384,0.567378,1582751666.13
814,407,8441,5.92641,46.6382,0.56714,1582751668.15
816,408,8441,5.92627,46.6391,0.566742,1582751670.11
818,409,8441,5.92607,46.6399,0.566246,1582751672.105
820,410,8441,5.92654,46.6397,0.565392,1582751674.18
822,411,8441,5.92838,46.6397,0.565134,1582751676.145
824,412,8441,5.92729,46.6385,0.567834,1582751678.09
826,413,8441,5.92645,46.6389,0.568158,1582751680.12
828,414,8441,5.92594,46.6381,0.567166,1582751682.105
830,415,8441,5.92622,46.6394,0.567974,1582751684.145
832,416,8441,5.92761,46.6399,0.566189,1582751686.11
834,417,8441,5.92772,46.6394,0.568285,1582751688.135
836,418,8441,5.92761,46.6385,0.567203,1582751690.145
838,419,8441,5.92716,46.6391,0.568705,1582751692.14
840,420,8441,5.92632,46.6389,0.570012,1582751694.135
842,421,8441,5.92651,46.6404,0.569279,1582751696.105
844,422,8441,5.92696,46.6399,0.568544,1582751698.22
846,423,8441,5.92803,46.6393,0.570454,1582751700.17
848,424,8441,5.92817,46.6397,0.569937,1582751702.11
850,425,8441,5.92545,46.6386,0.570947,1582751704.135
852,426,8441,5.92746,46.6399,0.569743,1582751706.12
854,427,8441,5.92682,46.6401,0.569601,1582751708.17
856,428,8441,5.92769,46.6399,0.568932,1582751710.115
858,429,8441,5.92739,46.6397,0.570561,1582751712.18
860,430,8441,5.92745,46.6392,0.56979,1582751714.13
862,431,8441,5.92742,46.6391,0.569541,1582751716.125
864,432,8441,5.92701,46.64,0.570066,1582751718.1
866,433,8441,5.9272,46.6395,0.57025,1582751720.135
868,434,8441,5.92759,46.6402,0.570441,1582751722.17
870,435,8441,5.92803,46.6393,0.568831,1582751724.125
872,436,8441,5.92787,46.6392,0.569092,1582751726.105
874,437,8441,5.92683,46.6395,0.569342,1582751728.12
876,438,8441,5.92651,46.6396,0.568914,1582751730.125
878,439,8441,5.92567,46.6396,0.569186,1582751732.175
880,440,8441,5.92781,46.6397,0.570056,1582751734.165
882,441,8441,5.92873,46.64,0.568861,1582751736.125
884,442,8441,5.92779,46.6389,0.569667,1582751738.125
886,443,8441,5.92778,46.6399,0.570378,1582751740.145
888,444,8441,5.9276,46.6405,0.569542,1582751742.16
890,445,8441,5.92799,46.6414,0.569059,1582751744.105
892,446,8441,5.9289,46.6414,0.570978,1582751746.12
894,447,8441,5.92928,46.6408,0.570778,1582751748.08
896,448,8441,5.92733,46.6403,0.570215,1582751750.09
898,449,8304,7.26945,46.9006,0.562452,1582751752.165
900,450,8248,8.15291,46.6311,0.590523,1582751754.135
902,451,8369,9.74631,46.1616,0.625766,1582751756.115
904,452,10179,11.3772,45.4909,0.77038,1582751758.14
906,453,10728,12.7791,45.1181,0.774772,1582751760.185
908,454,11371,14.3385,44.8037,0.814798,1582751762.135
910,455,12070,16.2489,44.7546,0.845066,1582751764.175
912,456,13446,15.4071,44.7417,0.821846,1582751766.135
914,457,14285,13.7238,44.8494,0.799293,1582751768.135
916,458,14186,11.7779,45.2225,0.81408,1582751770.125
918,459,12480,9.93349,45.7323,0.695536,1582751772.14
920,460,10228,8.43639,46.5154,0.635128,1582751774.175
922,461,10351,8.11409,46.5667,0.616677,1582751776.16
924,462,9275,7.56731,47.9857,0.60457,1582751778.155
926,463,9145,7.33056,49.604,0.589831,1582751780.135
928,464,8889,7.3396,51.3397,0.588768,1582751782.145
930,465,9015,7.39167,51.3651,0.583637,1582751784.125
932,466,8725,6.94641,51.3291,0.603616,1582751786.13
934,467,9080,7.3095,51.234,0.598215,1582751788.145
936,468,8761,6.89961,51.3161,0.599226,1582751790.125
938,469,8825,7.53774,52.0762,0.602332,1582751792.12
940,470,8938,7.85273,52.1829,0.64376,1582751794.11
942,471,9763,7.59609,52.9133,0.903909,1582751796.145
944,472,12415,7.95818,52.9243,0.895318,1582751798.18
946,473,11585,7.27657,53.1481,0.708209,1582751800.17
948,474,10537,7.32325,53.2009,0.664995,1582751802.135
950,475,13576,7.6501,53.0393,0.720235,1582751804.135
952,476,13563,7.68561,53.0116,0.690523,1582751806.125
954,477,13576,7.64953,53.0413,0.72164,1582751808.165
956,478,13576,7.64993,53.0389,0.751609,1582751810.155
958,479,13576,7.66404,53.0373,0.718565,1582751812.145
960,480,14149,7.58851,52.9974,0.851544,1582751814.15
962,481,13196,7.55521,53.006,0.687704,1582751816.145
964,482,13196,7.55669,53.007,0.690522,1582751818.105
966,483,13196,7.55782,53.0036,0.692548,1582751820.095
968,484,15103,7.41495,53.081,1.30657,1582751822.145
970,485,13802,7.56284,53.0479,0.876233,1582751824.13
972,486,13796,7.4935,53.0769,0.893677,1582751826.13
974,487,13892,7.70874,53.0145,0.80319,1582751828.14
976,488,13911,7.61794,53.0439,0.857213,1582751830.115
978,489,13488,7.4437,52.5382,0.724444,1582751832.13
980,490,13402,7.2007,51.981,0.642079,1582751834.14
982,491,13174,6.95385,52.297,0.659487,1582751836.185
984,492,13101,6.92125,52.6454,0.675183,1582751838.14
986,493,13250,7.23063,52.6084,0.682951,1582751840.135
988,494,13250,7.21383,52.6348,0.675858,1582751842.145
990,495,13203,7.19958,52.6336,0.668431,1582751844.165
992,496,13348,7.16567,52.6156,0.734324,1582751846.125
994,497,13348,7.17556,52.6589,0.72673,1582751848.105
996,498,13348,7.1681,52.6548,0.71597,1582751850.135
998,499,13348,7.16626,52.6556,0.704872,1582751852.19
1000,500,13203,7.16803,52.6563,0.697048,1582751854.13
1002,501,13203,7.16624,52.6565,0.691388,1582751856.155
1004,502,13203,7.16651,52.6567,0.68751,1582751858.15
1006,503,13203,7.16752,52.6552,0.691593,1582751860.135
1008,504,13203,7.16675,52.656,0.692726,1582751862.125
1010,505,13203,7.16679,52.6555,0.691638,1582751864.11
1012,506,13203,7.16613,52.6556,0.69251,1582751866.14
1014,507,13203,7.16684,52.6565,0.693396,1582751868.105
1016,508,13203,7.167,52.6557,0.692794,1582751870.115
1018,509,13203,7.16712,52.6555,0.690476,1582751872.11
1020,510,13387,7.19347,52.5612,0.724605,1582751874.16
1022,511,13383,7.31611,51.9101,0.68227,1582751876.105
1024,512,13810,7.54603,51.8943,0.761795,1582751878.105
1026,513,13774,7.91421,51.6044,0.689235,1582751880.225
1028,514,14025,8.27389,51.4729,0.66391,1582751882.13
1030,515,14078,8.20719,51.5012,0.659064,1582751884.125
1032,516,14273,8.31607,51.3836,0.738041,1582751886.1
1034,517,14235,8.27867,51.3929,0.723915,1582751888.14
1036,518,14235,8.26919,51.3976,0.730311,1582751890.1
1038,519,14203,8.25618,51.4029,0.727452,1582751892.17
1040,520,14040,8.24478,51.6597,0.663313,1582751894.115
1042,521,14055,8.27029,51.9646,0.690122,1582751896.145
1044,522,14711,8.53829,51.2818,0.811913,1582751898.145
1046,523,16091,8.96939,51.1131,1.12962,1582751900.165
1048,524,13879,8.9523,50.1762,0.698665,1582751902.165
1050,525,13538,8.71027,49.6528,0.686297,1582751904.11
1052,526,13483,8.95265,49.1205,0.689041,1582751906.11
1054,527,13669,9.12323,48.8567,0.682637,1582751908.15
1056,528,13692,9.07092,48.901,0.683122,1582751910.135
1058,529,13692,9.05625,48.9093,0.679774,1582751912.135
1060,530,13640,9.11272,48.9001,0.677341,1582751914.135
1062,531,14159,9.22743,48.6754,0.760036,1582751916.145
1064,532,14127,9.16024,48.7987,0.710997,1582751918.145
1066,533,14152,9.10362,48.9461,0.72177,1582751920.18
1068,534,13577,9.17837,48.9272,0.689488,1582751922.115
1070,535,14132,9.27248,48.9859,0.720547,1582751924.11
1072,536,14296,9.37984,48.9684,0.71445,1582751926.105
1074,537,14314,9.46859,48.5153,0.742462,1582751928.115
1076,538,14110,9.28333,48.7239,0.72688,1582751930.185
1078,539,14275,9.47372,48.3705,0.722787,1582751932.125
1080,540,14189,9.32866,48.4289,0.728141,1582751934.13
1082,541,13832,9.0617,48.4441,0.703261,1582751936.115
1084,542,13558,8.77472,48.3102,0.726179,1582751938.11
1086,543,13279,8.56392,48.2071,0.709302,1582751940.135
1088,544,12386,8.28282,47.8686,0.690298,1582751942.17
1090,545,11447,7.53357,47.0267,0.674735,1582751944.14
1092,546,11220,7.47042,46.4163,0.676066,1582751946.145
1094,547,11560,7.65569,46.5219,0.673404,1582751948.165
1096,548,11641,7.59264,44.5276,0.636984,1582751950.14
1098,549,11444,7.27744,43.2243,0.627768,1582751952.13
1100,550,11713,6.74425,41.2617,0.644702,1582751954.125
1102,551,11990,6.62505,39.5734,0.802243,1582751956.01
1104,552,11504,6.13591,38.974,0.965041,1582751958.135
1106,553,10000,5.54722,37.8571,0.304096,1582751960.18
1108,554,9797,5.53437,37.5922,0.309426,1582751962.11
1110,555,8936,5.07721,36.696,0.289422,1582751964.14
1112,556,8773,5.07411,36.2715,0.296183,1582751966.145
1114,557,9998,5.27642,37.7263,0.47089,1582751968.12
1116,558,10275,5.53958,38.8097,0.317139,1582751970.115
1118,559,9322,4.98697,38.6782,0.164757,1582751972.145
1120,560,10554,5.60772,39.5242,0.458029,1582751974.13
1122,561,10246,5.23121,39.3407,0.436789,1582751976.17
1124,562,10101,5.3028,39.0208,0.34837,1582751978.105
1126,563,9770,5.55631,38.4974,0.265566,1582751980.11
1128,564,9215,5.29238,38.5566,0.163692,1582751982.135
1130,565,9909,5.55972,38.0205,0.393455,1582751984.175
1132,566,9492,5.65323,37.0504,0.260968,1582751986.18
1134,567,9901,5.8054,37.3776,0.304241,1582751988.165
1136,568,9683,5.7927,37.1191,0.279185,1582751990.16
1138,569,9770,6.10748,37.0037,0.308544,1582751992.15
1140,570,9235,6.62904,36.2051,0.243254,1582751994.115
1142,571,7813,7.37573,35.4895,0.0623555,1582751996.16
1144,572,7682,6.96169,35.2433,0.0409245,1582751998.115
1146,573,7419,7.23776,34.4505,0.044107,1582752000.15
1148,574,7687,7.34035,34.9346,0.0861512,1582752002.105
1150,575,7576,7.42054,34.7449,0.0831106,1582752004.13
1152,576,7973,7.27962,34.9918,0.12108,1582752006.14
1154,577,7515,7.32117,34.7068,0.0605265,1582752008.16
1156,578,8006,7.73293,34.5923,0.121329,1582752010.135
1158,579,7970,7.69047,34.613,0.104198,1582752012.125
1160,580,7970,7.6768,34.6503,0.122544,1582752014.15
1162,581,7970,7.66461,34.6746,0.114325,1582752016.11
1164,582,7970,7.6412,34.6001,0.147248,1582752018.15
1166,583,7970,7.6492,34.6647,0.118881,1582752020.145
1168,584,7970,7.63929,34.6807,0.117616,1582752022.1
1170,585,7970,7.63417,34.6934,0.133075,1582752024.15
1172,586,7856,7.53766,34.4582,0.153767,1582752026.145
1174,587,7906,7.8703,34.141,0.134948,1582752028.12
1176,588,7974,8.25213,33.5389,0.117235,1582752030.13
1178,589,7572,9.31641,31.8181,0.0790403,1582752032.165
1180,590,7363,10.178,30.1354,0.0828145,1582752034.13
1182,591,7634,10.8887,28.5253,0.110496,1582752036.125
1184,592,7400,11.6643,26.8308,0.0987871,1582752038.155
1186,593,7311,12.6075,25.2232,0.0811277,1582752040.12
1188,594,7255,13.6428,23.8939,0.0990426,1582752042.13
1190,595,7054,14.8898,22.5552,0.118247,1582752044.155
1192,596,6339,16.1137,21.0933,0.116778,1582752046.125
1194,597,5984,17.1944,20.2682,0.117233,1582752048.17
1196,598,6762,17.8789,20.2576,0.113727,1582752050.15
1198,599,6018,19.126,19.6435,0.120133,1582752052.14
1200,600,6535,19.9626,18.7221,0.107399,1582752054.18
1202,601,6873,20.7658,18.0238,0.124254,1582752056.175
1204,602,7329,20.8989,17.6175,0.123922,1582752058.165
1206,603,6617,22.2087,16.1325,0.132763,1582752060.13
1208,604,6979,23.6356,14.8167,0.119669,1582752062.165
1210,605,7439,24.2007,14.5544,0.141058,1582752064.175
1212,606,7241,25.7488,13.7293,0.146318,1582752066.135
1214,607,7071,27.0583,12.8851,0.259893,1582752068.13
1216,608,7786,27.5701,12.6988,0.537788,1582752070.12
1218,609,9693,27.1838,12.7568,0.599339,1582752072.11
1220,610,10112,27.0822,12.0324,0.500131,1582752074.115
1222,611,11149,26.8107,12.5105,1.07156,1582752076.15
1224,612,11252,26.8467,12.6428,0.613675,1582752078.11
1226,613,10806,27.4218,12.9733,0.73795,1582752080.18
1228,614,10082,27.7354,13.205,0.514967,1582752082.15
1230,615,10032,28.0712,13.4871,0.498432,1582752084.15
1232,616,9892,28.2446,13.502,0.5099,1582752086.125
1234,617,9999,28.0677,13.4855,0.508142,1582752088.125
1236,618,9999,28.0697,13.4992,0.508309,1582752090.11
1238,619,10032,28.0757,13.8988,0.529396,1582752092.115
1240,620,10186,27.9547,13.4906,0.535613,1582752093.915
1242,621,10211,28.0835,13.6453,0.502455,1582752096.145
1244,622,10300,27.7818,13.5498,0.518207,1582752098.12
1246,623,10270,27.8875,13.6685,0.537282,1582752100.125
1248,624,9742,28.4032,13.6277,0.488698,1582752102.115
1250,625,9661,28.7138,13.9971,0.52736,1582752104.14
1252,626,8915,29.8964,14.9876,0.522254,1582752106.14
1254,627,8649,30.1185,14.9252,0.514213,1582752108.15
1256,628,8575,31.4281,15.2914,0.522573,1582752110.155
1258,629,8313,31.9524,15.1059,0.531619,1582752112.145
1260,630,8038,34.0792,14.8695,0.535795,1582752114.15
1262,631,8427,35.8714,14.6836,0.508738,1582752116.15
1264,632,9298,36.4362,14.2952,0.537162,1582752118.135
1266,633,9260,37.7135,13.8846,0.624225,1582752120.12
1268,634,9114,38.946,12.6813,0.723898,1582752122.145
1270,635,9346,39.5148,12.2694,0.664403,1582752124.12
1272,636,10078,40.9586,10.8925,0.709883,1582752126.105
1274,637,11009,40.5419,11.0317,0.60665,1582752128.115
1276,638,11005,40.598,11.092,0.612175,1582752130.16
1278,639,10923,40.6734,11.2155,0.616909,1582752132.175
1280,640,10520,40.9951,11.3932,0.786009,1582752134.115
1282,641,9856,41.1667,11.7411,0.56899,1582752136.17
1284,642,9581,41.2755,11.1357,0.577891,1582752138.11
1286,643,9538,41.3524,11.7166,0.566074,1582752140.115
1288,644,9387,41.3736,11.653,0.655809,1582752142.12
1290,645,9375,41.3993,11.2112,0.614728,1582752144.11
1292,646,8705,41.325,11.2237,0.629967,1582752146.155
1294,647,8595,41.3422,11.1433,0.684856,1582752148.115
1296,648,8831,41.3677,11.0981,0.597926,1582752150.145
1298,649,9101,41.7771,11.7008,0.71767,1582752152.15
1300,650,8011,42.2399,12.1585,0.60071,1582752154.19
1302,651,8367,42.2908,11.7729,0.609738,1582752156.145
1304,652,8133,42.3579,12.1566,0.616904,1582752158.155
1306,653,9234,42.5056,12.4925,1.10859,1582752160.155
1308,654,9855,42.8877,12.4927,0.801698,1582752162.145
1310,655,9705,43.1446,12.2945,0.844793,1582752164.105
1312,656,9377,43.3729,12.7758,0.811431,1582752166.14
1314,657,9299,42.9322,12.9093,0.737088,1582752168.185
1316,658,9433,43.0495,12.9482,0.949009,1582752170.185
1318,659,8568,43.5523,13.7302,1.27846,1582752172.17
1320,660,9787,43.1354,13.6797,0.882346,1582752174.16
1322,661,9952,43.0534,13.2415,0.878684,1582752176.14
1324,662,9458,43.3567,13.5726,0.82973,1582752178.1
1326,663,10349,43.1827,13.4572,0.904372,1582752180.115
1328,664,9699,43.1005,13.3814,0.738765,1582752182.15
1330,665,9139,43.0143,13.5575,0.672953,1582752184.105
1332,666,9646,43.2747,13.5007,0.787136,1582752186.135
1334,667,9699,43.1499,13.3897,0.796592,1582752188.1
1336,668,9746,43.0704,13.5184,0.772035,1582752190.105
1338,669,9537,43.4785,13.5349,0.761918,1582752192.13
1340,670,8671,44.1832,14.5119,0.701537,1582752194.13
1342,671,8883,44.7387,14.8972,0.741683,1582752196.13
1344,672,9191,46.1032,15.7195,0.748476,1582752198.11
1346,673,10284,46.9264,16.3912,0.75016,1582752200.155
1348,674,10257,47.0129,16.5866,0.732714,1582752202.125
1350,675,10005,47.8711,17.2491,0.719674,1582752204.115
1352,676,9943,48.7202,17.8233,0.717969,1582752206.11
1354,677,10259,50.0848,18.4171,0.733538,1582752208.17
1356,678,10959,51.4129,18.5765,0.734067,1582752210.22
1358,679,10988,50.3202,18.4576,0.755767,1582752212.12
1360,680,11062,50.4178,18.1587,0.756234,1582752214.125
1362,681,11076,51.0185,17.7446,0.753481,1582752216.135
1364,682,10778,51.9243,17.0568,0.73978,1582752218.145
1366,683,10839,51.7881,17.2281,0.758855,1582752220.125
1368,684,10878,51.7027,17.3603,0.7745,1582752222.11
1370,685,10612,52.2822,17.6978,0.746025,1582752224.165
1372,686,10255,53.0174,17.9901,0.790489,1582752226.115
1374,687,11067,52.8102,17.5343,0.760841,1582752228.16
1376,688,11027,52.8397,17.8845,0.749545,1582752230.11
1378,689,11087,52.4247,17.9011,0.75587,1582752232.18
1380,690,9877,52.8106,18.4702,0.767666,1582752234.14
1382,691,9602,53.2279,18.8753,0.766966,1582752236.175
1384,692,9963,53.9657,19.1349,0.77791,1582752238.12
1386,693,9349,55.0985,19.2396,0.760065,1582752240.145
1388,694,10898,55.6097,19.077,0.795023,1582752242.17
1390,695,11450,57.3914,18.7319,0.812584,1582752244.105
1392,696,11445,59.2835,18.6175,0.839647,1582752246.15
1394,697,11265,61.2157,18.6038,0.819618,1582752248.145
1396,698,10747,62.0527,18.7778,0.822935,1582752250.14
1398,699,9407,63.1616,19.2112,0.81726,1582752252.135
1400,700,8120,63.9035,19.7462,0.821983,1582752254.185
1402,701,7680,64.3416,20.6829,0.816613,1582752256.13
1404,702,7922,65.0935,21.5222,0.836433,1582752258.11
1406,703,8105,64.789,21.1414,0.819911,1582752260.12
1408,704,7953,63.7673,21.0456,0.827097,1582752262.13
1410,705,8130,63.2222,21.4683,0.823199,1582752264.15
1412,706,7729,61.9513,23.0386,0.815044,1582752266.15
1414,707,8137,61.0681,24.3898,0.820469,1582752268.145
1416,708,8523,60.9035,24.8421,0.808443,1582752270.17
1418,709,7941,60.6576,26.8645,0.811017,1582752272.155
1420,710,8110,60.6207,28.6999,0.805369,1582752274.155
1422,711,7506,60.6667,30.6812,0.798781,1582752276.17
1424,712,5699,60.7857,32.3512,0.807544,1582752278.13
1426,713,5671,61.2163,33.4695,0.826192,1582752280.17
1428,714,4601,61.9756,35.2053,0.810717,1582752282.135
1430,715,4396,62.1151,35.8404,0.811962,1582752284.135
1432,716,3988,62.1397,37.9107,0.800039,1582752286.18
1434,717,5143,62.0655,38.7842,0.807262,1582752288.17
1436,718,4512,62.962,40.4452,0.80282,1582752290.165
1438,719,4894,63.1128,41.1864,0.810915,1582752292.165
1440,720,5329,63.1902,43.1804,0.797057,1582752294.11
1442,721,5264,63.2047,44.557,0.783271,1582752296.155
1444,722,5880,63.1667,42.5611,0.79317,1582752298.155
1446,723,6037,63.0815,40.5352,0.809238,1582752300.13
1448,724,6004,62.8187,38.9861,0.81139,1582752302.145
1450,725,5285,62.4251,37.1105,0.795921,1582752304.125
1452,726,5041,61.9833,35.2259,0.816171,1582752306.115
1454,727,5528,61.7511,34.0082,0.813634,1582752308.125
1456,728,5436,61.9638,35.1785,0.811335,1582752310.13
1458,729,5339,61.8537,37.138,0.808059,1582752312.185
1460,730,5433,61.6859,38.7441,0.812022,1582752314.145
1462,731,5203,61.5746,39.0234,0.824443,1582752316.135
1464,732,5306,62.8209,40.1235,0.808338,1582752318.12
1466,733,5301,63.0314,40.4982,0.815894,1582752320.115
1468,734,5012,63.3668,42.5365,0.807331,1582752322.165
1470,735,3999,63.3817,44.3236,0.784964,1582752324.17
1472,736,4231,63.3569,46.2564,0.781157,1582752326.14
1474,737,3918,63.2975,48.1787,0.781051,1582752328.11
1476,738,4595,63.1469,50.1155,0.785057,1582752330.18
1478,739,5565,62.925,51.9928,0.789057,1582752332.14
1480,740,7907,62.6272,53.8083,0.762586,1582752334.125
1482,741,8161,62.1663,55.618,0.772545,1582752336.155
1484,742,9295,61.2369,57.1428,1.06484,1582752338.145
1486,743,15694,60.7676,58.8884,0.957687,1582752340.18
1488,744,15240,60.9753,59.9863,1.12028,1582752342.18
1490,745,14282,61.1554,59.7129,0.958298,1582752344.135
1492,746,17331,62.0613,59.6245,0.942312,1582752346.165
1494,747,15095,61.8625,59.6851,0.943785,1582752348.145
1496,748,15020,61.2354,59.6686,0.94826,1582752350.135
1498,749,14263,60.9165,59.9686,0.945998,1582752352.115
1500,750,14237,60.6959,60.1581,0.985075,1582752354.12
1502,751,14528,60.9202,60.3461,0.833402,1582752356.105
1504,752,15521,60.4579,59.7319,1.14322,1582752358.155
1506,753,15095,60.4059,59.477,1.10514,1582752360.11
1508,754,15960,60.3183,59.2665,1.07918,1582752362.155
1510,755,14532,60.3012,59.9816,1.3146,1582752364.16
1512,756,15612,60.3007,59.9424,1.32339,1582752366.125
1514,757,15716,60.2877,59.9417,1.32522,1582752368.12
1516,758,15342,60.2774,59.9433,1.32533,1582752370.14
1518,759,15144,60.1074,60.1306,1.07351,1582752372.155
1520,760,15102,59.7125,60.0278,1.05334,1582752374.145
1522,761,15636,60.0147,59.3751,1.2374,1582752376.135
1524,762,13440,59.1931,59.2602,1.10716,1582752378.12
1526,763,13775,58.8386,59.0372,1.15682,1582752380.145
1528,764,13521,58.7394,58.7214,1.15461,1582752382.195
1530,765,13481,58.6036,59.0212,1.12173,1582752384.19
1532,766,13259,58.3402,58.9635,1.1199,1582752386.16
1534,767,13866,58.7662,59.0149,1.12299,1582752388.195
1536,768,14469,59.7886,58.9149,1.12868,1582752390.135
1538,769,15646,60.1309,58.9232,1.24991,1582752392.15
1540,770,14868,59.7271,58.9796,1.34957,1582752394.12
1542,771,14256,59.1884,59.2084,1.1334,1582752396.12
1544,772,14252,59.1171,59.2198,1.13744,1582752398.145
1546,773,14252,59.1806,59.2372,1.17951,1582752400.13
1548,774,14252,59.1774,59.2802,1.1534,1582752402.18
1550,775,14485,59.1447,59.0992,1.17362,1582752404.13
1552,776,14514,58.8198,59.193,1.12796,1582752406.155
1554,777,13908,58.4118,59.8165,1.13178,1582752408.14
1556,778,13849,58.7276,60.0079,1.14131,1582752410.13
1558,779,13968,58.9255,59.8602,1.11732,1582752412.18
1560,780,14169,59.3285,59.6614,1.11701,1582752414.135
1562,781,14771,59.6613,59.3824,1.14568,1582752416.18
1564,782,14519,59.6973,59.4593,1.11508,1582752418.145
1566,783,14454,59.9294,59.602,1.13622,1582752420.125
1568,784,14377,59.6685,59.8707,1.16879,1582752422.145
1570,785,14417,59.4894,59.5466,1.11732,1582752424.13
1572,786,15271,59.7793,57.6244,1.28248,1582752426.15
1574,787,13492,60.335,56.2918,1.38417,1582752428.18
1576,788,13552,60.7798,56.3927,1.13591,1582752430.145
1578,789,15871,61.0252,56.8304,1.23597,1582752432.135
1580,790,14861,60.8778,56.3265,1.21503,1582752434.15
1582,791,12638,61.0974,55.6546,1.19161,1582752436.145
1584,792,12008,60.9259,55.2549,1.18682,1582752438.135
1586,793,11922,61.2507,55.0079,1.18739,1582752440.145
1588,794,13720,61.235,55.0428,1.20104,1582752442.1
1590,795,11922,61.2231,55.0384,1.19969,1582752444.135
1592,796,12071,61.2144,55.0331,1.19627,1582752446.145
1594,797,12088,60.8056,55.22,1.19535,1582752448.135
1596,798,10207,61.0771,53.4206,1.18325,1582752450.14
1598,799,10750,61.1525,52.3274,1.22134,1582752452.13
1600,800,8925,62.1373,51.2596,1.17853,1582752454.15
1602,801,8596,62.9822,50.2955,0.801944,1582752456.22
1604,802,8415,63.0462,49.3062,0.853499,1582752458.175
1606,803,8433,62.9512,49.7037,0.827959,1582752460.165
1608,804,8453,62.6684,50.1531,0.825804,1582752462.11
1610,805,8474,62.0687,50.7828,0.83118,1582752464.185
1612,806,8570,61.7255,51.0852,0.828889,1582752466.115
1614,807,8424,63.2472,50.0072,0.802799,1582752468.125
1616,808,8211,64.443,49.4452,0.810368,1582752470.175
1618,809,7941,65.6117,49.1655,0.824876,1582752472.115
1620,810,7920,66.2657,49.3638,0.798025,1582752474.155
1622,811,8646,67.4498,49.894,0.812797,1582752476.13
1624,812,8051,68.3185,49.8012,0.811404,1582752478.115
1626,813,8342,68.6202,49.7817,0.81243,1582752480.16
1628,814,7758,69.9406,49.7004,0.801139,1582752482.17
1630,815,7858,70.8467,50.054,0.793634,1582752484.165
1632,816,9954,72.025,50.669,0.810743,1582752486.115
1634,817,9802,72.0412,50.9363,0.809043,1582752488.15
1636,818,9966,72.7851,50.0464,0.821535,1582752490.19
1638,819,9814,72.7251,50.1536,0.825321,1582752492.17
1640,820,9945,72.8984,49.6365,0.826049,1582752494.12
1642,821,9124,73.0863,49.0636,0.831363,1582752496.155
1644,822,8997,73.1748,49.1136,0.821532,1582752498.11
1646,823,8764,73.6228,49.823,0.826657,1582752500.125
1648,824,8313,73.9684,50.0766,0.822231,1582752502.12
1650,825,7392,74.3432,49.7889,0.827701,1582752504.145
1652,826,6217,75.9917,49.5037,0.857735,1582752506.155
1654,827,6284,75.8358,49.5593,0.850263,1582752508.18
1656,828,6426,75.8442,49.9805,0.839762,1582752510.125
1658,829,5654,76.3112,49.9687,0.839448,1582752512.17
1660,830,5186,77.2298,50.3771,0.860506,1582752514.17
1662,831,5302,77.2439,50.6481,0.805113,1582752516.15
1664,832,5726,78.2582,52.2892,0.843945,1582752518.145
1666,833,5563,78.524,52.295,0.841148,1582752520.11
1668,834,5403,78.4868,52.187,0.844386,1582752522.14
1670,835,5522,78.4742,52.6785,0.844744,1582752524.14
1672,836,4894,78.9234,52.9738,0.83329,1582752526.145
1674,837,5173,78.4277,53.3234,0.836435,1582752528.165
1676,838,5227,78.709,53.9108,0.835981,1582752530.2
1678,839,5105,78.9276,53.5682,0.839249,1582752532.17
1680,840,5435,78.868,53.7062,0.825409,1582752534.175
1682,841,5567,78.8906,53.8174,0.841331,1582752536.13
1684,842,5437,78.8282,53.9464,0.831847,1582752538.13
1686,843,5371,79.0615,53.9457,0.839934,1582752540.145
1688,844,10418,78.9409,54.2574,0.99133,1582752542.18
1690,845,10221,79.0183,54.7192,1.0919,1582752544.125
1692,846,11616,78.8646,54.7929,0.959496,1582752546.12
1694,847,12199,78.8015,55.3658,1.12824,1582752548.145
1696,848,10386,78.4408,56.4269,0.856526,1582752550.15
1698,849,11039,78.346,56.3961,0.85273,1582752552.145
1700,850,11061,77.9484,57.0228,0.841157,1582752554.125
1702,851,11061,77.9111,57.082,0.852697,1582752556.16
1704,852,10995,77.9159,57.1717,0.844104,1582752558.185
1706,853,11057,78.4715,57.1524,0.831955,1582752560.19
1708,854,10935,78.527,57.2664,0.823465,1582752562.145
1710,855,11127,78.4906,56.7999,0.833981,1582752564.145
1712,856,11131,78.4783,57.0013,0.830143,1582752566.2
1714,857,10983,78.2521,57.6579,0.832344,1582752568.155
1716,858,10959,78.0708,57.0587,0.847038,1582752570.14
1718,859,10666,77.9749,57.2035,0.869613,1582752572.125
1720,860,10787,77.8137,57.1215,0.841191,1582752574.175
1722,861,10713,78.1037,56.3681,0.851508,1582752576.125
1724,862,10748,78.355,56.4369,0.841258,1582752578.215
1726,863,10821,78.067,55.5503,0.83977,1582752580.12
1728,864,10955,77.8632,55.1032,0.823933,1582752582.18
1730,865,11194,77.5014,53.5169,1.07759,1582752584.18
1732,866,12271,76.9999,53.3671,0.870658,1582752586.13
1734,867,12636,76.467,53.5031,0.836167,1582752588.19
1736,868,12683,76.832,53.616,0.856022,1582752590.13
1738,869,14073,76.1993,54.7891,0.986053,1582752592.145
1740,870,13131,76.2658,54.8912,0.865187,1582752594.16
1742,871,14297,75.7836,54.5458,0.96936,1582752596.115
1744,872,13823,75.4917,54.637,0.865968,1582752598.16
1746,873,13672,75.2751,54.9507,0.851544,1582752600.17
1748,874,13823,75.0536,54.9202,0.852506,1582752602.165
1750,875,13908,75.3963,54.6708,0.839679,1582752604.125
1752,876,13742,75.0544,54.9055,0.842589,1582752606.15
1754,877,13514,75.7431,54.6482,0.831161,1582752608.155
1756,878,13544,75.6367,55.0004,0.832605,1582752610.115
1758,879,13540,75.4641,55.1688,0.824483,1582752612.14
1760,880,13687,75.1381,55.3746,0.881754,1582752614.14
1762,881,13778,75.1003,55.8674,0.840411,1582752616.15
1764,882,13822,75.4031,55.4847,0.828144,1582752618.14
1766,883,13759,75.1428,55.5052,0.826089,1582752620.15
1768,884,13841,75.062,55.7446,0.856527,1582752622.195
1770,885,13415,75.5022,55.5016,0.888262,1582752624.19
1772,886,13976,75.2626,55.2747,0.845101,1582752626.165
1774,887,14180,74.2306,55.5985,0.856148,1582752628.155
1776,888,13876,74.7104,55.1244,0.850978,1582752630.22
1778,889,14311,74.1854,55.0719,0.840268,1582752632.175
1780,890,14377,73.8865,54.2017,0.832527,1582752634.165
1782,891,13675,73.6277,53.5483,0.8362,1582752636.155
1784,892,13288,73.1843,52.0352,0.855101,1582752638.125
1786,893,12371,72.9408,50.3185,0.844179,1582752640.115
1788,894,11331,72.8499,48.4232,0.891738,1582752642.16
1790,895,9458,72.7598,46.5028,0.851003,1582752644.125
1792,896,7767,72.7294,44.5706,0.85573,1582752646.155
1794,897,7592,72.7228,42.7456,0.841569,1582752648.12
1796,898,6184,72.8255,40.7763,0.844588,1582752650.2
1798,899,4881,72.9494,38.9081,0.887856,1582752652.19
1800,900,5654,73.0337,37.0021,0.902834,1582752654.2
1802,901,6181,73.1339,35.2106,0.894298,1582752656.18
1804,902,6039,73.3744,33.5023,0.93372,1582752658.14
1806,903,5420,73.6412,31.5574,0.95083,1582752660.17
1808,904,7890,73.7274,29.829,0.942954,1582752662.13
1810,905,7280,73.7839,30.8683,0.953097,1582752664.12
1812,906,7136,74.0073,31.8531,0.962943,1582752666.165
1814,907,6358,73.5247,33.3563,0.939717,1582752668.13
1816,908,6069,73.2849,34.3579,0.936747,1582752670.11
1818,909,6524,73.4833,32.1746,0.948134,1582752672.195
1820,910,6449,73.3665,30.4188,0.952708,1582752674.185
1822,911,6219,73.0107,28.9104,0.947781,1582752676.13
1824,912,5680,73.0953,27.7902,0.949124,1582752678.175
1826,913,5573,73.2937,27.7898,0.952938,1582752680.115
1828,914,5167,73.8735,27.152,0.966458,1582752682.13
1830,915,4972,75.2244,26.1444,1.01615,1582752684.16
1832,916,4003,76.8099,25.3533,1.01468,1582752686.145
1834,917,3777,78.4912,24.8002,1.02526,1582752688.135
1836,918,3836,78.26,24.8607,1.02361,1582752690.13
1838,919,3980,76.9375,25.2703,1.02757,1582752692.12
1840,920,4657,75.5372,26.1884,1.00732,1582752694.14
1842,921,4995,74.0016,27.4998,0.992598,1582752696.18
1844,922,5259,73.4837,27.8738,0.965225,1582752698.16
1846,923,5524,73.0013,29.1517,0.969502,1582752700.16
1848,924,5751,72.9564,30.2873,0.979312,1582752702.19
1850,925,5777,73.1686,31.9514,0.972204,1582752704.195
1852,926,5693,73.1666,33.3622,0.964885,1582752706.23
1854,927,5645,73.1009,35.2937,0.916664,1582752708.18
1856,928,5397,73.0477,37.2226,0.911123,1582752710.14
1858,929,5644,73.001,39.1445,0.89797,1582752712.14
1860,930,6610,73.038,41.1012,0.862238,1582752714.155
1862,931,7344,73.0808,43.0659,0.859951,1582752716.15
1864,932,8305,73.1282,45.0295,0.865632,1582752718.135
1866,933,9071,73.1816,46.6754,0.857073,1582752720.125
1868,934,9864,73.0297,47.9852,0.848761,1582752722.21
1870,935,11800,72.6229,49.6568,0.855144,1582752724.16
1872,936,12071,72.6755,50.3623,0.808433,1582752726.19
1874,937,12634,72.2182,50.4838,0.804823,1582752728.15
1876,938,13195,71.4335,50.6078,0.802528,1582752730.165
1878,939,13155,70.4526,49.8297,0.805624,1582752732.115
1880,940,13335,69.2873,49.8545,0.807306,1582752734.16
1882,941,13221,67.9823,49.9715,0.806921,1582752736.16
1884,942,12589,67.2463,49.6191,0.790727,1582752738.145
1886,943,11685,65.3984,48.7696,0.809341,1582752740.14
1888,944,10785,64.0625,48.1819,0.802081,1582752742.175
1890,945,9574,63.5668,48.0998,0.786222,1582752744.185
1892,946,7941,62.4456,46.5753,0.769204,1582752746.175
1894,947,7592,62.1461,46.0537,0.758621,1582752748.18
1896,948,9210,63.2513,47.8143,0.752066,1582752750.15
1898,949,8961,63.1115,48.315,0.75134,1582752752.035
