0:1811
1:1498
2:1271
3:1359
4:1000
5:1389
6:1145
7:1687
8:1221
9:1789
10:3379
11:2936
12:6182
13:7151
14:4332
15:7269
16:7498
17:11375
18:7008
19:8430
20:13804
21:8061
22:10896
23:7334
24:6569
25:3426
26:2107
27:4921
28:4096
29:6734
