0:1094
1:1320
2:1180
3:1113
4:931
5:1583
6:1228
7:1349
8:1261
9:1841
10:1267
11:2500
12:3144
13:5904
14:5065
15:4170
16:6259
17:5786
18:6856
19:7605
20:9298
21:8472
22:10167
23:9103
24:9332
25:7321
26:3864
27:2725
28:4885
29:5160
30:6511
