0:1811
1:1411
2:1241
3:1284
4:953
5:1497
6:1479
7:1473
8:1158
9:1714
10:3169
11:3613
12:6232
13:7362
14:5668
15:9447
16:6909
17:8252
18:7482
19:8398
20:12341
21:8274
22:10768
23:7202
24:6045
25:2420
26:8546
27:8859
28:8011
29:9864
