0:1811
1:1411
2:1254
3:1335
4:1000
5:1389
6:1137
7:1687
8:1173
9:1116
10:3464
11:5222
12:6442
13:5744
14:5666
15:9046
16:6341
17:7780
18:7073
19:8621
20:11360
21:6894
22:6898
23:8071
24:6625
25:2058
26:5006
27:7287
28:5102
29:7964
