0:1442
1:1320
2:1358
3:1514
4:1021
5:1305
6:1328
7:1551
8:1679
9:1986
10:1538
11:1867
12:2928
13:5904
14:4080
15:4112
16:6578
17:7151
18:9245
19:8341
20:7849
21:10675
22:11021
23:7922
24:9598
25:7531
26:9113
27:6212
28:2953
29:1421
30:4261
31:6985
