0:1878
1:1391
2:1287
3:1305
4:878
5:1466
6:1460
7:1720
8:1426
9:3487
10:4055
11:6397
12:7707
13:5733
14:8532
15:6345
16:8121
17:8518
18:8569
19:13976
20:14021
21:8236
22:10911
23:6901
24:6382
25:2795
26:5632
27:5651
28:4955
29:7392
