0:1811
1:1411
2:1241
3:1153
4:939
5:1393
6:1394
7:1473
8:1720
9:1437
10:3503
11:5123
12:6474
13:5979
14:5818
15:6135
16:6196
17:10941
18:7727
19:6732
20:15256
21:12897
22:8060
23:10777
24:7056
25:6166
26:1701
27:4388
28:7251
29:5106
30:6631
