0:1113
1:1156
2:1080
3:1875
4:1540
5:1097
6:4747
7:5652
8:5348
9:4116
10:6211
11:7608
12:8555
13:6376
14:7566
15:6538
16:6379
17:4914
18:7182
19:7087
20:9799
21:8039
22:9989
23:10156
24:7910
25:7988
26:6194
27:4229
28:6384
29:5111
30:9793
31:12197
32:6661
33:11747
34:7360
35:2964
36:12408
37:11369
38:9476
39:7743
40:5174
41:3187
42:14672
43:18984
