0:1134
1:1224
2:1099
3:1721
4:1591
5:2361
6:3430
7:6244
8:5484
9:4608
10:6680
11:7736
12:8562
13:6477
14:7802
15:6622
16:6665
17:5131
18:4999
19:7454
20:7525
21:8693
22:7637
23:8923
24:9291
25:6114
26:7093
27:6024
28:8746
29:8574
30:8139
31:11704
32:8763
33:13396
34:8161
35:6279
36:8675
37:8286
38:8311
39:9907
40:5980
41:7792
42:8307
43:12689
44:6955
