Oracle,Oracle-P,SSAP,CM,CSP,Random
1,1,0.909090909090909,1,0.818181818181818,0.363636363636364
1,0.8,1,0.6,0.2,0.2
1,1,1,0.857142857142857,0.857142857142857,0.142857142857143
1,1,1,1,0.888888888888889,0.111111111111111
1,0.888888888888889,1,0.888888888888889,0.888888888888889,0.222222222222222
1,0.875,0.75,0.625,0.75,0.375
1,0.888888888888889,1,0.888888888888889,0.666666666666667,0.111111111111111
1,1,1,0.888888888888889,1,0.555555555555556
1,0.888888888888889,1,0.888888888888889,0.555555555555556,0.111111111111111
1,1,0.333333333333333,0.666666666666667,0.5,0.5
1,1,0.833333333333333,0.833333333333333,0.916666666666667,0.25
1,0.875,0.75,0.625,0.5,0.25
1,0.888888888888889,1,0.888888888888889,0.555555555555556,0.333333333333333
1,0.9,1,0.9,0.3,0.1
1,1,1,0.8,0.6,0.4
1,1,0.9,0.8,0.8,0.4
1,0.888888888888889,1,0.888888888888889,0.555555555555556,0.444444444444444
1,0.909090909090909,1,0.727272727272727,0.272727272727273,0.454545454545455
1,1,1,1,0.5,0.1
1,0.888888888888889,1,0.777777777777778,0.777777777777778,0.333333333333333
1,0.777777777777778,0.888888888888889,0.555555555555556,0.777777777777778,0.444444444444444
1,1,0.833333333333333,0.666666666666667,0.5,0.5
1,0.833333333333333,0.75,0.75,0.5,0.583333333333333
1,1,0.888888888888889,0.888888888888889,0.666666666666667,0.444444444444444
1,1,0.909090909090909,0.909090909090909,0.272727272727273,0.090909090909091
1,1,0.75,0.625,0.625,0.125
1,1,1,0.875,0.75,0.5
1,1,0.714285714285714,0.571428571428571,0.571428571428571,0.428571428571429
1,1,0.833333333333333,0.333333333333333,0.166666666666667,0.166666666666667
1,0.888888888888889,1,0.777777777777778,0.333333333333333,0.333333333333333
1,0.888888888888889,1,0.777777777777778,0.555555555555556,0.222222222222222
1,0.888888888888889,0.888888888888889,0.777777777777778,0.666666666666667,0.333333333333333
1,0.888888888888889,0.888888888888889,0.666666666666667,0.666666666666667,0.333333333333333
1,1,1,1,0.555555555555556,0.111111111111111
1,0.9,1,0.5,0.6,0.5
1,1,0.875,0.875,0.75,0
1,0.888888888888889,1,0.666666666666667,0.444444444444444,0.111111111111111
1,0.888888888888889,0.777777777777778,0.333333333333333,0.555555555555556,0.444444444444444
1,1,1,1,0.125,0.5
1,0.875,1,0.875,0.25,0
1,0.9,1,0.8,0.4,0.3
1,0.888888888888889,1,0.888888888888889,0,0
1,0.9,0.9,0.6,0.7,0
1,1,0.714285714285714,0.714285714285714,0.142857142857143,0.142857142857143
1,1,1,0.583333333333333,0.5,0
1,1,0.909090909090909,0.909090909090909,0.909090909090909,0.090909090909091
1,1,1,0.888888888888889,0.555555555555556,0.111111111111111
1,1,1,0.857142857142857,0.142857142857143,0.285714285714286
1,1,1,1,0.555555555555556,0.333333333333333
1,1,1,0.857142857142857,0.714285714285714,0.285714285714286
1,0.75,0.75,0.625,0.25,0.125
1,0.9,0.9,0.7,0.4,0.3
1,1,1,1,0.4,0.4
1,0.888888888888889,1,0.777777777777778,0.555555555555556,0.555555555555556
1,0.9,1,0.9,0.6,0.2
1,1,1,1,0.333333333333333,0.25
1,0.888888888888889,0.888888888888889,0.777777777777778,0.666666666666667,0.222222222222222
1,1,0.909090909090909,0.909090909090909,0.545454545454545,0.272727272727273
1,1,1,0.888888888888889,0.888888888888889,0.555555555555556
1,0.666666666666667,1,0.666666666666667,0.333333333333333,0.444444444444444
1,0.888888888888889,1,0.888888888888889,0,0.222222222222222
1,1,1,1,0,0.111111111111111
1,0.888888888888889,1,0.888888888888889,0.444444444444444,0.111111111111111
1,0.888888888888889,1,0.888888888888889,0.444444444444444,0.444444444444444
1,0.875,1,0.875,0.375,0.5
1,0.9,1,0.7,0.3,0.3
1,0.9,1,0.8,0.3,0.3
1,0.7,1,0.4,0.5,0.1
1,0.9,1,0.6,0.3,0
1,1,0.666666666666667,0.666666666666667,0.5,0.333333333333333
1,1,0.818181818181818,1,0.818181818181818,0.181818181818182
1,0.888888888888889,1,0.888888888888889,0.777777777777778,0.111111111111111
1,1,0.875,0.75,0.75,0.375
1,0.75,1,0.583333333333333,0.416666666666667,0.083333333333333
1,0.888888888888889,1,0.888888888888889,0.444444444444444,0.222222222222222
1,0.888888888888889,1,0.888888888888889,0.333333333333333,0.333333333333333
1,1,1,1,0.444444444444444,0.333333333333333
1,0.888888888888889,1,0.888888888888889,0.333333333333333,0.333333333333333
1,0.818181818181818,1,0.727272727272727,0.636363636363636,0.363636363636364
1,1,1,1,0.375,0.125
1,0.888888888888889,0.777777777777778,0.777777777777778,0.444444444444444,0.222222222222222
1,0.666666666666667,1,0.555555555555556,0.444444444444444,0.777777777777778
1,1,0.909090909090909,0.909090909090909,0.363636363636364,0.272727272727273
1,1,0.714285714285714,0.714285714285714,0.714285714285714,0.571428571428571
1,1,1,0.857142857142857,1,0.857142857142857
1,1,1,1,0.25,0.125
1,0.9,1,0.8,0.5,0.3
1,1,0.75,1,0.375,0.375
1,0.857142857142857,0.714285714285714,0.714285714285714,0.142857142857143,0.142857142857143
1,0.777777777777778,0.666666666666667,0.555555555555556,0.333333333333333,0.222222222222222
1,1,1,0.857142857142857,1,0.142857142857143
1,1,0.875,0.75,1,0.375
1,1,0.75,0.75,0.75,0.25
1,1,0.714285714285714,1,0.142857142857143,0.285714285714286
1,1,1,0.888888888888889,0.666666666666667,0.444444444444444
1,0.777777777777778,0.777777777777778,0.777777777777778,0.444444444444444,0.222222222222222
1,1,1,1,0.333333333333333,0.444444444444444
1,0.888888888888889,1,0.777777777777778,0.444444444444444,0.333333333333333
1,0.9,1,0.7,0.7,0.1
1,0.888888888888889,1,0.777777777777778,0.777777777777778,0.444444444444444
1,1,0.666666666666667,0.833333333333333,0.666666666666667,0.333333333333333
1,0.888888888888889,1,0.888888888888889,0.222222222222222,0.111111111111111
1,0.888888888888889,1,0.888888888888889,0.555555555555556,0.111111111111111
1,1,1,0.666666666666667,0.444444444444444,0.111111111111111
1,0.888888888888889,0.888888888888889,0.777777777777778,0.444444444444444,0.222222222222222
1,0.777777777777778,1,0.555555555555556,0,0.111111111111111
1,1,0.909090909090909,1,0,0
1,0.9,1,0.7,0.3,0
1,1,1,1,0.666666666666667,0.222222222222222
1,0.888888888888889,1,0.777777777777778,0.555555555555556,0.555555555555556
1,0.888888888888889,1,0.888888888888889,0.888888888888889,0.333333333333333
1,1,0.888888888888889,0.666666666666667,0.666666666666667,0.333333333333333
1,1,1,1,0.444444444444444,0.111111111111111
1,0.857142857142857,1,0.857142857142857,0.857142857142857,0.428571428571429
1,1,1,1,1,0.111111111111111
1,0.888888888888889,1,0.666666666666667,0.333333333333333,0.666666666666667
1,1,0.714285714285714,0.714285714285714,0.285714285714286,0
1,1,1,1,1,0.25
1,1,1,1,0.666666666666667,0.333333333333333
1,1,0.916666666666667,0.916666666666667,0.916666666666667,0.083333333333333
1,0.833333333333333,1,0.666666666666667,0.75,0.333333333333333
1,1,0.714285714285714,0.714285714285714,0.571428571428571,0.285714285714286
1,1,0.888888888888889,0.888888888888889,1,0.333333333333333
1,0.916666666666667,0.833333333333333,0.833333333333333,0.333333333333333,0.166666666666667
1,0.888888888888889,1,0.888888888888889,0.555555555555556,0.333333333333333
1,0.818181818181818,1,0.636363636363636,0.454545454545455,0.181818181818182
1,1,0.9,1,0.4,0.4
1,1,0.75,0.25,0.25,0.5
1,1,1,1,0.75,0.125
1,1,1,1,0.111111111111111,0.333333333333333
1,1,0.75,0.875,0.5,0.125
1,1,0.857142857142857,0.857142857142857,0.714285714285714,0.285714285714286
1,0.833333333333333,1,0.416666666666667,0.75,0.333333333333333
1,0.9,1,0.9,0.5,0.4
1,0.888888888888889,1,0.888888888888889,0.666666666666667,0.222222222222222
1,0.916666666666667,0.916666666666667,0.916666666666667,0.583333333333333,0.083333333333333
1,0.916666666666667,1,0.75,0.5,0.333333333333333
1,1,0.9,0.8,0.2,0.2
1,1,0.777777777777778,1,0.333333333333333,0
1,0.8,0.9,0.7,0.8,0.1
1,1,0.714285714285714,0.714285714285714,0.714285714285714,0
1,1,1,1,0.7,0.3
1,1,0.875,0.875,0,0
1,0.875,1,0.75,0.5,0.25
1,0.916666666666667,1,0.833333333333333,0.5,0.333333333333333
1,0.888888888888889,1,0.888888888888889,0.444444444444444,0.222222222222222
1,0.888888888888889,1,0.777777777777778,0.222222222222222,0.444444444444444
1,0.9,0.9,0.7,0.7,0.4
1,0.857142857142857,0.428571428571429,0.714285714285714,0.428571428571429,0.142857142857143
1,0.833333333333333,0.916666666666667,0.583333333333333,0.416666666666667,0.25
