0:2190
1:2209
2:5915
3:9389
4:8836
5:9396
6:8370
7:6688
8:5779
9:6327
10:7918
11:7936
12:9098
13:2714
14:4057
15:4169
16:4123
17:7108
18:3212
19:4462
20:5885
21:8956
22:5594
23:11714
24:8467
25:14556
26:6664
27:5547
28:4809
29:5789
30:4919
31:7968
32:8467
33:7849
34:10749
35:6109
36:9274
37:5894
38:2545
39:2301
40:4089
41:5372
42:15871
43:14094
44:9872
45:8899
46:7249
47:7078
48:7046
49:12504
50:15042
51:15713
52:8665
53:2355
54:3587
55:4831
56:7391
57:9485
