0:2563
1:2495
2:4033
3:9780
4:8835
5:9674
6:8527
7:8971
8:5755
9:4593
10:6522
11:9129
12:8083
13:4521
14:3107
15:3604
16:4186
17:2873
18:4992
19:6290
20:4939
21:8903
22:7727
23:9443
24:15767
25:9190
26:8071
27:6935
28:6534
29:5651
30:6907
31:4441
32:9704
33:9016
34:7835
35:6733
36:9646
37:10511
38:9047
39:7843
40:5821
41:3678
42:4717
43:3450
44:5043
45:12206
46:11856
47:6369
48:4732
49:7297
50:5550
51:10837
52:13295
53:5463
54:4021
55:6097
56:3709
57:7406
